Description,Scientific Name,Max Score,Total Score,Query Cover,E value,Per. ident,Acc. Len,Accession  
porin OmpK37 [Escherichia coli],Escherichia coli,777,777,100%,0.0,100.00,384,"=HYPERLINK(""https://www.ncbi.nlm.nih.gov/protein/UMX57629.1?report=genbank&log$=prottop&blast_rank=1&RID=BFGHV66D013"",""UMX57629.1"")"
porin [Escherichia coli],Escherichia coli,585,585,75%,0.0,100.00,288,"=HYPERLINK(""https://www.ncbi.nlm.nih.gov/protein/OJS35195.1?report=genbank&log$=prottop&blast_rank=2&RID=BFGHV66D013"",""OJS35195.1"")"
porin OmpK37 [Escherichia coli],Escherichia coli,721,721,100%,0.0,94.53,374,"=HYPERLINK(""https://www.ncbi.nlm.nih.gov/protein/UYM65544.1?report=genbank&log$=prottop&blast_rank=3&RID=BFGHV66D013"",""UYM65544.1"")"
porin OmpK37 [Escherichia coli],Escherichia coli,599,599,83%,0.0,93.77,311,"=HYPERLINK(""https://www.ncbi.nlm.nih.gov/protein/EFD5124108.1?report=genbank&log$=prottop&blast_rank=4&RID=BFGHV66D013"",""EFD5124108.1"")"
porin OmpC [Escherichia coli],Escherichia coli,634,634,94%,0.0,87.64,371,"=HYPERLINK(""https://www.ncbi.nlm.nih.gov/protein/EEC7187560.1?report=genbank&log$=prottop&blast_rank=5&RID=BFGHV66D013"",""EEC7187560.1"")"
porin OmpC [Escherichia coli],Escherichia coli,646,646,100%,0.0,87.05,385,"=HYPERLINK(""https://www.ncbi.nlm.nih.gov/protein/MSE29464.1?report=genbank&log$=prottop&blast_rank=6&RID=BFGHV66D013"",""MSE29464.1"")"
porin OmpC [Escherichia coli],Escherichia coli,599,599,100%,0.0,80.26,369,"=HYPERLINK(""https://www.ncbi.nlm.nih.gov/protein/MXG72425.1?report=genbank&log$=prottop&blast_rank=7&RID=BFGHV66D013"",""MXG72425.1"")"
porin OmpC [Escherichia coli],Escherichia coli,602,602,100%,0.0,80.21,386,"=HYPERLINK(""https://www.ncbi.nlm.nih.gov/protein/TOY97841.1?report=genbank&log$=prottop&blast_rank=8&RID=BFGHV66D013"",""TOY97841.1"")"
porin OmpC [Escherichia coli],Escherichia coli,590,590,100%,0.0,78.39,369,"=HYPERLINK(""https://www.ncbi.nlm.nih.gov/protein/MDI4537231.1?report=genbank&log$=prottop&blast_rank=9&RID=BFGHV66D013"",""MDI4537231.1"")"
porin OmpN [Escherichia],Escherichia,583,583,100%,0.0,77.24,377,"=HYPERLINK(""https://www.ncbi.nlm.nih.gov/protein/WP_000837952.1?report=genbank&log$=prottop&blast_rank=10&RID=BFGHV66D013"",""WP_000837952.1"")"
porin OmpN [Escherichia coli],Escherichia coli,548,548,100%,0.0,77.18,377,"=HYPERLINK(""https://www.ncbi.nlm.nih.gov/protein/WP_301072960.1?report=genbank&log$=prottop&blast_rank=11&RID=BFGHV66D013"",""WP_301072960.1"")"
porin OmpN [Escherichia coli],Escherichia coli,547,547,100%,0.0,77.18,377,"=HYPERLINK(""https://www.ncbi.nlm.nih.gov/protein/WP_097586134.1?report=genbank&log$=prottop&blast_rank=12&RID=BFGHV66D013"",""WP_097586134.1"")"
porin OmpN [Escherichia coli],Escherichia coli,546,546,100%,0.0,77.18,377,"=HYPERLINK(""https://www.ncbi.nlm.nih.gov/protein/EGI6809024.1?report=genbank&log$=prottop&blast_rank=13&RID=BFGHV66D013"",""EGI6809024.1"")"
porin OmpN [Escherichia coli],Escherichia coli,560,560,100%,0.0,76.98,377,"=HYPERLINK(""https://www.ncbi.nlm.nih.gov/protein/EEG9014642.1?report=genbank&log$=prottop&blast_rank=14&RID=BFGHV66D013"",""EEG9014642.1"")"
porin OmpN [Escherichia coli],Escherichia coli,549,549,100%,0.0,76.98,377,"=HYPERLINK(""https://www.ncbi.nlm.nih.gov/protein/WP_112022167.1?report=genbank&log$=prottop&blast_rank=15&RID=BFGHV66D013"",""WP_112022167.1"")"
porin OmpN [Escherichia coli],Escherichia coli,547,547,100%,0.0,76.98,377,"=HYPERLINK(""https://www.ncbi.nlm.nih.gov/protein/MDL6476478.1?report=genbank&log$=prottop&blast_rank=16&RID=BFGHV66D013"",""MDL6476478.1"")"
porin OmpN [Escherichia coli],Escherichia coli,547,547,100%,0.0,76.98,377,"=HYPERLINK(""https://www.ncbi.nlm.nih.gov/protein/EHL5561472.1?report=genbank&log$=prottop&blast_rank=17&RID=BFGHV66D013"",""EHL5561472.1"")"
porin OmpN [Escherichia coli],Escherichia coli,547,547,100%,0.0,76.98,377,"=HYPERLINK(""https://www.ncbi.nlm.nih.gov/protein/WP_053295221.1?report=genbank&log$=prottop&blast_rank=18&RID=BFGHV66D013"",""WP_053295221.1"")"
porin OmpN [Escherichia coli],Escherichia coli,547,547,100%,0.0,76.98,377,"=HYPERLINK(""https://www.ncbi.nlm.nih.gov/protein/EKI8945886.1?report=genbank&log$=prottop&blast_rank=19&RID=BFGHV66D013"",""EKI8945886.1"")"
porin OmpN [Escherichia coli],Escherichia coli,546,546,100%,0.0,76.98,377,"=HYPERLINK(""https://www.ncbi.nlm.nih.gov/protein/EFH4900678.1?report=genbank&log$=prottop&blast_rank=20&RID=BFGHV66D013"",""EFH4900678.1"")"
porin OmpN [Escherichia coli],Escherichia coli,546,546,100%,0.0,76.98,377,"=HYPERLINK(""https://www.ncbi.nlm.nih.gov/protein/EHB4523621.1?report=genbank&log$=prottop&blast_rank=21&RID=BFGHV66D013"",""EHB4523621.1"")"
porin OmpN [Enterobacteriaceae],Enterobacteriaceae,546,546,100%,0.0,76.98,377,"=HYPERLINK(""https://www.ncbi.nlm.nih.gov/protein/WP_063614738.1?report=genbank&log$=prottop&blast_rank=22&RID=BFGHV66D013"",""WP_063614738.1"")"
porin OmpN [Escherichia coli],Escherichia coli,548,548,100%,0.0,76.92,377,"=HYPERLINK(""https://www.ncbi.nlm.nih.gov/protein/WP_218071245.1?report=genbank&log$=prottop&blast_rank=23&RID=BFGHV66D013"",""WP_218071245.1"")"
porin OmpN [Escherichia coli],Escherichia coli,548,548,100%,0.0,76.92,377,"=HYPERLINK(""https://www.ncbi.nlm.nih.gov/protein/MCV5816968.1?report=genbank&log$=prottop&blast_rank=24&RID=BFGHV66D013"",""MCV5816968.1"")"
porin OmpN [Escherichia coli],Escherichia coli,548,548,100%,0.0,76.92,377,"=HYPERLINK(""https://www.ncbi.nlm.nih.gov/protein/MCU9672385.1?report=genbank&log$=prottop&blast_rank=25&RID=BFGHV66D013"",""MCU9672385.1"")"
TPA: porin OmpN [Escherichia coli],Escherichia coli,547,547,100%,0.0,76.92,377,"=HYPERLINK(""https://www.ncbi.nlm.nih.gov/protein/HAJ4481959.1?report=genbank&log$=prottop&blast_rank=26&RID=BFGHV66D013"",""HAJ4481959.1"")"
porin OmpN [Escherichia coli],Escherichia coli,547,547,100%,0.0,76.92,377,"=HYPERLINK(""https://www.ncbi.nlm.nih.gov/protein/WP_047643691.1?report=genbank&log$=prottop&blast_rank=27&RID=BFGHV66D013"",""WP_047643691.1"")"
porin OmpN [Escherichia coli],Escherichia coli,547,547,100%,0.0,76.92,377,"=HYPERLINK(""https://www.ncbi.nlm.nih.gov/protein/WP_089642264.1?report=genbank&log$=prottop&blast_rank=28&RID=BFGHV66D013"",""WP_089642264.1"")"
porin OmpN [Escherichia coli],Escherichia coli,547,547,100%,0.0,76.92,377,"=HYPERLINK(""https://www.ncbi.nlm.nih.gov/protein/WP_258741902.1?report=genbank&log$=prottop&blast_rank=29&RID=BFGHV66D013"",""WP_258741902.1"")"
porin OmpN [Escherichia coli],Escherichia coli,547,547,100%,0.0,76.92,377,"=HYPERLINK(""https://www.ncbi.nlm.nih.gov/protein/WP_134411769.1?report=genbank&log$=prottop&blast_rank=30&RID=BFGHV66D013"",""WP_134411769.1"")"
TPA: porin OmpN [Escherichia coli],Escherichia coli,546,546,100%,0.0,76.92,377,"=HYPERLINK(""https://www.ncbi.nlm.nih.gov/protein/HDM0098512.1?report=genbank&log$=prottop&blast_rank=31&RID=BFGHV66D013"",""HDM0098512.1"")"
porin OmpN [Escherichia coli],Escherichia coli,546,546,100%,0.0,76.92,377,"=HYPERLINK(""https://www.ncbi.nlm.nih.gov/protein/WP_001460851.1?report=genbank&log$=prottop&blast_rank=32&RID=BFGHV66D013"",""WP_001460851.1"")"
porin OmpN [Escherichia coli],Escherichia coli,546,546,100%,0.0,76.92,377,"=HYPERLINK(""https://www.ncbi.nlm.nih.gov/protein/WP_198995018.1?report=genbank&log$=prottop&blast_rank=33&RID=BFGHV66D013"",""WP_198995018.1"")"
porin OmpN [Escherichia coli],Escherichia coli,546,546,100%,0.0,76.92,377,"=HYPERLINK(""https://www.ncbi.nlm.nih.gov/protein/WP_249562947.1?report=genbank&log$=prottop&blast_rank=34&RID=BFGHV66D013"",""WP_249562947.1"")"
porin OmpN [Escherichia coli],Escherichia coli,546,546,100%,0.0,76.92,377,"=HYPERLINK(""https://www.ncbi.nlm.nih.gov/protein/WP_097475148.1?report=genbank&log$=prottop&blast_rank=35&RID=BFGHV66D013"",""WP_097475148.1"")"
porin OmpN [Escherichia coli],Escherichia coli,546,546,100%,0.0,76.92,377,"=HYPERLINK(""https://www.ncbi.nlm.nih.gov/protein/WP_000837928.1?report=genbank&log$=prottop&blast_rank=36&RID=BFGHV66D013"",""WP_000837928.1"")"
porin OmpN [Escherichia coli],Escherichia coli,546,546,100%,0.0,76.92,377,"=HYPERLINK(""https://www.ncbi.nlm.nih.gov/protein/WP_021576158.1?report=genbank&log$=prottop&blast_rank=37&RID=BFGHV66D013"",""WP_021576158.1"")"
porin OmpN [Escherichia],Escherichia,546,546,100%,0.0,76.92,377,"=HYPERLINK(""https://www.ncbi.nlm.nih.gov/protein/WP_000837907.1?report=genbank&log$=prottop&blast_rank=38&RID=BFGHV66D013"",""WP_000837907.1"")"
porin OmpN [Escherichia coli],Escherichia coli,560,560,100%,0.0,76.73,377,"=HYPERLINK(""https://www.ncbi.nlm.nih.gov/protein/WP_160420795.1?report=genbank&log$=prottop&blast_rank=39&RID=BFGHV66D013"",""WP_160420795.1"")"
porin OmpN [Escherichia coli],Escherichia coli,548,548,100%,0.0,76.73,377,"=HYPERLINK(""https://www.ncbi.nlm.nih.gov/protein/WP_112867491.1?report=genbank&log$=prottop&blast_rank=40&RID=BFGHV66D013"",""WP_112867491.1"")"
TPA: porin OmpN [Escherichia coli],Escherichia coli,546,546,100%,0.0,76.73,377,"=HYPERLINK(""https://www.ncbi.nlm.nih.gov/protein/HCN4675722.1?report=genbank&log$=prottop&blast_rank=41&RID=BFGHV66D013"",""HCN4675722.1"")"
porin OmpN [Escherichia coli],Escherichia coli,546,546,100%,0.0,76.73,377,"=HYPERLINK(""https://www.ncbi.nlm.nih.gov/protein/EFU9581952.1?report=genbank&log$=prottop&blast_rank=42&RID=BFGHV66D013"",""EFU9581952.1"")"
porin OmpN [Escherichia coli],Escherichia coli,546,546,100%,0.0,76.73,377,"=HYPERLINK(""https://www.ncbi.nlm.nih.gov/protein/WP_170838479.1?report=genbank&log$=prottop&blast_rank=43&RID=BFGHV66D013"",""WP_170838479.1"")"
porin OmpN [Escherichia coli],Escherichia coli,546,546,100%,0.0,76.73,377,"=HYPERLINK(""https://www.ncbi.nlm.nih.gov/protein/WP_068868351.1?report=genbank&log$=prottop&blast_rank=44&RID=BFGHV66D013"",""WP_068868351.1"")"
TPA: porin OmpN [Escherichia coli],Escherichia coli,546,546,100%,0.0,76.73,377,"=HYPERLINK(""https://www.ncbi.nlm.nih.gov/protein/HCL9304066.1?report=genbank&log$=prottop&blast_rank=45&RID=BFGHV66D013"",""HCL9304066.1"")"
porin OmpN [Escherichia coli],Escherichia coli,546,546,100%,0.0,76.73,377,"=HYPERLINK(""https://www.ncbi.nlm.nih.gov/protein/EHV4470485.1?report=genbank&log$=prottop&blast_rank=46&RID=BFGHV66D013"",""EHV4470485.1"")"
porin OmpN [Escherichia coli],Escherichia coli,546,546,100%,0.0,76.73,377,"=HYPERLINK(""https://www.ncbi.nlm.nih.gov/protein/WP_096159317.1?report=genbank&log$=prottop&blast_rank=47&RID=BFGHV66D013"",""WP_096159317.1"")"
porin OmpN [Escherichia coli],Escherichia coli,546,546,100%,0.0,76.73,377,"=HYPERLINK(""https://www.ncbi.nlm.nih.gov/protein/WP_052937596.1?report=genbank&log$=prottop&blast_rank=48&RID=BFGHV66D013"",""WP_052937596.1"")"
porin OmpN [Escherichia coli],Escherichia coli,546,546,100%,0.0,76.73,377,"=HYPERLINK(""https://www.ncbi.nlm.nih.gov/protein/WP_231352009.1?report=genbank&log$=prottop&blast_rank=49&RID=BFGHV66D013"",""WP_231352009.1"")"
TPA: porin OmpN [Escherichia coli],Escherichia coli,546,546,100%,0.0,76.73,377,"=HYPERLINK(""https://www.ncbi.nlm.nih.gov/protein/HAW0295695.1?report=genbank&log$=prottop&blast_rank=50&RID=BFGHV66D013"",""HAW0295695.1"")"
porin OmpN [Escherichia coli],Escherichia coli,546,546,100%,0.0,76.73,377,"=HYPERLINK(""https://www.ncbi.nlm.nih.gov/protein/EED1439944.1?report=genbank&log$=prottop&blast_rank=51&RID=BFGHV66D013"",""EED1439944.1"")"
porin OmpN [Escherichia coli],Escherichia coli,546,546,100%,0.0,76.73,377,"=HYPERLINK(""https://www.ncbi.nlm.nih.gov/protein/EFD0825969.1?report=genbank&log$=prottop&blast_rank=52&RID=BFGHV66D013"",""EFD0825969.1"")"
porin OmpN [Escherichia coli],Escherichia coli,546,546,100%,0.0,76.73,377,"=HYPERLINK(""https://www.ncbi.nlm.nih.gov/protein/EGP4277282.1?report=genbank&log$=prottop&blast_rank=53&RID=BFGHV66D013"",""EGP4277282.1"")"
porin OmpN [Escherichia coli],Escherichia coli,546,546,100%,0.0,76.73,377,"=HYPERLINK(""https://www.ncbi.nlm.nih.gov/protein/MCN5971117.1?report=genbank&log$=prottop&blast_rank=54&RID=BFGHV66D013"",""MCN5971117.1"")"
porin OmpN [Escherichia coli],Escherichia coli,546,546,100%,0.0,76.73,377,"=HYPERLINK(""https://www.ncbi.nlm.nih.gov/protein/MCV0711902.1?report=genbank&log$=prottop&blast_rank=55&RID=BFGHV66D013"",""MCV0711902.1"")"
porin OmpN [Escherichia coli],Escherichia coli,546,546,100%,0.0,76.73,377,"=HYPERLINK(""https://www.ncbi.nlm.nih.gov/protein/EFJ8867895.1?report=genbank&log$=prottop&blast_rank=56&RID=BFGHV66D013"",""EFJ8867895.1"")"
TPA: porin OmpN [Escherichia coli],Escherichia coli,546,546,100%,0.0,76.73,377,"=HYPERLINK(""https://www.ncbi.nlm.nih.gov/protein/HCP6031104.1?report=genbank&log$=prottop&blast_rank=57&RID=BFGHV66D013"",""HCP6031104.1"")"
porin OmpN [Escherichia coli],Escherichia coli,546,546,100%,0.0,76.73,377,"=HYPERLINK(""https://www.ncbi.nlm.nih.gov/protein/WP_253141530.1?report=genbank&log$=prottop&blast_rank=58&RID=BFGHV66D013"",""WP_253141530.1"")"
porin OmpN [Escherichia coli],Escherichia coli,546,546,100%,0.0,76.73,377,"=HYPERLINK(""https://www.ncbi.nlm.nih.gov/protein/EFA6887096.1?report=genbank&log$=prottop&blast_rank=59&RID=BFGHV66D013"",""EFA6887096.1"")"
porin OmpN [Escherichia coli],Escherichia coli,546,546,100%,0.0,76.73,377,"=HYPERLINK(""https://www.ncbi.nlm.nih.gov/protein/EFK6286753.1?report=genbank&log$=prottop&blast_rank=60&RID=BFGHV66D013"",""EFK6286753.1"")"
porin OmpN [Escherichia coli],Escherichia coli,545,545,100%,0.0,76.73,377,"=HYPERLINK(""https://www.ncbi.nlm.nih.gov/protein/WP_236128295.1?report=genbank&log$=prottop&blast_rank=61&RID=BFGHV66D013"",""WP_236128295.1"")"
TPA: porin OmpN [Escherichia coli],Escherichia coli,545,545,100%,0.0,76.73,377,"=HYPERLINK(""https://www.ncbi.nlm.nih.gov/protein/HAI5340258.1?report=genbank&log$=prottop&blast_rank=62&RID=BFGHV66D013"",""HAI5340258.1"")"
porin OmpN [Escherichia coli],Escherichia coli,548,548,100%,0.0,76.67,377,"=HYPERLINK(""https://www.ncbi.nlm.nih.gov/protein/EEV5540688.1?report=genbank&log$=prottop&blast_rank=63&RID=BFGHV66D013"",""EEV5540688.1"")"
porin OmpN [Escherichia coli],Escherichia coli,548,548,100%,0.0,76.67,377,"=HYPERLINK(""https://www.ncbi.nlm.nih.gov/protein/WP_021553567.1?report=genbank&log$=prottop&blast_rank=64&RID=BFGHV66D013"",""WP_021553567.1"")"
porin OmpN [Escherichia coli],Escherichia coli,547,547,100%,0.0,76.67,377,"=HYPERLINK(""https://www.ncbi.nlm.nih.gov/protein/WP_113264002.1?report=genbank&log$=prottop&blast_rank=65&RID=BFGHV66D013"",""WP_113264002.1"")"
porin OmpN [Escherichia coli],Escherichia coli,547,547,100%,0.0,76.67,377,"=HYPERLINK(""https://www.ncbi.nlm.nih.gov/protein/EFD8980758.1?report=genbank&log$=prottop&blast_rank=66&RID=BFGHV66D013"",""EFD8980758.1"")"
porin OmpN [Escherichia coli],Escherichia coli,547,547,100%,0.0,76.67,377,"=HYPERLINK(""https://www.ncbi.nlm.nih.gov/protein/WP_272480117.1?report=genbank&log$=prottop&blast_rank=67&RID=BFGHV66D013"",""WP_272480117.1"")"
porin OmpN [Escherichia coli],Escherichia coli,547,547,100%,0.0,76.67,377,"=HYPERLINK(""https://www.ncbi.nlm.nih.gov/protein/WP_115204733.1?report=genbank&log$=prottop&blast_rank=68&RID=BFGHV66D013"",""WP_115204733.1"")"
porin OmpN [Escherichia coli],Escherichia coli,547,547,100%,0.0,76.67,377,"=HYPERLINK(""https://www.ncbi.nlm.nih.gov/protein/WP_032197874.1?report=genbank&log$=prottop&blast_rank=69&RID=BFGHV66D013"",""WP_032197874.1"")"
porin OmpN [Escherichia coli],Escherichia coli,546,546,100%,0.0,76.67,377,"=HYPERLINK(""https://www.ncbi.nlm.nih.gov/protein/WP_137510135.1?report=genbank&log$=prottop&blast_rank=70&RID=BFGHV66D013"",""WP_137510135.1"")"
TPA: porin OmpN [Escherichia coli],Escherichia coli,546,546,100%,0.0,76.67,377,"=HYPERLINK(""https://www.ncbi.nlm.nih.gov/protein/HBA4297333.1?report=genbank&log$=prottop&blast_rank=71&RID=BFGHV66D013"",""HBA4297333.1"")"
TPA: porin OmpN [Escherichia coli],Escherichia coli,546,546,100%,0.0,76.67,377,"=HYPERLINK(""https://www.ncbi.nlm.nih.gov/protein/HAY1786422.1?report=genbank&log$=prottop&blast_rank=72&RID=BFGHV66D013"",""HAY1786422.1"")"
porin OmpN [Escherichia coli],Escherichia coli,546,546,100%,0.0,76.67,377,"=HYPERLINK(""https://www.ncbi.nlm.nih.gov/protein/WP_001459701.1?report=genbank&log$=prottop&blast_rank=73&RID=BFGHV66D013"",""WP_001459701.1"")"
porin OmpN [Escherichia coli],Escherichia coli,546,546,100%,0.0,76.67,377,"=HYPERLINK(""https://www.ncbi.nlm.nih.gov/protein/EEW8147138.1?report=genbank&log$=prottop&blast_rank=74&RID=BFGHV66D013"",""EEW8147138.1"")"
porin OmpN [Escherichia coli],Escherichia coli,546,546,100%,0.0,76.67,377,"=HYPERLINK(""https://www.ncbi.nlm.nih.gov/protein/WP_089591902.1?report=genbank&log$=prottop&blast_rank=75&RID=BFGHV66D013"",""WP_089591902.1"")"
porin OmpN [Escherichia coli],Escherichia coli,546,546,100%,0.0,76.67,377,"=HYPERLINK(""https://www.ncbi.nlm.nih.gov/protein/WP_220403587.1?report=genbank&log$=prottop&blast_rank=76&RID=BFGHV66D013"",""WP_220403587.1"")"
porin OmpN [Escherichia coli],Escherichia coli,546,546,100%,0.0,76.67,377,"=HYPERLINK(""https://www.ncbi.nlm.nih.gov/protein/EFH7236732.1?report=genbank&log$=prottop&blast_rank=77&RID=BFGHV66D013"",""EFH7236732.1"")"
porin OmpS2 [Escherichia coli],Escherichia coli,546,546,100%,0.0,76.67,377,"=HYPERLINK(""https://www.ncbi.nlm.nih.gov/protein/EFN9322467.1?report=genbank&log$=prottop&blast_rank=78&RID=BFGHV66D013"",""EFN9322467.1"")"
porin OmpN [Escherichia coli],Escherichia coli,546,546,100%,0.0,76.67,377,"=HYPERLINK(""https://www.ncbi.nlm.nih.gov/protein/WP_097448387.1?report=genbank&log$=prottop&blast_rank=79&RID=BFGHV66D013"",""WP_097448387.1"")"
porin OmpN [Escherichia coli],Escherichia coli,546,546,100%,0.0,76.67,377,"=HYPERLINK(""https://www.ncbi.nlm.nih.gov/protein/WP_089645613.1?report=genbank&log$=prottop&blast_rank=80&RID=BFGHV66D013"",""WP_089645613.1"")"
porin OmpN [Escherichia coli],Escherichia coli,546,546,100%,0.0,76.67,377,"=HYPERLINK(""https://www.ncbi.nlm.nih.gov/protein/WP_097377693.1?report=genbank&log$=prottop&blast_rank=81&RID=BFGHV66D013"",""WP_097377693.1"")"
porin OmpN [Escherichia coli],Escherichia coli,546,546,100%,0.0,76.67,377,"=HYPERLINK(""https://www.ncbi.nlm.nih.gov/protein/WP_087900947.1?report=genbank&log$=prottop&blast_rank=82&RID=BFGHV66D013"",""WP_087900947.1"")"
TPA: porin OmpN [Escherichia coli],Escherichia coli,546,546,100%,0.0,76.67,377,"=HYPERLINK(""https://www.ncbi.nlm.nih.gov/protein/HBP8953605.1?report=genbank&log$=prottop&blast_rank=83&RID=BFGHV66D013"",""HBP8953605.1"")"
porin OmpN [Escherichia coli],Escherichia coli,546,546,100%,0.0,76.67,377,"=HYPERLINK(""https://www.ncbi.nlm.nih.gov/protein/EHY2956496.1?report=genbank&log$=prottop&blast_rank=84&RID=BFGHV66D013"",""EHY2956496.1"")"
porin OmpN [Escherichia coli],Escherichia coli,546,546,100%,0.0,76.67,377,"=HYPERLINK(""https://www.ncbi.nlm.nih.gov/protein/WP_134269464.1?report=genbank&log$=prottop&blast_rank=85&RID=BFGHV66D013"",""WP_134269464.1"")"
TPA: porin OmpN [Escherichia coli],Escherichia coli,546,546,100%,0.0,76.67,377,"=HYPERLINK(""https://www.ncbi.nlm.nih.gov/protein/HBO4057736.1?report=genbank&log$=prottop&blast_rank=86&RID=BFGHV66D013"",""HBO4057736.1"")"
porin OmpN [Escherichia coli],Escherichia coli,546,546,100%,0.0,76.67,377,"=HYPERLINK(""https://www.ncbi.nlm.nih.gov/protein/WP_149506292.1?report=genbank&log$=prottop&blast_rank=87&RID=BFGHV66D013"",""WP_149506292.1"")"
porin OmpN [Escherichia coli],Escherichia coli,546,546,100%,0.0,76.67,377,"=HYPERLINK(""https://www.ncbi.nlm.nih.gov/protein/EFG7790967.1?report=genbank&log$=prottop&blast_rank=88&RID=BFGHV66D013"",""EFG7790967.1"")"
porin OmpN [Escherichia coli],Escherichia coli,546,546,100%,0.0,76.67,377,"=HYPERLINK(""https://www.ncbi.nlm.nih.gov/protein/WP_155085929.1?report=genbank&log$=prottop&blast_rank=89&RID=BFGHV66D013"",""WP_155085929.1"")"
porin OmpN [Escherichia coli],Escherichia coli,546,546,100%,0.0,76.67,377,"=HYPERLINK(""https://www.ncbi.nlm.nih.gov/protein/WP_160465335.1?report=genbank&log$=prottop&blast_rank=90&RID=BFGHV66D013"",""WP_160465335.1"")"
porin OmpN [Escherichia coli],Escherichia coli,546,546,100%,0.0,76.67,377,"=HYPERLINK(""https://www.ncbi.nlm.nih.gov/protein/WP_112923542.1?report=genbank&log$=prottop&blast_rank=91&RID=BFGHV66D013"",""WP_112923542.1"")"
porin OmpN [Enterobacteriaceae],Enterobacteriaceae,545,545,100%,0.0,76.67,377,"=HYPERLINK(""https://www.ncbi.nlm.nih.gov/protein/WP_033814793.1?report=genbank&log$=prottop&blast_rank=92&RID=BFGHV66D013"",""WP_033814793.1"")"
porin OmpN [Escherichia coli],Escherichia coli,545,545,100%,0.0,76.67,377,"=HYPERLINK(""https://www.ncbi.nlm.nih.gov/protein/WP_020218762.1?report=genbank&log$=prottop&blast_rank=93&RID=BFGHV66D013"",""WP_020218762.1"")"
porin OmpN [Escherichia coli],Escherichia coli,546,546,100%,0.0,76.47,377,"=HYPERLINK(""https://www.ncbi.nlm.nih.gov/protein/WP_138795931.1?report=genbank&log$=prottop&blast_rank=94&RID=BFGHV66D013"",""WP_138795931.1"")"
porin OmpN [Escherichia coli],Escherichia coli,546,546,100%,0.0,76.47,377,"=HYPERLINK(""https://www.ncbi.nlm.nih.gov/protein/WP_222898896.1?report=genbank&log$=prottop&blast_rank=95&RID=BFGHV66D013"",""WP_222898896.1"")"
TPA: porin OmpN [Escherichia coli],Escherichia coli,546,546,100%,0.0,76.47,377,"=HYPERLINK(""https://www.ncbi.nlm.nih.gov/protein/HBJ0059192.1?report=genbank&log$=prottop&blast_rank=96&RID=BFGHV66D013"",""HBJ0059192.1"")"
porin OmpN [Escherichia coli],Escherichia coli,546,546,100%,0.0,76.47,377,"=HYPERLINK(""https://www.ncbi.nlm.nih.gov/protein/WP_047603315.1?report=genbank&log$=prottop&blast_rank=97&RID=BFGHV66D013"",""WP_047603315.1"")"
porin [Escherichia coli],Escherichia coli,546,546,100%,0.0,76.41,377,"=HYPERLINK(""https://www.ncbi.nlm.nih.gov/protein/EEW7588301.1?report=genbank&log$=prottop&blast_rank=98&RID=BFGHV66D013"",""EEW7588301.1"")"
porin OmpN [Escherichia coli],Escherichia coli,545,545,100%,0.0,76.41,377,"=HYPERLINK(""https://www.ncbi.nlm.nih.gov/protein/EKQ0394322.1?report=genbank&log$=prottop&blast_rank=99&RID=BFGHV66D013"",""EKQ0394322.1"")"
porin OmpN [Escherichia coli],Escherichia coli,545,545,100%,0.0,76.41,377,"=HYPERLINK(""https://www.ncbi.nlm.nih.gov/protein/MBI0902306.1?report=genbank&log$=prottop&blast_rank=100&RID=BFGHV66D013"",""MBI0902306.1"")"



		


