Description,Scientific Name,Max Score,Total Score,Query Cover,E value,Per. ident,Acc. Len,Accession  
fimbrial protein [Escherichia coli],Escherichia coli,600,600,99%,0.0,99.67,301,"=HYPERLINK(""https://www.ncbi.nlm.nih.gov/protein/UMX54193.1?report=genbank&log$=prottop&blast_rank=1&RID=ARAWZCGP013"",""UMX54193.1"")"
fimbrial protein [Escherichia coli],Escherichia coli,598,598,99%,0.0,99.34,301,"=HYPERLINK(""https://www.ncbi.nlm.nih.gov/protein/UYM69228.1?report=genbank&log$=prottop&blast_rank=2&RID=ARAWZCGP013"",""UYM69228.1"")"
fimbrial protein [Escherichia coli],Escherichia coli,596,596,99%,0.0,98.67,301,"=HYPERLINK(""https://www.ncbi.nlm.nih.gov/protein/MBX8949145.1?report=genbank&log$=prottop&blast_rank=3&RID=ARAWZCGP013"",""MBX8949145.1"")"
fimbrial protein [Escherichia coli],Escherichia coli,579,579,99%,0.0,97.35,302,"=HYPERLINK(""https://www.ncbi.nlm.nih.gov/protein/UMX58120.1?report=genbank&log$=prottop&blast_rank=4&RID=ARAWZCGP013"",""UMX58120.1"")"
fimbrial protein [Escherichia coli],Escherichia coli,526,526,99%,0.0,85.38,300,"=HYPERLINK(""https://www.ncbi.nlm.nih.gov/protein/EFO0715589.1?report=genbank&log$=prottop&blast_rank=5&RID=ARAWZCGP013"",""EFO0715589.1"")"
type 1 fimbria D-mannose specific adhesin FimH [Escherichia coli],Escherichia coli,524,524,99%,0.0,85.05,300,"=HYPERLINK(""https://www.ncbi.nlm.nih.gov/protein/WP_147661086.1?report=genbank&log$=prottop&blast_rank=6&RID=ARAWZCGP013"",""WP_147661086.1"")"
type 1 fimbria D-mannose specific adhesin FimH [Escherichia coli],Escherichia coli,524,524,99%,0.0,85.05,300,"=HYPERLINK(""https://www.ncbi.nlm.nih.gov/protein/WP_089577489.1?report=genbank&log$=prottop&blast_rank=7&RID=ARAWZCGP013"",""WP_089577489.1"")"
TPA: type 1 fimbria D-mannose specific adhesin FimH [Escherichia coli],Escherichia coli,524,524,99%,0.0,85.05,300,"=HYPERLINK(""https://www.ncbi.nlm.nih.gov/protein/HBA9569127.1?report=genbank&log$=prottop&blast_rank=8&RID=ARAWZCGP013"",""HBA9569127.1"")"
type 1 fimbria D-mannose specific adhesin FimH [Escherichia coli],Escherichia coli,524,524,99%,0.0,85.05,300,"=HYPERLINK(""https://www.ncbi.nlm.nih.gov/protein/EFH7123891.1?report=genbank&log$=prottop&blast_rank=9&RID=ARAWZCGP013"",""EFH7123891.1"")"
type 1 fimbria D-mannose specific adhesin FimH [Escherichia coli],Escherichia coli,524,524,99%,0.0,85.05,300,"=HYPERLINK(""https://www.ncbi.nlm.nih.gov/protein/WP_137505878.1?report=genbank&log$=prottop&blast_rank=10&RID=ARAWZCGP013"",""WP_137505878.1"")"
type 1 fimbria D-mannose specific adhesin FimH [Escherichia coli],Escherichia coli,524,524,99%,0.0,85.05,300,"=HYPERLINK(""https://www.ncbi.nlm.nih.gov/protein/WP_001540807.1?report=genbank&log$=prottop&blast_rank=11&RID=ARAWZCGP013"",""WP_001540807.1"")"
type 1 fimbria D-mannose specific adhesin FimH [Escherichia coli],Escherichia coli,524,524,99%,0.0,85.05,300,"=HYPERLINK(""https://www.ncbi.nlm.nih.gov/protein/EHT1779583.1?report=genbank&log$=prottop&blast_rank=12&RID=ARAWZCGP013"",""EHT1779583.1"")"
type 1 fimbria D-mannose specific adhesin FimH [Escherichia coli],Escherichia coli,523,523,99%,0.0,84.72,300,"=HYPERLINK(""https://www.ncbi.nlm.nih.gov/protein/WP_188133581.1?report=genbank&log$=prottop&blast_rank=13&RID=ARAWZCGP013"",""WP_188133581.1"")"
type 1 fimbria D-mannose specific adhesin FimH [Escherichia],Escherichia,523,523,99%,0.0,84.72,300,"=HYPERLINK(""https://www.ncbi.nlm.nih.gov/protein/WP_010346656.1?report=genbank&log$=prottop&blast_rank=14&RID=ARAWZCGP013"",""WP_010346656.1"")"
TPA: type 1 fimbria D-mannose specific adhesin FimH [Escherichia coli],Escherichia coli,523,523,99%,0.0,84.72,300,"=HYPERLINK(""https://www.ncbi.nlm.nih.gov/protein/HCT5359492.1?report=genbank&log$=prottop&blast_rank=15&RID=ARAWZCGP013"",""HCT5359492.1"")"
type 1 fimbria D-mannose specific adhesin FimH [Escherichia coli],Escherichia coli,523,523,99%,0.0,84.72,300,"=HYPERLINK(""https://www.ncbi.nlm.nih.gov/protein/WP_235155867.1?report=genbank&log$=prottop&blast_rank=16&RID=ARAWZCGP013"",""WP_235155867.1"")"
TPA: type 1 fimbria D-mannose specific adhesin FimH [Escherichia coli],Escherichia coli,523,523,99%,0.0,84.72,300,"=HYPERLINK(""https://www.ncbi.nlm.nih.gov/protein/HAZ7230074.1?report=genbank&log$=prottop&blast_rank=17&RID=ARAWZCGP013"",""HAZ7230074.1"")"
TPA: type 1 fimbria D-mannose specific adhesin FimH [Escherichia coli],Escherichia coli,523,523,99%,0.0,84.72,300,"=HYPERLINK(""https://www.ncbi.nlm.nih.gov/protein/HCU3267339.1?report=genbank&log$=prottop&blast_rank=18&RID=ARAWZCGP013"",""HCU3267339.1"")"
TPA: type 1 fimbria D-mannose specific adhesin FimH [Escherichia coli],Escherichia coli,523,523,99%,0.0,84.72,300,"=HYPERLINK(""https://www.ncbi.nlm.nih.gov/protein/HAI3371624.1?report=genbank&log$=prottop&blast_rank=19&RID=ARAWZCGP013"",""HAI3371624.1"")"
fimbrial protein [Escherichia coli],Escherichia coli,523,523,99%,0.0,84.72,300,"=HYPERLINK(""https://www.ncbi.nlm.nih.gov/protein/EFO0359623.1?report=genbank&log$=prottop&blast_rank=20&RID=ARAWZCGP013"",""EFO0359623.1"")"
TPA: type 1 fimbria D-mannose specific adhesin FimH [Escherichia coli],Escherichia coli,522,522,99%,0.0,84.72,300,"=HYPERLINK(""https://www.ncbi.nlm.nih.gov/protein/HCT8759544.1?report=genbank&log$=prottop&blast_rank=21&RID=ARAWZCGP013"",""HCT8759544.1"")"
type 1 fimbriae D-mannose specific adhesin FimH [Escherichia coli],Escherichia coli,522,522,99%,0.0,84.72,300,"=HYPERLINK(""https://www.ncbi.nlm.nih.gov/protein/EFB9130770.1?report=genbank&log$=prottop&blast_rank=22&RID=ARAWZCGP013"",""EFB9130770.1"")"
type 1 fimbria D-mannose specific adhesin FimH [Escherichia coli],Escherichia coli,522,522,99%,0.0,84.72,300,"=HYPERLINK(""https://www.ncbi.nlm.nih.gov/protein/WP_127702162.1?report=genbank&log$=prottop&blast_rank=23&RID=ARAWZCGP013"",""WP_127702162.1"")"
type 1 fimbria D-mannose specific adhesin FimH [Escherichia],Escherichia,522,522,99%,0.0,84.72,300,"=HYPERLINK(""https://www.ncbi.nlm.nih.gov/protein/WP_010352630.1?report=genbank&log$=prottop&blast_rank=24&RID=ARAWZCGP013"",""WP_010352630.1"")"
type 1 fimbria D-mannose specific adhesin FimH [Escherichia coli],Escherichia coli,522,522,99%,0.0,84.72,300,"=HYPERLINK(""https://www.ncbi.nlm.nih.gov/protein/WP_020244962.1?report=genbank&log$=prottop&blast_rank=25&RID=ARAWZCGP013"",""WP_020244962.1"")"
type 1 fimbria D-mannose specific adhesin FimH [Escherichia coli],Escherichia coli,522,522,99%,0.0,84.72,300,"=HYPERLINK(""https://www.ncbi.nlm.nih.gov/protein/WP_042106259.1?report=genbank&log$=prottop&blast_rank=26&RID=ARAWZCGP013"",""WP_042106259.1"")"
fimbrial protein [Escherichia coli],Escherichia coli,522,522,99%,0.0,84.72,300,"=HYPERLINK(""https://www.ncbi.nlm.nih.gov/protein/EFN8954260.1?report=genbank&log$=prottop&blast_rank=27&RID=ARAWZCGP013"",""EFN8954260.1"")"
type 1 fimbria D-mannose specific adhesin FimH [Escherichia coli],Escherichia coli,522,522,99%,0.0,84.72,300,"=HYPERLINK(""https://www.ncbi.nlm.nih.gov/protein/WP_086353188.1?report=genbank&log$=prottop&blast_rank=28&RID=ARAWZCGP013"",""WP_086353188.1"")"
type 1 fimbria D-mannose specific adhesin FimH [Escherichia coli],Escherichia coli,522,522,99%,0.0,84.72,300,"=HYPERLINK(""https://www.ncbi.nlm.nih.gov/protein/WP_157352225.1?report=genbank&log$=prottop&blast_rank=29&RID=ARAWZCGP013"",""WP_157352225.1"")"
type 1 fimbria D-mannose specific adhesin FimH [Escherichia coli],Escherichia coli,522,522,99%,0.0,84.72,300,"=HYPERLINK(""https://www.ncbi.nlm.nih.gov/protein/EII6421514.1?report=genbank&log$=prottop&blast_rank=30&RID=ARAWZCGP013"",""EII6421514.1"")"
type 1 fimbria D-mannose specific adhesin FimH [Escherichia coli],Escherichia coli,522,522,99%,0.0,84.72,300,"=HYPERLINK(""https://www.ncbi.nlm.nih.gov/protein/EES0218922.1?report=genbank&log$=prottop&blast_rank=31&RID=ARAWZCGP013"",""EES0218922.1"")"
type 1 fimbria D-mannose specific adhesin FimH [Escherichia coli],Escherichia coli,522,522,99%,0.0,84.72,300,"=HYPERLINK(""https://www.ncbi.nlm.nih.gov/protein/EHT4053790.1?report=genbank&log$=prottop&blast_rank=32&RID=ARAWZCGP013"",""EHT4053790.1"")"
TPA: type 1 fimbria D-mannose specific adhesin FimH [Escherichia coli],Escherichia coli,522,522,99%,0.0,84.72,300,"=HYPERLINK(""https://www.ncbi.nlm.nih.gov/protein/HAI6230448.1?report=genbank&log$=prottop&blast_rank=33&RID=ARAWZCGP013"",""HAI6230448.1"")"
type 1 fimbria D-mannose specific adhesin FimH [Escherichia coli],Escherichia coli,522,522,99%,0.0,84.72,300,"=HYPERLINK(""https://www.ncbi.nlm.nih.gov/protein/WP_061301261.1?report=genbank&log$=prottop&blast_rank=34&RID=ARAWZCGP013"",""WP_061301261.1"")"
type 1 fimbria D-mannose specific adhesin FimH [Enterobacteriaceae],Enterobacteriaceae,522,522,99%,0.0,84.72,300,"=HYPERLINK(""https://www.ncbi.nlm.nih.gov/protein/WP_000832236.1?report=genbank&log$=prottop&blast_rank=35&RID=ARAWZCGP013"",""WP_000832236.1"")"
TPA: type 1 fimbria D-mannose specific adhesin FimH [Escherichia coli],Escherichia coli,522,522,99%,0.0,84.72,300,"=HYPERLINK(""https://www.ncbi.nlm.nih.gov/protein/HDR8841481.1?report=genbank&log$=prottop&blast_rank=36&RID=ARAWZCGP013"",""HDR8841481.1"")"
type 1 fimbria D-mannose specific adhesin FimH [Escherichia coli],Escherichia coli,522,522,99%,0.0,84.72,300,"=HYPERLINK(""https://www.ncbi.nlm.nih.gov/protein/WP_021549082.1?report=genbank&log$=prottop&blast_rank=37&RID=ARAWZCGP013"",""WP_021549082.1"")"
type 1 fimbria D-mannose specific adhesin FimH [Escherichia coli],Escherichia coli,522,522,99%,0.0,84.72,300,"=HYPERLINK(""https://www.ncbi.nlm.nih.gov/protein/WP_163388737.1?report=genbank&log$=prottop&blast_rank=38&RID=ARAWZCGP013"",""WP_163388737.1"")"
type 1 fimbria D-mannose specific adhesin FimH [Escherichia coli],Escherichia coli,522,522,99%,0.0,84.72,300,"=HYPERLINK(""https://www.ncbi.nlm.nih.gov/protein/WP_220421924.1?report=genbank&log$=prottop&blast_rank=39&RID=ARAWZCGP013"",""WP_220421924.1"")"
TPA: type 1 fimbria D-mannose specific adhesin FimH [Escherichia coli],Escherichia coli,522,522,99%,0.0,84.72,300,"=HYPERLINK(""https://www.ncbi.nlm.nih.gov/protein/HAH3472895.1?report=genbank&log$=prottop&blast_rank=40&RID=ARAWZCGP013"",""HAH3472895.1"")"
type 1 fimbria D-mannose specific adhesin FimH [Escherichia coli],Escherichia coli,522,522,99%,0.0,84.72,300,"=HYPERLINK(""https://www.ncbi.nlm.nih.gov/protein/MBB8669058.1?report=genbank&log$=prottop&blast_rank=41&RID=ARAWZCGP013"",""MBB8669058.1"")"
type 1 fimbria D-mannose specific adhesin FimH [Escherichia coli],Escherichia coli,522,522,99%,0.0,84.72,300,"=HYPERLINK(""https://www.ncbi.nlm.nih.gov/protein/EIL5981564.1?report=genbank&log$=prottop&blast_rank=42&RID=ARAWZCGP013"",""EIL5981564.1"")"
type 1 fimbria D-mannose specific adhesin FimH [Escherichia coli],Escherichia coli,522,522,99%,0.0,84.72,300,"=HYPERLINK(""https://www.ncbi.nlm.nih.gov/protein/EFH6900595.1?report=genbank&log$=prottop&blast_rank=43&RID=ARAWZCGP013"",""EFH6900595.1"")"
TPA: type 1 fimbria D-mannose specific adhesin FimH [Escherichia coli],Escherichia coli,521,521,99%,0.0,84.72,300,"=HYPERLINK(""https://www.ncbi.nlm.nih.gov/protein/HDJ9967344.1?report=genbank&log$=prottop&blast_rank=44&RID=ARAWZCGP013"",""HDJ9967344.1"")"
type 1 fimbria D-mannose specific adhesin FimH [Escherichia coli],Escherichia coli,521,521,99%,0.0,84.72,300,"=HYPERLINK(""https://www.ncbi.nlm.nih.gov/protein/WP_033552240.1?report=genbank&log$=prottop&blast_rank=45&RID=ARAWZCGP013"",""WP_033552240.1"")"
type 1 fimbria D-mannose specific adhesin FimH [Escherichia coli],Escherichia coli,521,521,99%,0.0,84.72,300,"=HYPERLINK(""https://www.ncbi.nlm.nih.gov/protein/WP_088541569.1?report=genbank&log$=prottop&blast_rank=46&RID=ARAWZCGP013"",""WP_088541569.1"")"
fimbrial protein [Escherichia coli],Escherichia coli,521,521,99%,0.0,84.72,300,"=HYPERLINK(""https://www.ncbi.nlm.nih.gov/protein/EFN9753826.1?report=genbank&log$=prottop&blast_rank=47&RID=ARAWZCGP013"",""EFN9753826.1"")"
type 1 fimbria D-mannose specific adhesin FimH [Escherichia coli],Escherichia coli,521,521,99%,0.0,84.72,300,"=HYPERLINK(""https://www.ncbi.nlm.nih.gov/protein/WP_024198719.1?report=genbank&log$=prottop&blast_rank=48&RID=ARAWZCGP013"",""WP_024198719.1"")"
TPA: type 1 fimbria D-mannose specific adhesin FimH [Escherichia coli],Escherichia coli,521,521,99%,0.0,84.72,300,"=HYPERLINK(""https://www.ncbi.nlm.nih.gov/protein/HBC8586150.1?report=genbank&log$=prottop&blast_rank=49&RID=ARAWZCGP013"",""HBC8586150.1"")"
type 1 fimbria D-mannose specific adhesin FimH [Escherichia coli],Escherichia coli,521,521,99%,0.0,84.72,300,"=HYPERLINK(""https://www.ncbi.nlm.nih.gov/protein/WP_097403457.1?report=genbank&log$=prottop&blast_rank=50&RID=ARAWZCGP013"",""WP_097403457.1"")"
FimH [Escherichia coli],Escherichia coli,521,521,99%,0.0,84.72,300,"=HYPERLINK(""https://www.ncbi.nlm.nih.gov/protein/AAO84625.1?report=genbank&log$=prottop&blast_rank=51&RID=ARAWZCGP013"",""AAO84625.1"")"
type 1 fimbria D-mannose specific adhesin FimH [Escherichia coli],Escherichia coli,521,521,99%,0.0,84.72,300,"=HYPERLINK(""https://www.ncbi.nlm.nih.gov/protein/MDK7956913.1?report=genbank&log$=prottop&blast_rank=52&RID=ARAWZCGP013"",""MDK7956913.1"")"
type 1 fimbria D-mannose specific adhesin FimH [Escherichia],Escherichia,521,521,99%,0.0,84.72,300,"=HYPERLINK(""https://www.ncbi.nlm.nih.gov/protein/WP_001517674.1?report=genbank&log$=prottop&blast_rank=53&RID=ARAWZCGP013"",""WP_001517674.1"")"
type 1 fimbria D-mannose specific adhesin FimH [Escherichia coli],Escherichia coli,521,521,99%,0.0,84.72,300,"=HYPERLINK(""https://www.ncbi.nlm.nih.gov/protein/WP_256263976.1?report=genbank&log$=prottop&blast_rank=54&RID=ARAWZCGP013"",""WP_256263976.1"")"
TPA: type 1 fimbria D-mannose specific adhesin FimH [Escherichia coli],Escherichia coli,521,521,99%,0.0,84.72,300,"=HYPERLINK(""https://www.ncbi.nlm.nih.gov/protein/HCP1037518.1?report=genbank&log$=prottop&blast_rank=55&RID=ARAWZCGP013"",""HCP1037518.1"")"
fimbrial protein [Escherichia coli MS 185-1],Escherichia coli MS 185-1,523,523,100%,0.0,84.44,303,"=HYPERLINK(""https://www.ncbi.nlm.nih.gov/protein/EFJ56285.1?report=genbank&log$=prottop&blast_rank=56&RID=ARAWZCGP013"",""EFJ56285.1"")"
FimH protein precursor [Escherichia coli 536],Escherichia coli 536,523,523,100%,0.0,84.44,303,"=HYPERLINK(""https://www.ncbi.nlm.nih.gov/protein/ABG72591.1?report=genbank&log$=prottop&blast_rank=57&RID=ARAWZCGP013"",""ABG72591.1"")"
type 1 fimbria D-mannose specific adhesin FimH [Escherichia coli],Escherichia coli,522,522,99%,0.0,84.39,300,"=HYPERLINK(""https://www.ncbi.nlm.nih.gov/protein/WP_032240139.1?report=genbank&log$=prottop&blast_rank=58&RID=ARAWZCGP013"",""WP_032240139.1"")"
fimbrial protein [Escherichia coli O10],Escherichia coli O10,522,522,99%,0.0,84.39,300,"=HYPERLINK(""https://www.ncbi.nlm.nih.gov/protein/EFN6914081.1?report=genbank&log$=prottop&blast_rank=59&RID=ARAWZCGP013"",""EFN6914081.1"")"
type 1 fimbria D-mannose specific adhesin FimH [Escherichia coli],Escherichia coli,522,522,99%,0.0,84.39,300,"=HYPERLINK(""https://www.ncbi.nlm.nih.gov/protein/WP_134350764.1?report=genbank&log$=prottop&blast_rank=60&RID=ARAWZCGP013"",""WP_134350764.1"")"
TPA: type 1 fimbria D-mannose specific adhesin FimH [Escherichia coli],Escherichia coli,522,522,99%,0.0,84.39,300,"=HYPERLINK(""https://www.ncbi.nlm.nih.gov/protein/HBC1283755.1?report=genbank&log$=prottop&blast_rank=61&RID=ARAWZCGP013"",""HBC1283755.1"")"
type 1 fimbria D-mannose specific adhesin FimH [Escherichia coli],Escherichia coli,522,522,99%,0.0,84.39,300,"=HYPERLINK(""https://www.ncbi.nlm.nih.gov/protein/MCJ2673701.1?report=genbank&log$=prottop&blast_rank=62&RID=ARAWZCGP013"",""MCJ2673701.1"")"
fimbrial protein [Escherichia coli],Escherichia coli,522,522,99%,0.0,84.39,300,"=HYPERLINK(""https://www.ncbi.nlm.nih.gov/protein/EFO1382124.1?report=genbank&log$=prottop&blast_rank=63&RID=ARAWZCGP013"",""EFO1382124.1"")"
type 1 fimbria D-mannose specific adhesin FimH [Escherichia coli],Escherichia coli,522,522,99%,0.0,84.39,300,"=HYPERLINK(""https://www.ncbi.nlm.nih.gov/protein/EHW9964041.1?report=genbank&log$=prottop&blast_rank=64&RID=ARAWZCGP013"",""EHW9964041.1"")"
type 1 fimbria D-mannose specific adhesin FimH [Escherichia coli],Escherichia coli,522,522,99%,0.0,84.39,300,"=HYPERLINK(""https://www.ncbi.nlm.nih.gov/protein/EIH5254144.1?report=genbank&log$=prottop&blast_rank=65&RID=ARAWZCGP013"",""EIH5254144.1"")"
TPA: type 1 fimbria D-mannose specific adhesin FimH [Escherichia coli],Escherichia coli,522,522,99%,0.0,84.39,300,"=HYPERLINK(""https://www.ncbi.nlm.nih.gov/protein/HAM3576292.1?report=genbank&log$=prottop&blast_rank=66&RID=ARAWZCGP013"",""HAM3576292.1"")"
type 1 fimbria D-mannose specific adhesin FimH [Escherichia coli],Escherichia coli,521,521,99%,0.0,84.39,300,"=HYPERLINK(""https://www.ncbi.nlm.nih.gov/protein/WP_042024156.1?report=genbank&log$=prottop&blast_rank=67&RID=ARAWZCGP013"",""WP_042024156.1"")"
type 1 fimbria D-mannose specific adhesin FimH [Escherichia coli],Escherichia coli,521,521,99%,0.0,84.39,300,"=HYPERLINK(""https://www.ncbi.nlm.nih.gov/protein/EIA4754522.1?report=genbank&log$=prottop&blast_rank=68&RID=ARAWZCGP013"",""EIA4754522.1"")"
TPA: type 1 fimbria D-mannose specific adhesin FimH [Escherichia coli],Escherichia coli,521,521,99%,0.0,84.39,300,"=HYPERLINK(""https://www.ncbi.nlm.nih.gov/protein/HCD9539378.1?report=genbank&log$=prottop&blast_rank=69&RID=ARAWZCGP013"",""HCD9539378.1"")"
TPA: type 1 fimbria D-mannose specific adhesin FimH [Escherichia coli],Escherichia coli,521,521,99%,0.0,84.39,300,"=HYPERLINK(""https://www.ncbi.nlm.nih.gov/protein/HAL0377140.1?report=genbank&log$=prottop&blast_rank=70&RID=ARAWZCGP013"",""HAL0377140.1"")"
type 1 fimbria D-mannose specific adhesin FimH [Escherichia coli],Escherichia coli,521,521,99%,0.0,84.39,300,"=HYPERLINK(""https://www.ncbi.nlm.nih.gov/protein/EFH6021184.1?report=genbank&log$=prottop&blast_rank=71&RID=ARAWZCGP013"",""EFH6021184.1"")"
type 1 fimbria D-mannose specific adhesin FimH [Escherichia coli],Escherichia coli,521,521,99%,0.0,84.39,300,"=HYPERLINK(""https://www.ncbi.nlm.nih.gov/protein/WP_137472589.1?report=genbank&log$=prottop&blast_rank=72&RID=ARAWZCGP013"",""WP_137472589.1"")"
type 1 fimbria D-mannose specific adhesin FimH [Escherichia coli],Escherichia coli,521,521,99%,0.0,84.39,300,"=HYPERLINK(""https://www.ncbi.nlm.nih.gov/protein/WP_241217661.1?report=genbank&log$=prottop&blast_rank=73&RID=ARAWZCGP013"",""WP_241217661.1"")"
type 1 fimbria D-mannose specific adhesin FimH [Escherichia coli],Escherichia coli,521,521,99%,0.0,84.39,300,"=HYPERLINK(""https://www.ncbi.nlm.nih.gov/protein/WP_000832214.1?report=genbank&log$=prottop&blast_rank=74&RID=ARAWZCGP013"",""WP_000832214.1"")"
type 1 fimbria D-mannose specific adhesin FimH [Escherichia coli],Escherichia coli,521,521,99%,0.0,84.39,300,"=HYPERLINK(""https://www.ncbi.nlm.nih.gov/protein/EJF7068297.1?report=genbank&log$=prottop&blast_rank=75&RID=ARAWZCGP013"",""EJF7068297.1"")"
TPA: type 1 fimbria D-mannose specific adhesin FimH [Escherichia coli],Escherichia coli,521,521,99%,0.0,84.39,300,"=HYPERLINK(""https://www.ncbi.nlm.nih.gov/protein/HDJ8301851.1?report=genbank&log$=prottop&blast_rank=76&RID=ARAWZCGP013"",""HDJ8301851.1"")"
type 1 fimbria D-mannose specific adhesin FimH [Escherichia coli],Escherichia coli,521,521,99%,0.0,84.39,300,"=HYPERLINK(""https://www.ncbi.nlm.nih.gov/protein/EJG5202143.1?report=genbank&log$=prottop&blast_rank=77&RID=ARAWZCGP013"",""EJG5202143.1"")"
TPA: type 1 fimbria D-mannose specific adhesin FimH [Escherichia coli],Escherichia coli,521,521,99%,0.0,84.39,300,"=HYPERLINK(""https://www.ncbi.nlm.nih.gov/protein/HBP7924462.1?report=genbank&log$=prottop&blast_rank=78&RID=ARAWZCGP013"",""HBP7924462.1"")"
type 1 fimbria D-mannose specific adhesin FimH [Escherichia coli],Escherichia coli,521,521,99%,0.0,84.39,300,"=HYPERLINK(""https://www.ncbi.nlm.nih.gov/protein/WP_039020429.1?report=genbank&log$=prottop&blast_rank=79&RID=ARAWZCGP013"",""WP_039020429.1"")"
type 1 fimbria D-mannose specific adhesin FimH [Escherichia coli],Escherichia coli,521,521,99%,0.0,84.39,300,"=HYPERLINK(""https://www.ncbi.nlm.nih.gov/protein/MDD8343690.1?report=genbank&log$=prottop&blast_rank=80&RID=ARAWZCGP013"",""MDD8343690.1"")"
TPA: type 1 fimbria D-mannose specific adhesin FimH [Escherichia coli],Escherichia coli,521,521,99%,0.0,84.39,300,"=HYPERLINK(""https://www.ncbi.nlm.nih.gov/protein/HAN2115744.1?report=genbank&log$=prottop&blast_rank=81&RID=ARAWZCGP013"",""HAN2115744.1"")"
type 1 fimbria D-mannose specific adhesin FimH [Escherichia coli],Escherichia coli,521,521,99%,0.0,84.39,300,"=HYPERLINK(""https://www.ncbi.nlm.nih.gov/protein/WP_097425297.1?report=genbank&log$=prottop&blast_rank=82&RID=ARAWZCGP013"",""WP_097425297.1"")"
type 1 fimbria D-mannose specific adhesin FimH [Escherichia coli],Escherichia coli,521,521,99%,0.0,84.39,300,"=HYPERLINK(""https://www.ncbi.nlm.nih.gov/protein/WP_266225659.1?report=genbank&log$=prottop&blast_rank=83&RID=ARAWZCGP013"",""WP_266225659.1"")"
type 1 fimbria D-mannose specific adhesin FimH [Escherichia coli],Escherichia coli,521,521,99%,0.0,84.39,300,"=HYPERLINK(""https://www.ncbi.nlm.nih.gov/protein/WP_071342733.1?report=genbank&log$=prottop&blast_rank=84&RID=ARAWZCGP013"",""WP_071342733.1"")"
type 1 fimbria D-mannose specific adhesin FimH [Escherichia coli],Escherichia coli,521,521,99%,0.0,84.39,300,"=HYPERLINK(""https://www.ncbi.nlm.nih.gov/protein/WP_100621458.1?report=genbank&log$=prottop&blast_rank=85&RID=ARAWZCGP013"",""WP_100621458.1"")"
type 1 fimbria D-mannose specific adhesin FimH [Escherichia coli],Escherichia coli,521,521,99%,0.0,84.39,300,"=HYPERLINK(""https://www.ncbi.nlm.nih.gov/protein/EGL2088943.1?report=genbank&log$=prottop&blast_rank=86&RID=ARAWZCGP013"",""EGL2088943.1"")"
type 1 fimbria D-mannose specific adhesin FimH [Escherichia coli],Escherichia coli,521,521,99%,0.0,84.39,300,"=HYPERLINK(""https://www.ncbi.nlm.nih.gov/protein/WP_096127506.1?report=genbank&log$=prottop&blast_rank=87&RID=ARAWZCGP013"",""WP_096127506.1"")"
type 1 fimbria D-mannose specific adhesin FimH [Escherichia coli],Escherichia coli,521,521,99%,0.0,84.39,300,"=HYPERLINK(""https://www.ncbi.nlm.nih.gov/protein/WP_124238162.1?report=genbank&log$=prottop&blast_rank=88&RID=ARAWZCGP013"",""WP_124238162.1"")"
type 1 fimbria D-mannose specific adhesin FimH [Escherichia coli],Escherichia coli,521,521,99%,0.0,84.39,300,"=HYPERLINK(""https://www.ncbi.nlm.nih.gov/protein/MCN8810086.1?report=genbank&log$=prottop&blast_rank=89&RID=ARAWZCGP013"",""MCN8810086.1"")"
type 1 fimbria D-mannose specific adhesin FimH [Escherichia coli],Escherichia coli,521,521,99%,0.0,84.39,300,"=HYPERLINK(""https://www.ncbi.nlm.nih.gov/protein/WP_101356999.1?report=genbank&log$=prottop&blast_rank=90&RID=ARAWZCGP013"",""WP_101356999.1"")"
TPA: type 1 fimbria D-mannose specific adhesin FimH [Escherichia coli],Escherichia coli,521,521,99%,0.0,84.39,300,"=HYPERLINK(""https://www.ncbi.nlm.nih.gov/protein/HAZ3636566.1?report=genbank&log$=prottop&blast_rank=91&RID=ARAWZCGP013"",""HAZ3636566.1"")"
TPA: type 1 fimbria D-mannose specific adhesin FimH [Escherichia coli],Escherichia coli,521,521,99%,0.0,84.39,300,"=HYPERLINK(""https://www.ncbi.nlm.nih.gov/protein/HBE3629420.1?report=genbank&log$=prottop&blast_rank=92&RID=ARAWZCGP013"",""HBE3629420.1"")"
type 1 fimbria D-mannose specific adhesin FimH [Escherichia coli],Escherichia coli,521,521,99%,0.0,84.39,300,"=HYPERLINK(""https://www.ncbi.nlm.nih.gov/protein/WP_149813917.1?report=genbank&log$=prottop&blast_rank=93&RID=ARAWZCGP013"",""WP_149813917.1"")"
type 1 fimbria D-mannose specific adhesin FimH [Escherichia coli],Escherichia coli,521,521,99%,0.0,84.39,300,"=HYPERLINK(""https://www.ncbi.nlm.nih.gov/protein/EII6383757.1?report=genbank&log$=prottop&blast_rank=94&RID=ARAWZCGP013"",""EII6383757.1"")"
TPA: type 1 fimbria D-mannose specific adhesin FimH [Escherichia coli],Escherichia coli,521,521,99%,0.0,84.39,300,"=HYPERLINK(""https://www.ncbi.nlm.nih.gov/protein/HCP5162898.1?report=genbank&log$=prottop&blast_rank=95&RID=ARAWZCGP013"",""HCP5162898.1"")"
FimH [Escherichia coli RS218],Escherichia coli RS218,521,521,100%,0.0,84.11,303,"=HYPERLINK(""https://www.ncbi.nlm.nih.gov/protein/AAG60686.1?report=genbank&log$=prottop&blast_rank=96&RID=ARAWZCGP013"",""AAG60686.1"")"
protein FimH [Escherichia coli B671],Escherichia coli B671,521,521,100%,0.0,84.11,303,"=HYPERLINK(""https://www.ncbi.nlm.nih.gov/protein/OSK45034.1?report=genbank&log$=prottop&blast_rank=97&RID=ARAWZCGP013"",""OSK45034.1"")"
FimH protein precursor [Escherichia coli CFT073],Escherichia coli CFT073,521,521,100%,0.0,84.11,303,"=HYPERLINK(""https://www.ncbi.nlm.nih.gov/protein/AAN83822.1?report=genbank&log$=prottop&blast_rank=98&RID=ARAWZCGP013"",""AAN83822.1"")"
FimH protein [Escherichia coli M605],Escherichia coli M605,521,521,100%,0.0,84.11,303,"=HYPERLINK(""https://www.ncbi.nlm.nih.gov/protein/EGI12993.1?report=genbank&log$=prottop&blast_rank=99&RID=ARAWZCGP013"",""EGI12993.1"")"
type 1 fimbria D-mannose specific adhesin FimH [Escherichia coli],Escherichia coli,521,521,99%,0.0,84.05,300,"=HYPERLINK(""https://www.ncbi.nlm.nih.gov/protein/WP_001642690.1?report=genbank&log$=prottop&blast_rank=100&RID=ARAWZCGP013"",""WP_001642690.1"")"



		


