accession_number	species	length
WP_117044469.1	Klebsiella variicola	186
WGL06310.1	Klebsiella pneumoniae	202
WHB08562.1	Klebsiella pneumoniae	202
WP_285192959.1	Klebsiella pneumoniae	202
WP_285202038.1	Klebsiella variicola	193
WIV07996.1	Klebsiella pneumoniae subsp. pneumoniae	202
WIM76656.1	Klebsiella pneumoniae subsp. pneumoniae	202
WIN13287.1	Klebsiella pneumoniae subsp. pneumoniae	202
WIJ86258.1	Klebsiella pneumoniae	202
WIJ88648.1	Klebsiella pneumoniae	202
WIK01167.1	Klebsiella pneumoniae	202
WIK07365.1	Klebsiella pneumoniae	202
WIK11971.1	Klebsiella pneumoniae	202
WIK18226.1	Klebsiella pneumoniae	202
WIK32919.1	Klebsiella pneumoniae	202
WIH65219.1	Klebsiella pneumoniae	202
WII31936.1	Klebsiella pneumoniae	202
WII48367.1	Klebsiella pneumoniae	202
WII63500.1	Klebsiella pneumoniae	202
WII82934.1	Klebsiella pasteurii	201
WIE15795.1	Klebsiella pneumoniae	202
WIE23776.1	Klebsiella pneumoniae	202
WP_284123062.1	Klebsiella sp. K4-172	202
WIB80912.1	Klebsiella pneumoniae	202
WIB85975.1	Klebsiella pneumoniae	202
WIC30690.1	Klebsiella pneumoniae	202
WIC35745.1	Klebsiella pneumoniae	202
WHQ92097.1	Klebsiella pneumoniae	202
WHQ97495.1	Klebsiella pneumoniae	202
WHR01179.1	Klebsiella pneumoniae	202
WHR08148.1	Klebsiella pneumoniae	202
WHR13688.1	Klebsiella pneumoniae	202
WHR18871.1	Klebsiella pneumoniae	202
WHR24201.1	Klebsiella pneumoniae	202
WHR29169.1	Klebsiella pneumoniae	202
WHR34771.1	Klebsiella pneumoniae	202
WHR40158.1	Klebsiella pneumoniae	202
WHP27233.1	Klebsiella pneumoniae	202
WHN24322.1	Klebsiella pneumoniae	202
WHN30174.1	Klebsiella pneumoniae	202
WHN35781.1	Klebsiella pneumoniae	202
WP_000756959.1	Enterobacteriaceae	202
WP_282967525.1	Klebsiella pneumoniae	202
WHJ06922.1	Klebsiella pneumoniae subsp. pneumoniae	202
WHL04423.1	Klebsiella quasipneumoniae	202
WHL09686.1	Klebsiella pneumoniae	202
WHL14890.1	Klebsiella pneumoniae	202
WP_282676307.1	Klebsiella variicola	202
WHF32413.1	Klebsiella pneumoniae	202
WHE58386.1	Klebsiella pneumoniae	202
WHE63609.1	Klebsiella variicola	202
WHE69092.1	Klebsiella pneumoniae	202
WHA01358.1	Klebsiella michiganensis	202
WHA58323.1	Klebsiella quasipneumoniae	202
WHA63177.1	Klebsiella quasipneumoniae	202
WHA68025.1	Klebsiella quasipneumoniae	202
WHA72878.1	Klebsiella quasipneumoniae	202
WHA77792.1	Klebsiella quasipneumoniae	202
WHA89230.1	Klebsiella quasipneumoniae	202
WHA94081.1	Klebsiella quasipneumoniae	202
WHA98915.1	Klebsiella quasipneumoniae	202
WGY08070.1	Klebsiella pneumoniae	202
WGY13681.1	Klebsiella pneumoniae	202
WGY19042.1	Klebsiella pneumoniae	202
WGV05736.1	Klebsiella pneumoniae	202
WGU85923.1	Klebsiella pneumoniae	202
sp|P12267.1|FM3_KLEPN		0
WGQ31805.1	Klebsiella pneumoniae	202
QSB67904.1	Klebsiella pneumoniae	202
QSB99798.1	Klebsiella pneumoniae	202
QSC05258.1	Klebsiella pneumoniae	202
QUG47814.1	Klebsiella michiganensis	202
UDV29893.1	Klebsiella pneumoniae	202
UDV46736.1	Klebsiella michiganensis	202
UDV59158.1	Klebsiella pneumoniae	202
QSC18199.1	Klebsiella pneumoniae	202
QSC25288.1	Klebsiella pneumoniae	202
QSC35486.1	Klebsiella pneumoniae	202
QSC38217.1	Klebsiella pneumoniae	202
WGN85656.1	Klebsiella pneumoniae	202
WGI82396.1	Klebsiella pneumoniae	202
WGI87569.1	Klebsiella pneumoniae	202
WGH98495.1	Klebsiella pneumoniae	202
WGI03920.1	Klebsiella pneumoniae	202
WGI09760.1	Klebsiella pneumoniae	202
WP_109043358.1	Klebsiella pneumoniae	202
WGG75354.1	Klebsiella pneumoniae subsp. pneumoniae	202
WGG80899.1	Klebsiella pneumoniae subsp. pneumoniae	202
WGF34695.1	Klebsiella pneumoniae	202
WGF47061.1	Klebsiella pneumoniae	202
WGF52719.1	Klebsiella pneumoniae	202
WGF65876.1	Klebsiella pneumoniae	202
WGF75164.1	Klebsiella pneumoniae	202
WGF80637.1	Klebsiella pneumoniae	202
WGF97420.1	Klebsiella pneumoniae	202
WGE99526.1	Klebsiella pneumoniae	202
WP_279281072.1	Klebsiella pneumoniae	202
WFX48446.1	Klebsiella michiganensis	202
WFX54109.1	Klebsiella michiganensis	202
WFY66231.1	Klebsiella pneumoniae	202
WFL86792.1	Klebsiella pneumoniae	202
WFL91816.1	Klebsiella pneumoniae	202
WFL97587.1	Klebsiella pneumoniae	202
WFM03430.1	Klebsiella pneumoniae	202
WFM07394.1	Klebsiella pneumoniae	202
WFM13727.1	Klebsiella pneumoniae	202
WFM18188.1	Klebsiella pneumoniae	202
WFM22945.1	Klebsiella pneumoniae	202
WFM32622.1	Klebsiella pneumoniae	202
WFM38938.1	Klebsiella pneumoniae	202
WFL58285.1	Klebsiella pneumoniae	202
WFE80692.1	Klebsiella pneumoniae	202
WFF13657.1	Klebsiella pneumoniae	202
WFF17393.1	Klebsiella pneumoniae	202
WFA25985.1	Klebsiella pneumoniae	202
WFA31034.1	Klebsiella pneumoniae	202
WFA36238.1	Klebsiella pneumoniae	202
WFA41181.1	Klebsiella pneumoniae	202
WFA46405.1	Klebsiella pneumoniae	202
WFA51573.1	Klebsiella pneumoniae	202
WFA56957.1	Klebsiella pneumoniae	202
WFA62056.1	Klebsiella pneumoniae	202
WFA67317.1	Klebsiella pneumoniae	202
WFA72613.1	Klebsiella pneumoniae	202
WFB14512.1	Klebsiella pneumoniae	202
WFB32402.1	Klebsiella pneumoniae	202
WFB72878.1	Klebsiella pneumoniae	202
WFB77558.1	Klebsiella pneumoniae	202
WFC21156.1	Klebsiella pneumoniae	202
WFC51661.1	Klebsiella pneumoniae	202
WFC57430.1	Klebsiella pneumoniae	202
WEW16045.1	Klebsiella pneumoniae	202
WEW21343.1	Klebsiella pneumoniae	202
WEW32040.1	Klebsiella pneumoniae	202
WEW37453.1	Klebsiella pneumoniae	202
WEW42878.1	Klebsiella pneumoniae	202
WEW48522.1	Klebsiella pneumoniae	202
WET91923.1	Klebsiella quasipneumoniae	202
WET96451.1	Klebsiella pneumoniae	202
WEU00987.1	Klebsiella pneumoniae	202
WEU05579.1	Klebsiella pneumoniae	202
WEU10188.1	Klebsiella pneumoniae	202
WEU14779.1	Klebsiella pneumoniae	202
WEN09641.1	Klebsiella pneumoniae	202
WEI72852.1	Klebsiella pneumoniae	202
WEI76579.1	Klebsiella pneumoniae	202
WEI83382.1	Klebsiella pneumoniae	202
WEJ87403.1	Klebsiella huaxiensis	202
WEK74738.1	Klebsiella pneumoniae	202
WEH84221.1	Klebsiella pneumoniae	202
WEH55607.1	Klebsiella pneumoniae	202
WBQ37824.1	Klebsiella oxytoca	202
WEE32627.1	Klebsiella pneumoniae subsp. pneumoniae	202
WEE45071.1	Klebsiella pneumoniae	202
WEE50470.1	Klebsiella pneumoniae	202
WEE64279.1	Klebsiella pneumoniae	202
WEE69457.1	Klebsiella pneumoniae	202
WEF07723.1	Klebsiella michiganensis	202
WEA97077.1	Klebsiella pneumoniae	202
WEA98916.1	Klebsiella pneumoniae	202
WDU66795.1	Klebsiella variicola	202
WP_274588130.1	Klebsiella pasteurii	201
WDR42761.1	Klebsiella pneumoniae	202
WDQ06842.1	Klebsiella oxytoca	202
WDQ12635.1	Klebsiella grimontii	201
WDI70961.1	Klebsiella grimontii	201
WDI73060.1	Klebsiella grimontii	202
WDN96120.1	Klebsiella pneumoniae subsp. pneumoniae	202
WDO22664.1	Klebsiella pneumoniae	202
WDO24765.1	Klebsiella pneumoniae	202
WP_274119611.1	Klebsiella pneumoniae	202
WDF29670.1	Klebsiella michiganensis	202
WP_273928172.1	Klebsiella variicola	202
WDB20193.1	Klebsiella pneumoniae	202
WDC42088.1	Klebsiella grimontii	201
WDC58870.1	Klebsiella pneumoniae	202
WDA32150.1	Klebsiella pneumoniae	202
WDA73442.1	Klebsiella pneumoniae	202
WDA78460.1	Klebsiella pneumoniae	202
WDA83571.1	Klebsiella pneumoniae	202
WCZ26732.1	Klebsiella pneumoniae	202
WCT43274.1	Klebsiella pneumoniae	202
WCS44723.1	Klebsiella pneumoniae	202
WCS49579.1	Klebsiella pneumoniae	202
WCN20528.1	Klebsiella pneumoniae	202
WCN46469.1	Klebsiella pneumoniae subsp. pneumoniae	202
WCN43195.1	Klebsiella pneumoniae	202
WCN51837.1	Klebsiella pneumoniae	202
WCN57345.1	Klebsiella pneumoniae	202
WCN62259.1	Klebsiella pneumoniae	202
WCN69454.1	Klebsiella pneumoniae	202
WCA37332.1	Klebsiella michiganensis	202
WCA65807.1	Klebsiella pneumoniae	202
WBX41545.1	Klebsiella pneumoniae	202
WBX48789.1	Klebsiella pneumoniae	202
WBX54210.1	Klebsiella pneumoniae	202
WBY13237.1	Klebsiella pneumoniae subsp. pneumoniae	202
WBU68881.1	Klebsiella pneumoniae	202
WBT18446.1	Klebsiella michiganensis	202
WBL85993.1	Klebsiella pneumoniae subsp. pneumoniae	202
WBL91325.1	Klebsiella pneumoniae subsp. pneumoniae	202
WBM02426.1	Klebsiella pneumoniae subsp. pneumoniae	202
WBM93321.1	Klebsiella pneumoniae	202
WBN05626.1	Klebsiella michiganensis	202
WBN13069.1	Klebsiella pneumoniae	202
WBN28188.1	Klebsiella pneumoniae	202
WBN33601.1	Klebsiella pneumoniae	202
WBN39418.1	Klebsiella pneumoniae	202
WBN45044.1	Klebsiella pneumoniae	202
WBN50576.1	Klebsiella pneumoniae	202
WBN55954.1	Klebsiella pneumoniae	202
WBN71272.1	Klebsiella pneumoniae	202
WBN76600.1	Klebsiella pneumoniae	202
WBN79291.1	Klebsiella pneumoniae	202
WP_270036479.1	Klebsiella quasipneumoniae	202
WBK53369.1	Klebsiella michiganensis	202
WBF23138.1	Klebsiella pneumoniae	202
WBF28262.1	Klebsiella pneumoniae	202
WBF33439.1	Klebsiella pneumoniae	202
WBD10687.1	Klebsiella variicola	202
WBD16341.1	Klebsiella variicola	202
WBD44864.1	Klebsiella variicola	202
WBD50467.1	Klebsiella variicola	202
WBD56024.1	Klebsiella variicola	202
WBD61585.1	Klebsiella variicola	202
WBD67140.1	Klebsiella variicola	202
WBD72698.1	Klebsiella variicola	202
WBD78435.1	Klebsiella oxytoca	202
WBD84049.1	Klebsiella oxytoca	202
WBB00335.1	Klebsiella pneumoniae	202
QKT29600.1	Klebsiella pneumoniae	202
QKT35190.1	Klebsiella pneumoniae	202
QKT40774.1	Klebsiella pneumoniae	202
QKT46353.1	Klebsiella pneumoniae	202
QKT51930.1	Klebsiella pneumoniae	202
QKT57518.1	Klebsiella pneumoniae	202
QKT63100.1	Klebsiella pneumoniae	202
QKT68687.1	Klebsiella pneumoniae	202
QKT74276.1	Klebsiella pneumoniae	202
QKT79863.1	Klebsiella pneumoniae	202
QKT85448.1	Klebsiella pneumoniae	202
QRC66344.1	Klebsiella pneumoniae	202
QSW15434.1	Klebsiella michiganensis	202
WBA44771.1	Klebsiella pneumoniae	202
WBA53286.1	Klebsiella pneumoniae	202
WAY92973.1	Klebsiella pneumoniae	202
WAX85768.1	Klebsiella michiganensis	202
WP_269330656.1	Klebsiella pneumoniae	204
WAT40974.1	Klebsiella michiganensis	202
WAT46294.1	Klebsiella quasipneumoniae	202
WAT51736.1	Klebsiella variicola	202
WAT58728.1	Klebsiella variicola	202
WAN43924.1	Klebsiella pneumoniae	202
WAL53378.1	Klebsiella variicola subsp. tropica	202
UOF25763.1	Klebsiella pneumoniae	202
WAI44788.1	Klebsiella quasipneumoniae	202
WAH48267.1	Klebsiella pneumoniae	202
WAD06521.1	Klebsiella pneumoniae	202
WAD11783.1	Klebsiella pneumoniae	202
WAD17075.1	Klebsiella pneumoniae	202
WAD21310.1	Klebsiella pneumoniae	202
WAD37242.1	Klebsiella pneumoniae	202
WAD42295.1	Klebsiella pneumoniae	202
WAD47448.1	Klebsiella pneumoniae	202
WAD52965.1	Klebsiella pneumoniae	202
WAD58630.1	Klebsiella pneumoniae	202
WAD65113.1	Klebsiella pneumoniae	202
WAD69310.1	Klebsiella pneumoniae	202
WP_267272355.1	Klebsiella pneumoniae	202
QUE94056.1	Klebsiella pasteurii	201
UZW71163.1	Klebsiella pneumoniae	202
UZW73100.1	Klebsiella pneumoniae	202
UZW73225.1	Klebsiella pneumoniae	202
UZW98912.1	Klebsiella pneumoniae	202
ATR51432.1	Klebsiella pneumoniae	202
UZH19915.1	Klebsiella pneumoniae	202
UZI36914.1	Klebsiella pneumoniae	202
UZI44931.1	Klebsiella pneumoniae	202
UZI47072.1	Klebsiella pneumoniae	202
UZI52138.1	Klebsiella pneumoniae	202
UZI55744.1	Klebsiella pneumoniae	202
UZI60433.1	Klebsiella pneumoniae	202
UZI60746.1	Klebsiella pneumoniae	202
UZI67263.1	Klebsiella pneumoniae	202
UZI70309.1	Klebsiella pneumoniae	202
UZI72905.1	Klebsiella pneumoniae	202
UZI79392.1	Klebsiella pneumoniae	202
UZI83273.1	Klebsiella pneumoniae	202
UZI91019.1	Klebsiella pneumoniae	202
UZJ00283.1	Klebsiella pneumoniae	202
UZJ08095.1	Klebsiella pneumoniae	202
UZJ13749.1	Klebsiella pneumoniae	202
UZJ19417.1	Klebsiella pneumoniae	202
UZL01169.1	Klebsiella pneumoniae	202
UZL08051.1	Klebsiella pneumoniae	202
UZL11480.1	Klebsiella pneumoniae	202
UZL18376.1	Klebsiella pneumoniae	202
UZL23040.1	Klebsiella pneumoniae	202
UZL28746.1	Klebsiella pneumoniae	202
UZL31572.1	Klebsiella pneumoniae	202
UZL36420.1	Klebsiella pneumoniae	202
UZL41775.1	Klebsiella pneumoniae	202
UZL46956.1	Klebsiella pneumoniae	202
UZL52549.1	Klebsiella pneumoniae	202
UZL57020.1	Klebsiella pneumoniae	202
UZL64218.1	Klebsiella pneumoniae	202
UZL69818.1	Klebsiella pneumoniae	202
UZL72596.1	Klebsiella pneumoniae	202
UZL83611.1	Klebsiella pneumoniae	202
UZR32601.1	Klebsiella pneumoniae subsp. pneumoniae	202
UZR38167.1	Klebsiella pneumoniae subsp. pneumoniae	202
UZR45466.1	Klebsiella pneumoniae subsp. pneumoniae	202
UZR50923.1	Klebsiella pneumoniae subsp. pneumoniae	202
UZR56300.1	Klebsiella pneumoniae subsp. pneumoniae	202
UZR61772.1	Klebsiella pneumoniae subsp. pneumoniae	202
UZR67270.1	Klebsiella pneumoniae subsp. pneumoniae	202
WP_265673094.1	Klebsiella pneumoniae	202
UZH12446.1	Klebsiella pneumoniae	202
UZH13358.1	Klebsiella pneumoniae	202
WP_265441699.1	Klebsiella pneumoniae	202
UZK61810.1	Klebsiella pneumoniae	202
UZK95431.1	Klebsiella pneumoniae	202
UZL78841.1	Klebsiella pneumoniae	202
UZJ67341.1	Klebsiella pneumoniae	202
UZJ03481.1	Klebsiella pneumoniae	202
WP_264822851.1	Klebsiella michiganensis	202
UZE55531.1	Klebsiella pneumoniae	202
UZF52163.1	Klebsiella quasipneumoniae	202
UZC98471.1	Klebsiella pneumoniae	202
UYY73624.1	Klebsiella michiganensis	201
UYX16938.1	Klebsiella pneumoniae	202
UYX22079.1	Klebsiella pneumoniae	202
UYX43527.1	Klebsiella pneumoniae	202
UYV33639.1	Klebsiella pneumoniae	202
UYW44121.1	Klebsiella pneumoniae	202
UYT47358.1	Klebsiella pneumoniae	202
UYT01433.1	Klebsiella pneumoniae	202
UYR99545.1	Klebsiella pneumoniae	202
UYS04666.1	Klebsiella pneumoniae	202
UYS10095.1	Klebsiella pneumoniae	202
UYS15892.1	Klebsiella pneumoniae	202
UYS20676.1	Klebsiella pneumoniae	202
UYS26045.1	Klebsiella pneumoniae	202
UYS36613.1	Klebsiella pneumoniae	202
UYS41980.1	Klebsiella pneumoniae	202
UYS47328.1	Klebsiella pneumoniae	202
UYS52758.1	Klebsiella pneumoniae	202
UYP15109.1	Klebsiella pneumoniae	202
UYO67883.1	Klebsiella sp. KP20-425-1	202
UYL75202.1	Klebsiella pneumoniae	202
UYK37610.1	Klebsiella pneumoniae	202
UYH05767.1	Klebsiella oxytoca	202
UYH26635.1	Klebsiella pneumoniae	202
UYF66053.1	Klebsiella pneumoniae	202
UYG13046.1	Klebsiella pneumoniae	202
UYD03877.1	Klebsiella pneumoniae	202
UYD11383.1	Klebsiella pneumoniae	202
WP_263082926.1	Klebsiella pneumoniae	202
UYB54571.1	Klebsiella michiganensis	202
UXY59270.1	Klebsiella pneumoniae	202
UYA05854.1	Klebsiella pneumoniae	202
UYA12406.1	Klebsiella pneumoniae	202
WP_262962498.1	Klebsiella quasipneumoniae	202
ULD75513.1	Klebsiella quasipneumoniae subsp. similipneumoniae	202
WP_262863816.1	Klebsiella pneumoniae	202
UXO74195.1	Klebsiella pneumoniae	202
UXO76174.1	Klebsiella pneumoniae	202
UXO79579.1	Klebsiella michiganensis	202
UXO79751.1	Klebsiella michiganensis	202
UXI26491.1	Klebsiella pneumoniae	202
UXI46936.1	Klebsiella pneumoniae	202
UXH35837.1	Klebsiella pneumoniae	202
QZY80974.1	Klebsiella sp. CTHL.F3a	201
UAD19520.1	Klebsiella quasipneumoniae	202
UAD21323.1	Klebsiella quasipneumoniae	202
UWY33816.1	Klebsiella pneumoniae	202
UWZ24946.1	Klebsiella pneumoniae	202
UWZ30412.1	Klebsiella pneumoniae	202
UWZ75086.1	Klebsiella michiganensis	202
UWX51557.1	Klebsiella pneumoniae	202
UWX14725.1	Klebsiella pneumoniae	202
UWX20093.1	Klebsiella pneumoniae	202
UWT83665.1	Klebsiella pneumoniae	202
UWS45015.1	Klebsiella variicola	202
UWS47006.1	Klebsiella variicola	202
UWM69956.1	Klebsiella pneumoniae	202
UWP72924.1	Klebsiella pneumoniae	202
UWL68264.1	Klebsiella pneumoniae	202
UWL78453.1	Klebsiella pneumoniae	202
UWL83471.1	Klebsiella pneumoniae	202
WP_259481163.1	Klebsiella pneumoniae	202
WP_259500408.1	Klebsiella pneumoniae	193
UVZ76813.1	Klebsiella pneumoniae	202
UVZ86649.1	Klebsiella michiganensis	202
UWA15530.1	Klebsiella pneumoniae	202
UWA20645.1	Klebsiella pneumoniae	202
UWA35671.1	Klebsiella pneumoniae	202
UWA45790.1	Klebsiella pneumoniae	202
UWA51110.1	Klebsiella pneumoniae	202
UWA61387.1	Klebsiella pneumoniae	202
UWA86264.1	Klebsiella quasipneumoniae subsp. quasipneumoniae	202
UWB01152.1	Klebsiella pneumoniae	202
UWB20012.1	Klebsiella pneumoniae	202
UWB25345.1	Klebsiella pneumoniae	202
UWB30498.1	Klebsiella pneumoniae	202
UWB40403.1	Klebsiella pneumoniae	202
UWB45843.1	Klebsiella pneumoniae	202
UWB72106.1	Klebsiella pneumoniae	202
UWB80114.1	Klebsiella pneumoniae	202
UWB85319.1	Klebsiella pneumoniae	202
UWC04454.1	Klebsiella pneumoniae	202
UWC42616.1	Klebsiella pneumoniae	202
UWC68057.1	Klebsiella pneumoniae	202
UWC73059.1	Klebsiella pneumoniae	202
UWC78600.1	Klebsiella oxytoca	202
UWC83097.1	Klebsiella pneumoniae	202
UWD08252.1	Klebsiella pneumoniae	202
UWD13347.1	Klebsiella pneumoniae	202
UWD18609.1	Klebsiella pneumoniae	202
UVW48431.1	Klebsiella variicola	202
UVW53629.1	Klebsiella variicola	202
UVT88419.1	Klebsiella pneumoniae	202
UVO43822.1	Klebsiella pneumoniae	202
UVN32314.1	Klebsiella pneumoniae	202
UVN37681.1	Klebsiella pneumoniae	202
UVH78519.1	Klebsiella pneumoniae	202
UVF95213.1	Klebsiella pneumoniae	202
UVG00927.1	Klebsiella pneumoniae	202
UVG06413.1	Klebsiella pneumoniae	202
UVG11803.1	Klebsiella pneumoniae	202
UVG16777.1	Klebsiella pneumoniae	202
UVG21676.1	Klebsiella quasipneumoniae	202
UVG26749.1	Klebsiella quasipneumoniae	202
UVG31765.1	Klebsiella quasipneumoniae	202
UVG38631.1	Klebsiella quasipneumoniae	202
QSQ04497.1	Klebsiella pneumoniae subsp. pneumoniae	202
UVE26721.1	Klebsiella pneumoniae	202
UVE32058.1	Klebsiella pneumoniae	202
UVE37399.1	Klebsiella pneumoniae	202
UUY42003.1	Klebsiella pneumoniae	202
UUY55997.1	Klebsiella pneumoniae	202
UUW62506.1	Klebsiella pneumoniae	202
UUV86194.1	Klebsiella pneumoniae	202
UUW01564.1	Klebsiella pneumoniae	202
UUV39763.1	Klebsiella pneumoniae	202
WP_064162424.1	Klebsiella pneumoniae	202
UUO97896.1	Klebsiella pneumoniae	202
UUP03460.1	Klebsiella pneumoniae	202
UUM16666.1	Klebsiella pneumoniae	202
QZZ95832.1	Klebsiella pneumoniae	202
QWS40714.1	Klebsiella pneumoniae	202
UUG57485.1	Klebsiella pneumoniae	202
UUE32109.1	Klebsiella pneumoniae	202
UUE85144.1	Klebsiella pneumoniae	202
UUC56875.1	Klebsiella pneumoniae	202
UUC62412.1	Klebsiella pneumoniae	202
UUC68184.1	Klebsiella pneumoniae	202
UUC73857.1	Klebsiella pneumoniae	202
UUC79244.1	Klebsiella pneumoniae	202
UUC89094.1	Klebsiella pneumoniae	202
UAA15337.1	Klebsiella quasipneumoniae	202
UAA10458.1	Klebsiella pneumoniae	202
UAA25374.1	Klebsiella pneumoniae	202
UGR11864.1	Klebsiella pneumoniae	202
UTW74370.1	Klebsiella pneumoniae subsp. pneumoniae	202
UTW79551.1	Klebsiella pneumoniae subsp. pneumoniae	202
UTW85280.1	Klebsiella pneumoniae subsp. pneumoniae	202
UTW90665.1	Klebsiella pneumoniae subsp. pneumoniae	202
UTW96284.1	Klebsiella pneumoniae subsp. pneumoniae	202
UTX01584.1	Klebsiella pneumoniae subsp. pneumoniae	202
UTX21305.1	Klebsiella pneumoniae	202
UTX23142.1	Klebsiella pneumoniae	202
UTX62714.1	Klebsiella michiganensis	202
UTO53024.1	Klebsiella pneumoniae	202
UTJ32748.1	Klebsiella pneumoniae	202
UTJ43321.1	Klebsiella grimontii	201
UTJ51333.1	Klebsiella pneumoniae	202
UTJ58300.1	Klebsiella michiganensis	202
UTJ77552.1	Klebsiella pneumoniae	202
UTJ82469.1	Klebsiella pneumoniae	202
UTJ86396.1	Klebsiella pneumoniae	202
WP_220419682.1	Enterobacteriaceae	202
USC37664.1	Klebsiella pneumoniae	202
USC43337.1	Klebsiella pneumoniae	202
UTB37234.1	Klebsiella pneumoniae	202
USZ84590.1	Klebsiella pneumoniae	202
UTA39049.1	Klebsiella pneumoniae	202
UTA44260.1	Klebsiella quasipneumoniae	202
UTA75949.1	Klebsiella variicola	202
USY14856.1	Klebsiella quasipneumoniae	202
USU88758.1	Klebsiella pneumoniae	202
UNF13751.1	Klebsiella grimontii	201
USO38676.1	Klebsiella pneumoniae	202
USO44644.1	Klebsiella pneumoniae	202
USO50488.1	Klebsiella pneumoniae	202
USP21380.1	Klebsiella pneumoniae	202
USP26660.1	Klebsiella pneumoniae	202
USP31796.1	Klebsiella pneumoniae	202
USP36866.1	Klebsiella pneumoniae	202
USP85993.1	Klebsiella quasipneumoniae	202
USP91418.1	Klebsiella pneumoniae	202
WP_073511750.1	Enterobacteriaceae	186
USI18636.1	Klebsiella pneumoniae	202
USC57304.1	Klebsiella pneumoniae	202
USB41965.1	Klebsiella africana	202
USB45255.1	Klebsiella pneumoniae	202
USB52285.1	Klebsiella pneumoniae	202
USB54618.1	Klebsiella pneumoniae	202
USB61024.1	Klebsiella pneumoniae	202
USB64966.1	Klebsiella pneumoniae	202
USB70698.1	Klebsiella pneumoniae	202
USB75101.1	Klebsiella pneumoniae	202
USB90954.1	Klebsiella pneumoniae	202
USB95492.1	Klebsiella pneumoniae	202
USC00920.1	Klebsiella pneumoniae	202
USC07645.1	Klebsiella variicola	202
URT76634.1	Klebsiella pneumoniae	202
URT80396.1	Klebsiella pneumoniae	202
URT84406.1	Klebsiella pneumoniae	202
URT91019.1	Klebsiella pneumoniae	202
URT98248.1	Klebsiella pneumoniae	202
URU01962.1	Klebsiella pneumoniae	202
URU08905.1	Klebsiella pneumoniae	202
URU14004.1	Klebsiella pneumoniae	202
URU17582.1	Klebsiella pneumoniae	202
URU24927.1	Klebsiella pneumoniae	202
URU28406.1	Klebsiella pneumoniae	202
URU33500.1	Klebsiella pneumoniae	202
URU40188.1	Klebsiella pneumoniae	202
URU42508.1	Klebsiella pneumoniae	202
URU49160.1	Klebsiella pneumoniae	202
URV49223.1	Klebsiella pneumoniae	202
URV54595.1	Klebsiella pneumoniae	202
URV76428.1	Klebsiella pneumoniae	202
URR03819.1	Klebsiella pneumoniae	202
URR18919.1	Klebsiella quasipneumoniae	202
URS94205.1	Klebsiella pneumoniae	202
URL42302.1	Klebsiella pneumoniae	202
URL52103.1	Klebsiella pneumoniae	202
URL62799.1	Klebsiella pneumoniae	202
URK14088.1	Klebsiella variicola	202
WP_250178263.1	Klebsiella pneumoniae	202
URH86683.1	Klebsiella pneumoniae	202
URI20188.1	Klebsiella pneumoniae	202
URI25287.1	Klebsiella quasipneumoniae	202
URI27200.1	Klebsiella quasipneumoniae	202
URI29658.1	Klebsiella pneumoniae	202
URI37976.1	Klebsiella pneumoniae	202
URI43193.1	Klebsiella pneumoniae	202
URI48412.1	Klebsiella pneumoniae	202
URI54239.1	Klebsiella pneumoniae	202
URI59844.1	Klebsiella pneumoniae	202
URI65540.1	Klebsiella pneumoniae	202
URI71002.1	Klebsiella pneumoniae	202
URI76639.1	Klebsiella pneumoniae	202
URI82237.1	Klebsiella pneumoniae	202
URI87447.1	Klebsiella pneumoniae	202
URI92875.1	Klebsiella pneumoniae	202
URI98237.1	Klebsiella pneumoniae	202
URB59963.1	Klebsiella pneumoniae	202
URB65269.1	Klebsiella pneumoniae	202
URB70668.1	Klebsiella pneumoniae	202
URB88704.1	Klebsiella pneumoniae	202
URB97160.1	Klebsiella pneumoniae	202
URB98404.1	Klebsiella pneumoniae	202
URC03517.1	Klebsiella pneumoniae	202
UQY38326.1	Klebsiella pneumoniae U-0608239	202
UQY67111.1	Klebsiella pneumoniae	202
UQY72305.1	Klebsiella pneumoniae	202
WP_128336709.1	Klebsiella quasipneumoniae	202
UQS52901.1	Klebsiella pneumoniae	202
QLN41372.1	Klebsiella pneumoniae	202
QLN51015.1	Klebsiella grimontii	202
QLN76803.1	Klebsiella grimontii	202
QLN80620.1	Klebsiella grimontii	201
QLN86882.1	Klebsiella pneumoniae	202
QLN97596.1	Klebsiella quasipneumoniae	202
QLO17775.1	Klebsiella pneumoniae	202
QLO21910.1	Klebsiella pneumoniae	202
QLO33860.1	Klebsiella pneumoniae	202
QLO50898.1	Klebsiella grimontii	201
QLO60877.1	Klebsiella pneumoniae	202
QLO76539.1	Klebsiella grimontii	201
QLT07758.1	Klebsiella grimontii	201
QLT13407.1	Klebsiella pneumoniae	202
QLT27300.1	Klebsiella pneumoniae	202
QLT41886.1	Klebsiella pneumoniae	202
QLT63137.1	Klebsiella oxytoca	201
QLT67962.1	Klebsiella oxytoca	202
QLT73384.1	Klebsiella pneumoniae	202
QLT80909.1	Klebsiella pneumoniae	202
QLT86671.1	Klebsiella grimontii	201
QLT96990.1	Klebsiella pneumoniae	202
QLU03287.1	Klebsiella oxytoca	201
QLU07621.1	Klebsiella oxytoca	202
QLU23180.1	Klebsiella oxytoca	201
QLU27565.1	Klebsiella oxytoca	202
QLU38953.1	Klebsiella pneumoniae	202
QLU43351.1	Klebsiella pneumoniae	202
QLU44459.1	Klebsiella pneumoniae	202
QLU55176.1	Klebsiella grimontii	201
QLU59616.1	Klebsiella grimontii	202
QLU75750.1	Klebsiella grimontii	201
QLU80212.1	Klebsiella grimontii	202
QLW29852.1	Klebsiella pneumoniae	202
QLW68372.1	Klebsiella pneumoniae	202
QLW88004.1	Klebsiella oxytoca	202
QLX13892.1	Klebsiella oxytoca	202
QLX71721.1	Klebsiella oxytoca	202
QLX86513.1	Klebsiella oxytoca	202
QLX86714.1	Klebsiella oxytoca	202
UQP55484.1	Klebsiella pneumoniae	202
UQP61034.1	Klebsiella pneumoniae	202
UQP71926.1	Klebsiella pneumoniae	202
UQP76476.1	Klebsiella pneumoniae	202
UQP83990.1	Klebsiella pneumoniae	202
QLP06405.1	Klebsiella grimontii	201
QLP11101.1	Klebsiella grimontii	202
QLP34803.1	Klebsiella michiganensis	202
QLP40513.1	Klebsiella grimontii	201
QLP45021.1	Klebsiella grimontii	202
QLP46028.1	Klebsiella michiganensis	202
QLP49788.1	Klebsiella michiganensis	201
QLP56766.1	Klebsiella quasipneumoniae	202
QLP60987.1	Klebsiella quasipneumoniae	202
QLR36721.1	Klebsiella pneumoniae	202
QLR40763.1	Klebsiella pneumoniae	202
QLR56297.1	Klebsiella pneumoniae	202
QLS18485.1	Klebsiella michiganensis	201
QLS58571.1	Klebsiella variicola	202
QLS78683.1	Klebsiella pneumoniae	202
QLZ34869.1	Klebsiella pneumoniae	202
QLZ71804.1	Klebsiella pneumoniae	202
QLZ75786.1	Klebsiella pneumoniae	202
QMA06463.1	Klebsiella pneumoniae	202
QMA11695.1	Klebsiella pneumoniae	202
QMB90869.1	Klebsiella pneumoniae	202
QMC28785.1	Klebsiella pneumoniae	202
QMC34085.1	Klebsiella pneumoniae	202
QMC67572.1	Klebsiella pneumoniae	202
QMF81201.1	Klebsiella pneumoniae	202
QMF96505.1	Klebsiella oxytoca	202
QMH62052.1	Klebsiella pneumoniae	202
QML95272.1	Klebsiella pneumoniae	202
UQK64076.1	Klebsiella pneumoniae	202
WP_248931584.1	Klebsiella pneumoniae	202
QOD78575.1	Klebsiella pneumoniae	202
UQH61227.1	Klebsiella pneumoniae	202
UPZ01376.1	Klebsiella pneumoniae	202
UPU26628.1	Klebsiella pneumoniae	202
ULN03104.1	Klebsiella pneumoniae	202
ULN11080.1	Klebsiella pneumoniae	202
ULN16594.1	Klebsiella pneumoniae	202
ULN23816.1	Klebsiella pneumoniae	202
UPS68335.1	Klebsiella pneumoniae	202
UPS71842.1	Klebsiella quasipneumoniae	202
WP_200083045.1	Klebsiella variicola	202
WP_200927780.1	Klebsiella quasipneumoniae	202
WP_204364337.1	Klebsiella variicola	202
WP_211656412.1	Klebsiella pneumoniae	202
WP_211658063.1	Klebsiella pneumoniae	193
WP_213811076.1	Klebsiella michiganensis	202
WP_216260708.1	Klebsiella pneumoniae	202
WP_217332510.1	Klebsiella quasipneumoniae	202
WP_218408199.1	Klebsiella variicola	202
WP_218784019.1	Klebsiella pneumoniae	202
WP_218792300.1	Klebsiella pneumoniae	202
WP_218793758.1	Klebsiella pneumoniae	202
WP_219720759.1	Klebsiella pneumoniae	202
WP_221396565.1	Klebsiella pneumoniae	202
WP_223362787.1	Klebsiella pneumoniae	202
WP_225375303.1	Klebsiella pneumoniae	202
WP_228972719.1	Klebsiella pneumoniae	202
WP_229385315.1	Klebsiella pneumoniae	188
WP_229540082.1	Klebsiella pneumoniae	202
WP_232500182.1	Klebsiella michiganensis	202
WP_237084647.1	Klebsiella pneumoniae	202
WP_237879045.1	Klebsiella pneumoniae	202
WP_241186640.1	Klebsiella michiganensis	202
WP_241359904.1	Klebsiella pneumoniae	202
WP_243069906.1	Klebsiella pneumoniae	202
WP_243208100.1	Klebsiella pneumoniae	202
WP_243813992.1	Klebsiella quasipneumoniae	202
UBB30821.1	Klebsiella pneumoniae	202
UPN56452.1	Klebsiella pneumoniae	202
UPI88272.1	Klebsiella michiganensis	201
UPI98854.1	Klebsiella pneumoniae	202
UPJ04461.1	Klebsiella pneumoniae	202
UPJ11799.1	Klebsiella pneumoniae	202
UPJ13871.1	Klebsiella pneumoniae	202
WP_117027860.1	Enterobacteriaceae	202
UPF40363.1	Klebsiella pneumoniae subsp. pneumoniae	202
UPF51155.1	Klebsiella pneumoniae subsp. pneumoniae	202
UPF56565.1	Klebsiella pneumoniae subsp. pneumoniae	202
UPF62124.1	Klebsiella pneumoniae subsp. pneumoniae	202
UPF67778.1	Klebsiella pneumoniae subsp. pneumoniae	202
UPF73140.1	Klebsiella pneumoniae subsp. pneumoniae	202
UPF78683.1	Klebsiella pneumoniae subsp. pneumoniae	202
UPF84398.1	Klebsiella pneumoniae subsp. pneumoniae	202
UPF90049.1	Klebsiella pneumoniae subsp. pneumoniae	202
UPF95722.1	Klebsiella pneumoniae subsp. pneumoniae	202
UOZ32916.1	Klebsiella pneumoniae	202
UPA36009.1	Klebsiella pneumoniae	202
UPA38000.1	Klebsiella pneumoniae	202
UOV66621.1	Klebsiella pneumoniae	202
UOV71256.1	Klebsiella pneumoniae	202
UOV76680.1	Klebsiella pneumoniae	202
UOV79435.1	Klebsiella pneumoniae	202
UOV84971.1	Klebsiella pneumoniae	202
UOR57959.1	Klebsiella pneumoniae	202
UON20586.1	Klebsiella pneumoniae	202
UON97345.1	Klebsiella michiganensis	202
UOO34581.1	Klebsiella pneumoniae subsp. pneumoniae	202
UOO50646.1	Klebsiella pneumoniae	202
UOP73605.1	Klebsiella pneumoniae	202
UOP78849.1	Klebsiella pneumoniae	202
UOP84225.1	Klebsiella pneumoniae	202
UOP86225.1	Klebsiella pneumoniae	202
UOP88988.1	Klebsiella pneumoniae	202
UOP91833.1	Klebsiella pneumoniae	202
UOP95254.1	Klebsiella pneumoniae	202
UOQ04924.1	Klebsiella pneumoniae	202
UOQ10262.1	Klebsiella pneumoniae	202
UOQ15654.1	Klebsiella pneumoniae	202
UOM47529.1	Klebsiella pneumoniae	202
UOH02239.1	Klebsiella pneumoniae	202
UOH07846.1	Klebsiella pneumoniae	202
UOH13448.1	Klebsiella pneumoniae	202
UMZ02780.1	Klebsiella pneumoniae	202
UNC53607.1	Klebsiella pneumoniae subsp. pneumoniae	202
UNC58870.1	Klebsiella pneumoniae	202
UNC64476.1	Klebsiella pneumoniae	202
UNC86048.1	Klebsiella pneumoniae	202
UNM23769.1	Klebsiella pneumoniae	202
UNM29268.1	Klebsiella pneumoniae subsp. ozaenae	202
UNM34442.1	Klebsiella pneumoniae subsp. pneumoniae	202
UNM39410.1	Klebsiella pneumoniae	202
UNM47691.1	Klebsiella pneumoniae	202
WP_057058249.1	Enterobacteriaceae	202
WP_156836472.1	Klebsiella pneumoniae	202
UOB48733.1	Klebsiella pneumoniae subsp. rhinoscleromatis	202
UOB85270.1	Klebsiella pneumoniae	202
UNI55178.1	Klebsiella oxytoca	202
UNX14322.1	Klebsiella pneumoniae	202
UNX19852.1	Klebsiella pneumoniae	202
UNX25485.1	Klebsiella pneumoniae	202
UNX31102.1	Klebsiella pneumoniae	202
UNX36720.1	Klebsiella pneumoniae	202
UNX45666.1	Klebsiella pneumoniae	202
UNX51006.1	Klebsiella pneumoniae	202
UNX59856.1	Klebsiella pneumoniae	202
UNX79825.1	Klebsiella pneumoniae	202
UNX85154.1	Klebsiella pneumoniae	202
UNV72569.1	Klebsiella pneumoniae	202
UNV80121.1	Klebsiella pneumoniae	202
UNT80293.1	Klebsiella pneumoniae	202
UNT86413.1	Klebsiella pneumoniae	202
UNS81999.1	Klebsiella pneumoniae	202
UNS87817.1	Klebsiella pneumoniae	202
UNT05012.1	Klebsiella pneumoniae	202
UNT10123.1	Klebsiella pneumoniae	202
UNM50143.1	Klebsiella pneumoniae	202
UNI26459.1	Klebsiella pneumoniae	202
UNI31176.1	Klebsiella pneumoniae	202
UNI35606.1	Klebsiella pneumoniae	202
UNI40079.1	Klebsiella pneumoniae	202
UNI44257.1	Klebsiella pneumoniae	202
UNI48605.1	Klebsiella pneumoniae	202
UNH47648.1	Klebsiella pneumoniae subsp. pneumoniae	202
UNH49500.1	Klebsiella pneumoniae subsp. pneumoniae	202
UNH52990.1	Klebsiella pneumoniae	202
UNF66272.1	Klebsiella michiganensis	202
UNG14284.1	Klebsiella pneumoniae	202
UNC69671.1	Klebsiella pneumoniae	202
UNC75044.1	Klebsiella pneumoniae	202
UNC80495.1	Klebsiella pneumoniae	202
UNE93365.1	Klebsiella pneumoniae	202
UNE95612.1	Klebsiella pneumoniae	202
UNE98997.1	Klebsiella pneumoniae	202
UNB79130.1	Klebsiella pneumoniae	202
UAA35153.1	Klebsiella pneumoniae	202
UNA30405.1	Klebsiella variicola subsp. variicola	202
UNA35135.1	Klebsiella variicola subsp. variicola	202
UMX62673.1	Klebsiella pneumoniae	202
UMX66699.1	Klebsiella pneumoniae	202
UMX70510.1	Klebsiella pneumoniae	202
UMX81812.1	Klebsiella pneumoniae	202
UMX85173.1	Klebsiella pneumoniae	202
UMY23665.1	Klebsiella pneumoniae	202
UMY39351.1	Klebsiella pneumoniae	202
UKS47809.1	Klebsiella michiganensis	202
UMR11277.1	Klebsiella pneumoniae	202
UMR16732.1	Klebsiella pneumoniae	202
UMR22218.1	Klebsiella pneumoniae	202
UMU29385.1	Klebsiella pneumoniae	202
UMU47596.1	Klebsiella quasipneumoniae	202
UMU79477.1	Klebsiella pneumoniae	202
UMU84741.1	Klebsiella pneumoniae	202
UMU95056.1	Klebsiella pneumoniae	202
UMV23585.1	Klebsiella pneumoniae	202
UMV25354.1	Klebsiella pneumoniae	202
UMV29532.1	Klebsiella pneumoniae	201
UMP74805.1	Klebsiella pneumoniae	202
UMP79892.1	Klebsiella pneumoniae	202
UMP84722.1	Klebsiella pneumoniae	202
UMP89537.1	Klebsiella pneumoniae	202
UMP94202.1	Klebsiella pneumoniae	202
UML89788.1	Klebsiella variicola subsp. variicola	202
UMG14675.1	Klebsiella pneumoniae	202
UMG25552.1	Klebsiella pneumoniae	202
UMG31128.1	Klebsiella pneumoniae	202
UMG36551.1	Klebsiella pneumoniae	202
UMG41794.1	Klebsiella pneumoniae	202
UMG52196.1	Klebsiella pneumoniae	202
UMG68291.1	Klebsiella pneumoniae	202
UMG73554.1	Klebsiella pneumoniae	202
UMG82384.1	Klebsiella pneumoniae	202
UMG87349.1	Klebsiella pneumoniae	202
UMG98173.1	Klebsiella pneumoniae	202
UMH03559.1	Klebsiella pneumoniae	202
UMH08982.1	Klebsiella pneumoniae	202
UMH14418.1	Klebsiella pneumoniae	202
UMH19687.1	Klebsiella pneumoniae	202
UMH25037.1	Klebsiella pneumoniae	202
UMH34042.1	Klebsiella pneumoniae	202
UMH40804.1	Klebsiella pneumoniae	202
UMH56812.1	Klebsiella pneumoniae	202
UMH67486.1	Klebsiella pneumoniae	202
UMH71378.1	Klebsiella pneumoniae	202
UMH78231.1	Klebsiella pneumoniae	202
UMH83493.1	Klebsiella pneumoniae	202
UMH88789.1	Klebsiella pneumoniae	202
UMH99345.1	Klebsiella pneumoniae	202
UMI04583.1	Klebsiella pneumoniae	202
UMI06548.1	Klebsiella pneumoniae	202
UMI15248.1	Klebsiella pneumoniae	202
UMI20469.1	Klebsiella pneumoniae	202
UMI25566.1	Klebsiella pneumoniae	202
UMI30616.1	Klebsiella pneumoniae	202
UMI36915.1	Klebsiella pneumoniae	202
UMI47890.1	Klebsiella pneumoniae	202
UMI58592.1	Klebsiella pneumoniae	202
UMI64044.1	Klebsiella pneumoniae	202
UMI69451.1	Klebsiella pneumoniae	202
UMI74823.1	Klebsiella pneumoniae	202
UMI80294.1	Klebsiella pneumoniae	202
UMI97579.1	Klebsiella pneumoniae	202
UMJ02753.1	Klebsiella pneumoniae	202
UMJ18873.1	Klebsiella pneumoniae	202
UMJ24307.1	Klebsiella pneumoniae	202
UMJ29790.1	Klebsiella pneumoniae	202
UMJ40269.1	Klebsiella pneumoniae	202
UMJ72094.1	Klebsiella pneumoniae	202
UMJ82521.1	Klebsiella pneumoniae	202
UMJ96650.1	Klebsiella pneumoniae	202
UMK01878.1	Klebsiella pneumoniae	202
UMK06998.1	Klebsiella pneumoniae	202
UMK12197.1	Klebsiella pneumoniae	202
UMK17489.1	Klebsiella pneumoniae	202
UMK22712.1	Klebsiella pneumoniae	202
UMK27915.1	Klebsiella pneumoniae	202
UMK33446.1	Klebsiella pneumoniae	202
UMK38874.1	Klebsiella pneumoniae	202
UMC51714.1	Klebsiella pneumoniae	202
UMC57082.1	Klebsiella pneumoniae	202
UMC62821.1	Klebsiella pneumoniae	202
UMC68396.1	Klebsiella pneumoniae	202
UMC73715.1	Klebsiella pneumoniae	202
UMC79063.1	Klebsiella pneumoniae	202
UMC92237.1	Klebsiella pneumoniae	202
UMC97846.1	Klebsiella pneumoniae	202
UMD03279.1	Klebsiella pneumoniae	202
UMD08535.1	Klebsiella pneumoniae	202
UMD13893.1	Klebsiella quasipneumoniae	202
UMD19077.1	Klebsiella pneumoniae	202
UMD24382.1	Klebsiella pneumoniae	202
UMD29878.1	Klebsiella pneumoniae	202
UMD34970.1	Klebsiella pneumoniae	202
UMD40537.1	Klebsiella pneumoniae	202
UMD57051.1	Klebsiella pneumoniae	202
UMD61050.1	Klebsiella pneumoniae	202
UMD67704.1	Klebsiella pneumoniae	202
UMD73323.1	Klebsiella pneumoniae	202
UMD78730.1	Klebsiella pneumoniae	202
UMD84163.1	Klebsiella pneumoniae	202
UMD89554.1	Klebsiella pneumoniae	202
UMD91512.1	Klebsiella pneumoniae	202
UMD94659.1	Klebsiella pneumoniae	202
UME05460.1	Klebsiella pneumoniae	202
UME15952.1	Klebsiella pneumoniae	202
UME21281.1	Klebsiella pneumoniae	202
UME31865.1	Klebsiella pneumoniae	202
UME42873.1	Klebsiella pneumoniae	202
UME48222.1	Klebsiella pneumoniae	202
UME52140.1	Klebsiella pneumoniae	202
UME65035.1	Klebsiella pneumoniae	202
UME75948.1	Klebsiella pneumoniae	202
UME81360.1	Klebsiella pneumoniae	202
UME87035.1	Klebsiella pneumoniae	202
UME97705.1	Klebsiella pneumoniae	202
UMF03016.1	Klebsiella pneumoniae	202
UMF08364.1	Klebsiella pneumoniae	202
UMF13625.1	Klebsiella pneumoniae	202
UMF19127.1	Klebsiella pneumoniae	202
UMF24716.1	Klebsiella pneumoniae	202
UMF29849.1	Klebsiella pneumoniae	202
UMF35092.1	Klebsiella pneumoniae	202
UMF40484.1	Klebsiella pneumoniae	202
ULN07974.1	Klebsiella pneumoniae subsp. pneumoniae	202
UKB71372.1	Klebsiella sp. PCX	202
ULI10616.1	Klebsiella pneumoniae	202
ULI24865.1	Klebsiella pneumoniae	202
ULI29268.1	Klebsiella pneumoniae	202
ULI48728.1	Klebsiella pneumoniae	202
ULI69243.1	Klebsiella pneumoniae	202
ULI78104.1	Klebsiella pneumoniae	202
ULI83504.1	Klebsiella pneumoniae	202
ULI93576.1	Klebsiella pneumoniae	202
ULJ02083.1	Klebsiella pneumoniae	202
ULJ08205.1	Klebsiella pneumoniae	202
ULJ18035.1	Klebsiella pneumoniae	202
ULJ23102.1	Klebsiella pneumoniae	202
ULJ31737.1	Klebsiella quasipneumoniae	202
ULJ86224.1	Klebsiella pneumoniae	202
ULJ89147.1	Klebsiella pneumoniae	202
ULK17073.1	Klebsiella pneumoniae	202
ULK22536.1	Klebsiella pneumoniae	202
ULK32489.1	Klebsiella pneumoniae	202
ULK47242.1	Klebsiella pneumoniae	202
ULK64981.1	Klebsiella pneumoniae	202
ULK74977.1	Klebsiella pneumoniae	202
ULK90699.1	Klebsiella pneumoniae	202
ULF59254.1	Klebsiella michiganensis	202
ULF65128.1	Klebsiella michiganensis	202
UKV68730.1	Klebsiella pneumoniae	202
UKK42471.1	Klebsiella quasipneumoniae	202
UKL16807.1	Klebsiella pneumoniae	202
UKL21792.1	Klebsiella pneumoniae	202
UKL26586.1	Klebsiella pneumoniae	202
UKL31621.1	Klebsiella pneumoniae	202
UKL36642.1	Klebsiella pneumoniae	202
UKL41431.1	Klebsiella quasipneumoniae	202
UKL46116.1	Klebsiella pneumoniae	202
UKL50817.1	Klebsiella pneumoniae	202
UKL55833.1	Klebsiella pneumoniae	202
UKL60713.1	Klebsiella pneumoniae	202
UKL65807.1	Klebsiella pneumoniae	202
UKL70772.1	Klebsiella pneumoniae	202
UKL75726.1	Klebsiella pneumoniae	202
UKL80688.1	Klebsiella pneumoniae	202
UKL85409.1	Klebsiella pneumoniae	202
UKL90493.1	Klebsiella pneumoniae	202
UKL95599.1	Klebsiella pneumoniae	202
UKM00845.1	Klebsiella pneumoniae	202
UKG65336.1	Klebsiella pneumoniae	202
UKG70560.1	Klebsiella pneumoniae	202
UKD18368.1	Klebsiella pneumoniae	202
UKD28505.1	Klebsiella pneumoniae	202
UKD37478.1	Klebsiella pneumoniae	202
UJM18552.1	Klebsiella pneumoniae	202
UJJ75741.1	Klebsiella pneumoniae	202
UJH82125.1	Klebsiella pneumoniae	202
UJH87461.1	Klebsiella pneumoniae	202
UJA26128.1	Klebsiella pneumoniae	202
UJA49743.1	Klebsiella pneumoniae	202
UJC41373.1	Klebsiella pneumoniae	202
UJC47856.1	Klebsiella pneumoniae	202
UJC82988.1	Klebsiella pneumoniae	202
UJC94908.1	Klebsiella pneumoniae	202
UIY66335.1	Klebsiella pneumoniae	202
UIY71504.1	Klebsiella pneumoniae	202
UIY76826.1	Klebsiella pneumoniae	202
UIY82150.1	Klebsiella pneumoniae	202
UIU18816.1	Klebsiella michiganensis	202
UIU31865.1	Klebsiella pneumoniae	202
UHO47552.1	Klebsiella pneumoniae	202
UIR26351.1	Klebsiella pneumoniae	202
UIR52190.1	Klebsiella pneumoniae subsp. pneumoniae	202
UIR61162.1	Klebsiella pneumoniae	202
UIR66700.1	Klebsiella pneumoniae	202
UIP11588.1	Klebsiella pneumoniae	202
UIP16523.1	Klebsiella pneumoniae	202
UIK60964.1	Klebsiella pneumoniae	202
UIK66161.1	Klebsiella pneumoniae	202
UIL24099.1	Klebsiella pneumoniae	202
UIL61855.1	Klebsiella pneumoniae	202
UIM27036.1	Klebsiella pneumoniae	202
UIM62134.1	Klebsiella oxytoca	202
UII35502.1	Klebsiella pneumoniae	202
UII43359.1	Klebsiella pneumoniae	202
UHS66402.1	Klebsiella pneumoniae	202
UHL67828.1	Klebsiella pneumoniae	202
UHL73374.1	Klebsiella pneumoniae	202
UHL77904.1	Klebsiella pneumoniae	202
UHL85819.1	Klebsiella pneumoniae	202
UHL89476.1	Klebsiella pneumoniae	202
UHJ43235.1	Klebsiella pneumoniae	202
UHC78128.1	Klebsiella oxytoca	202
UHC86687.1	Klebsiella michiganensis	202
UHC95205.1	Klebsiella oxytoca	202
UHC99844.1	Klebsiella pasteurii	201
UHD04983.1	Klebsiella michiganensis	202
UHD10152.1	Klebsiella oxytoca	202
UHD22052.1	Klebsiella pneumoniae	202
UHD27275.1	Klebsiella variicola subsp. variicola	202
UHD32875.1	Klebsiella michiganensis	202
UHD64475.1	Klebsiella michiganensis	202
UGW89631.1	Klebsiella sp. KPN54798	202
UGS17475.1	Klebsiella pneumoniae	202
UGQ68635.1	Klebsiella pneumoniae	202
UGQ73891.1	Klebsiella pneumoniae	202
UGQ78960.1	Klebsiella pneumoniae	202
UGQ84402.1	Klebsiella pneumoniae	202
UGQ89902.1	Klebsiella pneumoniae	202
UGQ95619.1	Klebsiella pneumoniae	202
UGR06180.1	Klebsiella pneumoniae	202
UGR17236.1	Klebsiella pneumoniae	202
UGL88450.1	Klebsiella pneumoniae	202
UGL93904.1	Klebsiella pneumoniae	202
UGM00197.1	Klebsiella pneumoniae	202
UGM05596.1	Klebsiella pneumoniae	202
UGM11024.1	Klebsiella pneumoniae	202
UGM16641.1	Klebsiella pneumoniae	202
UGM21747.1	Klebsiella pneumoniae	202
UGM27203.1	Klebsiella pneumoniae	202
UGM32540.1	Klebsiella pneumoniae	202
UGM38344.1	Klebsiella pneumoniae	202
UGM43742.1	Klebsiella pneumoniae	202
UGM49397.1	Klebsiella pneumoniae	202
UGM54527.1	Klebsiella pneumoniae	202
UGM59958.1	Klebsiella pneumoniae	202
UGM65433.1	Klebsiella pneumoniae	202
UGM70949.1	Klebsiella pneumoniae	202
UGM76560.1	Klebsiella pneumoniae	202
UGM81722.1	Klebsiella pneumoniae	202
UGM87128.1	Klebsiella pneumoniae	202
UGM92239.1	Klebsiella pneumoniae	202
UGM97496.1	Klebsiella pneumoniae	202
UGN03215.1	Klebsiella pneumoniae	202
UGN08482.1	Klebsiella pneumoniae	202
UFX80414.1	Klebsiella pneumoniae	202
UFO04217.1	Klebsiella variicola subsp. variicola	202
UFN62582.1	Klebsiella pneumoniae	202
UFK90667.1	Klebsiella quasipneumoniae	202
UFH13663.1	Klebsiella pneumoniae	202
UFH18866.1	Klebsiella pneumoniae	202
UFH86926.1	Klebsiella pneumoniae	202
UFH92718.1	Klebsiella pneumoniae	202
UEB63444.1	Klebsiella pneumoniae	202
UDU25539.1	Klebsiella pneumoniae	202
UDU31054.1	Klebsiella pneumoniae	202
WP_109873923.1	Klebsiella/Raoultella group	202
UDI87051.1	Klebsiella pneumoniae	202
UDB93831.1	Klebsiella pneumoniae	202
UDB99202.1	Klebsiella pneumoniae	202
UDC03945.1	Klebsiella quasipneumoniae subsp. similipneumoniae	202
UDC09272.1	Klebsiella variicola subsp. variicola	202
UDC14256.1	Klebsiella quasipneumoniae subsp. similipneumoniae	202
UDC17629.1	Klebsiella quasipneumoniae subsp. similipneumoniae	202
UDC24431.1	Klebsiella variicola subsp. variicola	202
UDC28245.1	Klebsiella variicola subsp. tropica	202
UDC34666.1	Klebsiella pneumoniae	202
UDC42087.1	Klebsiella quasivariicola	202
UDC45105.1	Klebsiella quasipneumoniae subsp. similipneumoniae	202
UDC50039.1	Klebsiella quasipneumoniae subsp. similipneumoniae	202
UDC55809.1	Klebsiella quasipneumoniae subsp. quasipneumoniae	202
UDC61314.1	Klebsiella quasipneumoniae subsp. quasipneumoniae	202
UDC66786.1	Klebsiella quasipneumoniae subsp. quasipneumoniae	202
UDC71816.1	Klebsiella quasipneumoniae subsp. quasipneumoniae	202
UDC76087.1	Klebsiella pneumoniae	202
UDC81675.1	Klebsiella pneumoniae	202
UDC87597.1	Klebsiella pneumoniae	202
UDC92841.1	Klebsiella pneumoniae	202
UDC97908.1	Klebsiella quasipneumoniae subsp. quasipneumoniae	202
UDD02898.1	Klebsiella pneumoniae	202
UDD18724.1	Klebsiella pneumoniae	202
UDD24132.1	Klebsiella pneumoniae	202
UDD35234.1	Klebsiella pneumoniae	202
UDD41166.1	Klebsiella africana	202
UCZ67914.1	Klebsiella pneumoniae	202
UCT98686.1	Klebsiella pneumoniae	202
UCU02707.1	Klebsiella pneumoniae	202
UBU45192.1	Klebsiella pneumoniae	202
UCQ63058.1	Klebsiella pneumoniae subsp. pneumoniae	202
UCM80382.1	Klebsiella pneumoniae	202
UCM15304.1	Klebsiella pneumoniae	202
UCM35274.1	Klebsiella pneumoniae	202
UCM40970.1	Klebsiella pneumoniae	202
UCA40897.1	Klebsiella pneumoniae	202
UBU67604.1	Klebsiella pneumoniae	202
UBU06244.1	Klebsiella pneumoniae subsp. pneumoniae	202
UBR55441.1	Klebsiella pneumoniae	202
UBM92631.1	Klebsiella pneumoniae	202
UBM94701.1	Klebsiella pneumoniae	202
UBM98108.1	Klebsiella variicola	202
UBN03745.1	Klebsiella pneumoniae	202
UBN05866.1	Klebsiella pneumoniae	202
WP_020802352.1	Enterobacteriaceae	202
UBH72004.1	Klebsiella quasipneumoniae	202
UBH78685.1	Klebsiella quasipneumoniae	202
UBB33317.1	Klebsiella pneumoniae	202
UAW23864.1	Klebsiella pneumoniae	202
UAW28539.1	Klebsiella quasipneumoniae	202
UAW32394.1	Klebsiella quasipneumoniae	202
UAC55210.1	Klebsiella pneumoniae	202
UAC60369.1	Klebsiella pneumoniae	202
UAC65367.1	Klebsiella pneumoniae	202
UAC67422.1	Klebsiella pneumoniae	202
UAC67455.1	Klebsiella pneumoniae	202
UAI88023.1	Klebsiella pneumoniae	202
UAI93650.1	Klebsiella pneumoniae	202
UAI99265.1	Klebsiella pneumoniae	202
UAJ02948.1	Klebsiella pneumoniae	202
UAA00741.1	Klebsiella pneumoniae	202
UAA20427.1	Klebsiella pneumoniae	202
QZY07906.1	Klebsiella pneumoniae subsp. pneumoniae	202
QZT46264.1	Klebsiella pneumoniae	202
QZG74106.1	Klebsiella michiganensis	202
QZO56225.1	Klebsiella pneumoniae	202
QZO63168.1	Klebsiella pneumoniae	202
QZO68237.1	Klebsiella pneumoniae	202
QZO73545.1	Klebsiella pneumoniae	202
QZN70041.1	Klebsiella pneumoniae	202
QZD84202.1	Klebsiella pneumoniae	202
QYO83442.1	Klebsiella quasipneumoniae	202
QYM44866.1	Klebsiella pneumoniae	202
QYK77692.1	Klebsiella pneumoniae	202
QYK88996.1	Klebsiella pneumoniae	202
QYG16630.1	Klebsiella pneumoniae	202
QYG22027.1	Klebsiella pneumoniae	186
QYG27484.1	Klebsiella pneumoniae	202
QYI34934.1	Klebsiella pneumoniae	202
QYF15272.1	Klebsiella pneumoniae	202
QYF20911.1	Klebsiella pneumoniae	202
QYF26517.1	Klebsiella pneumoniae	202
QYD22306.1	Klebsiella quasipneumoniae	202
QXW40411.1	Klebsiella grimontii	201
QXW42580.1	Klebsiella grimontii	202
QXW58342.1	Klebsiella pneumoniae	202
QXW66528.1	Klebsiella pneumoniae	202
QXW87280.1	Klebsiella pneumoniae subsp. pneumoniae	202
QXX02647.1	Klebsiella variicola	202
QXT64559.1	Klebsiella pneumoniae subsp. pneumoniae	202
QXT70732.1	Klebsiella pneumoniae subsp. pneumoniae	202
QXT78023.1	Klebsiella pneumoniae subsp. pneumoniae	202
QXT83646.1	Klebsiella pneumoniae subsp. pneumoniae	202
QXT85895.1	Klebsiella pneumoniae subsp. pneumoniae	202
QXT89209.1	Klebsiella pneumoniae subsp. pneumoniae	202
QXT92778.1	Klebsiella pneumoniae subsp. pneumoniae	202
QXT99989.1	Klebsiella pneumoniae subsp. pneumoniae	202
QXU05294.1	Klebsiella pneumoniae subsp. pneumoniae	202
QXU10656.1	Klebsiella pneumoniae subsp. pneumoniae	202
QXU15982.1	Klebsiella pneumoniae subsp. pneumoniae	202
QXU18224.1	Klebsiella pneumoniae subsp. pneumoniae	202
QXU21527.1	Klebsiella pneumoniae subsp. pneumoniae	202
QXU27249.1	Klebsiella pneumoniae subsp. pneumoniae	202
QXU32171.1	Klebsiella pneumoniae subsp. pneumoniae	202
QXU37472.1	Klebsiella pneumoniae subsp. pneumoniae	202
QTP41098.1	Klebsiella grimontii	201
QTP47112.1	Klebsiella grimontii	201
QWW10855.1	Klebsiella pneumoniae	202
QXQ38244.1	Klebsiella pneumoniae subsp. pneumoniae	202
QXQ41409.1	Klebsiella pneumoniae subsp. pneumoniae	202
QXQ49702.1	Klebsiella pneumoniae subsp. pneumoniae	202
QXQ52679.1	Klebsiella pneumoniae subsp. pneumoniae	202
QXQ60090.1	Klebsiella pneumoniae subsp. pneumoniae	202
QXQ65621.1	Klebsiella pneumoniae subsp. pneumoniae	202
QXQ71480.1	Klebsiella pneumoniae subsp. pneumoniae	202
QXQ76942.1	Klebsiella pneumoniae subsp. pneumoniae	202
QXQ81877.1	Klebsiella pneumoniae subsp. pneumoniae	202
QXQ84163.1	Klebsiella pneumoniae subsp. pneumoniae	202
QXQ87460.1	Klebsiella pneumoniae subsp. pneumoniae	202
QXQ92761.1	Klebsiella pneumoniae subsp. pneumoniae	202
QXR15647.1	Klebsiella pneumoniae	202
QXN97654.1	Klebsiella variicola	202
QXG66148.1	Klebsiella pneumoniae	202
QXG71919.1	Klebsiella pneumoniae	202
QXA82547.1	Klebsiella quasipneumoniae	202
QWZ03306.1	Klebsiella pneumoniae	202
QLA28039.1	Klebsiella pneumoniae	202
QWS95936.1	Klebsiella pneumoniae	202
QWS97022.1	Klebsiella pneumoniae	202
QWT01052.1	Klebsiella pneumoniae	202
QWT02091.1	Klebsiella pneumoniae	202
QWT06131.1	Klebsiella pneumoniae	202
QWT07153.1	Klebsiella pneumoniae	202
QWN50801.1	Klebsiella pneumoniae	202
QWC25437.1	Klebsiella pneumoniae	202
QWA85019.1	Klebsiella pneumoniae	202
QWA91754.1	Klebsiella michiganensis	202
QWA93375.1	Klebsiella quasipneumoniae	202
QWB02299.1	Klebsiella pneumoniae	202
QWB47057.1	Klebsiella pneumoniae subsp. pneumoniae	202
QVW13344.1	Klebsiella pneumoniae	202
QVW18850.1	Klebsiella pneumoniae	202
QVU31968.1	Klebsiella pneumoniae	202
QVU37477.1	Klebsiella pneumoniae	202
QVR56327.1	Klebsiella pneumoniae	202
QVQ87023.1	Klebsiella pneumoniae	202
QVQ91057.1	Klebsiella pneumoniae	202
QVQ98086.1	Klebsiella pneumoniae	202
QVR03735.1	Klebsiella pneumoniae	202
QVR09133.1	Klebsiella pneumoniae	202
QVR14773.1	Klebsiella pneumoniae	202
QVR20050.1	Klebsiella pneumoniae	202
QVR25529.1	Klebsiella pneumoniae	202
QVR31153.1	Klebsiella pneumoniae	202
QVR36648.1	Klebsiella pneumoniae	202
QVK26028.1	Klebsiella pneumoniae	202
QIR44436.1	Klebsiella pneumoniae	202
QIR52051.1	Klebsiella pneumoniae	202
QIR57271.1	Klebsiella pneumoniae	202
QUY22393.1	Klebsiella pneumoniae	202
QUY27725.1	Klebsiella pneumoniae	202
QUY30460.1	Klebsiella pneumoniae	202
QQO68271.1	Klebsiella michiganensis	202
QUX10361.1	Klebsiella pneumoniae subsp. pneumoniae	202
QUX15684.1	Klebsiella pneumoniae	202
QUW71711.1	Klebsiella pneumoniae subsp. pneumoniae	202
QUR75785.1	Klebsiella pneumoniae	202
QUR79041.1	Klebsiella pneumoniae	202
QUS09636.1	Klebsiella pneumoniae	202
QUN63382.1	Klebsiella quasipneumoniae	202
QLI88843.1	Klebsiella pneumoniae	202
QUJ61958.1	Klebsiella sp. P1954	202
QUL20961.1	Klebsiella sp. P1927	202
QUG37808.1	Klebsiella pneumoniae	202
QUF91004.1	Klebsiella pneumoniae	202
QUF96320.1	Klebsiella pneumoniae	202
QUG02804.1	Klebsiella pneumoniae subsp. ozaenae	202
QOT95105.1	Klebsiella pneumoniae	202
QUC41055.1	Klebsiella pneumoniae	202
QUC46647.1	Klebsiella pneumoniae	202
QTY12271.1	Klebsiella pneumoniae	202
QTX37093.1	Klebsiella pneumoniae	202
QTV84423.1	Klebsiella oxytoca	202
QTT64777.1	Klebsiella pneumoniae	202
QTT70487.1	Klebsiella pneumoniae	202
QTQ20421.1	Klebsiella pneumoniae	202
QTQ25388.1	Klebsiella pneumoniae	202
QSI37022.1	Klebsiella pneumoniae	202
QTO69128.1	Klebsiella pneumoniae	202
QTO88309.1	Klebsiella pneumoniae	202
QTN51258.1	Klebsiella michiganensis	202
QTO14042.1	Klebsiella pneumoniae	202
QTL16414.1	Klebsiella pneumoniae	202
QTL21492.1	Klebsiella pneumoniae	202
QTL26624.1	Klebsiella pneumoniae	202
QTL31766.1	Klebsiella pneumoniae	202
QTL44980.1	Klebsiella quasipneumoniae	202
QTL60648.1	Klebsiella pneumoniae	202
QTL64015.1	Klebsiella pneumoniae	202
QTL72989.1	Klebsiella pneumoniae	202
QTH52442.1	Klebsiella michiganensis	202
QTH76908.1	Klebsiella variicola	202
QTI06700.1	Klebsiella pneumoniae	202
QTI11892.1	Klebsiella variicola	202
WP_136029194.1	Klebsiella africana	202
QSW31579.1	Klebsiella pneumoniae	202
QRZ79607.1	Klebsiella quasipneumoniae	202
QRZ84067.1	Klebsiella quasipneumoniae	202
QST12744.1	Klebsiella pneumoniae	202
QSR93028.1	Klebsiella pneumoniae	202
QSR98529.1	Klebsiella pneumoniae	202
QSS02066.1	Klebsiella pneumoniae	202
QSS09100.1	Klebsiella pneumoniae	202
QSS14725.1	Klebsiella pneumoniae	202
QSS20232.1	Klebsiella pneumoniae	202
QSS25468.1	Klebsiella pneumoniae	202
QSS29068.1	Klebsiella pneumoniae	202
QSS41194.1	Klebsiella oxytoca	202
QSQ75567.1	Klebsiella pneumoniae	202
QSN72060.1	Klebsiella pneumoniae	202
QRC15386.1	Klebsiella pneumoniae	202
QRC20561.1	Klebsiella pneumoniae	202
QRD11199.1	Klebsiella pneumoniae	202
QRD25730.1	Klebsiella pneumoniae	202
QSI50879.1	Klebsiella pneumoniae	202
QSI56195.1	Klebsiella pneumoniae	202
QSI61760.1	Klebsiella pneumoniae	202
QSI67360.1	Klebsiella pneumoniae	202
QSF17056.1	Klebsiella pneumoniae	202
QSF60250.1	Klebsiella pneumoniae	202
AYQ62357.1	Klebsiella pneumoniae	202
QSD82690.1	Klebsiella pneumoniae	202
QRZ66374.1	Klebsiella quasipneumoniae	202
QRZ70851.1	Klebsiella quasipneumoniae	202
QSA24080.1	Klebsiella pneumoniae	202
QSA29218.1	Klebsiella pneumoniae	202
QSA34358.1	Klebsiella pneumoniae	202
QSA39522.1	Klebsiella quasipneumoniae	202
QSA44714.1	Klebsiella pneumoniae	202
QSA49861.1	Klebsiella pneumoniae	202
QSA55410.1	Klebsiella quasipneumoniae	202
QSA60600.1	Klebsiella pneumoniae	202
QSA65722.1	Klebsiella pneumoniae	202
QSA70886.1	Klebsiella quasipneumoniae	202
QSA76076.1	Klebsiella pneumoniae	202
QSA81195.1	Klebsiella pneumoniae	202
WP_149410329.1	Enterobacteriaceae	202
QRR45336.1	Klebsiella pneumoniae	202
QRR55227.1	Klebsiella pneumoniae	202
QRR63989.1	Klebsiella pneumoniae	202
QRR75123.1	Klebsiella pneumoniae	202
QRR79093.1	Klebsiella pneumoniae	202
QRR81408.1	Klebsiella pneumoniae	202
QRR89581.1	Klebsiella pneumoniae	202
QRS08750.1	Klebsiella pneumoniae	202
QRS17042.1	Klebsiella oxytoca	202
QRS24782.1	Klebsiella pneumoniae	202
QRS30934.1	Klebsiella pneumoniae	202
QRS33501.1	Klebsiella pneumoniae	202
QRS33703.1	Klebsiella pneumoniae	202
QRS33714.1	Klebsiella pneumoniae	202
QRS37531.1	Klebsiella pneumoniae	202
QRS39573.1	Klebsiella pneumoniae	202
QRS57524.1	Klebsiella pneumoniae	202
QRS62197.1	Klebsiella oxytoca	202
QRS68766.1	Klebsiella pneumoniae	202
QRS75186.1	Klebsiella pneumoniae	202
QRS81092.1	Klebsiella pneumoniae	202
QRT03764.1	Klebsiella pneumoniae	202
QRT09066.1	Klebsiella pneumoniae	202
QRT27090.1	Klebsiella pneumoniae	202
QRT39763.1	Klebsiella pneumoniae	202
QRT52910.1	Klebsiella oxytoca	202
QRT65238.1	Klebsiella pneumoniae	202
QRU00370.1	Klebsiella pneumoniae	202
QRU18273.1	Klebsiella pneumoniae	202
QRU34374.1	Klebsiella pneumoniae	202
QRU51702.1	Klebsiella oxytoca	202
QRU77474.1	Klebsiella pneumoniae	202
QRU82372.1	Klebsiella pneumoniae	202
QRG90236.1	Klebsiella pneumoniae	202
QRF13403.1	Klebsiella africana	202
QRF25836.1	Klebsiella pneumoniae	202
QQZ99382.1	Klebsiella pneumoniae subsp. pneumoniae	202
QRA03460.1	Klebsiella pneumoniae subsp. pneumoniae	202
QQZ77951.1	Klebsiella pneumoniae	202
QQZ83266.1	Klebsiella pneumoniae	202
QQZ88700.1	Klebsiella pneumoniae	202
QQX97002.1	Klebsiella quasipneumoniae	202
WP_001493056.1	Enterobacterales	202
QQU35052.1	Klebsiella pneumoniae	202
QQQ56340.1	Klebsiella pneumoniae	202
QQQ21218.1	Klebsiella grimontii	201
QQO28979.1	Klebsiella michiganensis	201
QQM68810.1	Klebsiella pneumoniae	202
QQM80307.1	Klebsiella quasipneumoniae	202
QQM80312.1	Klebsiella quasipneumoniae	202
QQM86006.1	Klebsiella variicola	202
QQM86373.1	Klebsiella variicola	202
QQL17804.1	Klebsiella pneumoniae	202
QQL23415.1	Klebsiella pneumoniae	202
QQL28925.1	Klebsiella pneumoniae	202
QQL32975.1	Klebsiella pneumoniae	202
QQL38254.1	Klebsiella pneumoniae	202
QQE22080.1	Klebsiella pneumoniae	202
QQE27628.1	Klebsiella pneumoniae	202
QQD69500.1	Klebsiella quasipneumoniae	202
WP_071010309.1	Klebsiella	202
QPP61279.1	Klebsiella pneumoniae	202
QPV82836.1	Klebsiella quasipneumoniae	202
QPV87920.1	Klebsiella quasipneumoniae	202
QPV92914.1	Klebsiella pneumoniae	202
QPV98307.1	Klebsiella pneumoniae	202
QPW03481.1	Klebsiella pneumoniae	202
QPW08592.1	Klebsiella quasipneumoniae	202
QPW33900.1	Klebsiella pneumoniae subsp. pneumoniae ATCC 43816	202
QPQ12074.1	Klebsiella michiganensis	201
QPQ47648.1	Klebsiella pneumoniae	202
QPP53104.1	Klebsiella pneumoniae	202
QPP63891.1	Klebsiella pneumoniae	202
QPP71204.1	Klebsiella pneumoniae	202
QPP74847.1	Klebsiella pneumoniae	202
QPP80854.1	Klebsiella pneumoniae	202
QPP85822.1	Klebsiella quasipneumoniae	202
QPP91023.1	Klebsiella pneumoniae	202
QPP95605.1	Klebsiella pneumoniae	202
QPQ01713.1	Klebsiella pneumoniae	202
QPO30555.1	Klebsiella pneumoniae	202
QPO36215.1	Klebsiella pneumoniae	202
QPN09573.1	Klebsiella pneumoniae	202
QPM47835.1	Klebsiella pneumoniae	202
QPM51421.1	Klebsiella pneumoniae	202
QPM56697.1	Klebsiella pneumoniae	202
QPM63509.1	Klebsiella pneumoniae	202
QPJ06681.1	Klebsiella variicola	202
QPJ12426.1	Klebsiella pneumoniae	202
QPJ18130.1	Klebsiella pneumoniae	202
QPD77205.1	Klebsiella pneumoniae	202
QPD93361.1	Klebsiella pneumoniae subsp. pneumoniae	202
QPG80553.1	Klebsiella pneumoniae	202
QPF26850.1	Klebsiella sp. BDA134-6	201
QPB26313.1	Klebsiella pneumoniae	202
QOY82589.1	Klebsiella pneumoniae	202
QOX14237.1	Klebsiella pneumoniae	202
QOX90490.1	Klebsiella pneumoniae	202
QOX96247.1	Klebsiella pneumoniae	202
QOY01975.1	Klebsiella pneumoniae	202
QOY07719.1	Klebsiella pneumoniae	202
QOW57502.1	Klebsiella pneumoniae	202
QOV74615.1	Klebsiella pneumoniae	202
QOV59357.1	Klebsiella variicola	202
QOS08617.1	Klebsiella pneumoniae subsp. pneumoniae	202
QOU26404.1	Klebsiella pneumoniae	202
QOU36828.1	Klebsiella pneumoniae	202
QOU42303.1	Klebsiella pneumoniae	202
QOU47557.1	Klebsiella pneumoniae	202
QOU52707.1	Klebsiella pneumoniae	202
QOU58052.1	Klebsiella pneumoniae	202
QOU63201.1	Klebsiella pneumoniae	202
QOU68653.1	Klebsiella pneumoniae	202
QOU79552.1	Klebsiella pneumoniae	202
QOR80477.1	Klebsiella pneumoniae	202
QOQ40828.1	Klebsiella pneumoniae	202
QOQ48307.1	Klebsiella pneumoniae	202
WP_160743074.1	Klebsiella	201
BBV59205.1	Klebsiella quasipneumoniae	202
BBW54617.1	Klebsiella pneumoniae	202
BBW74639.1	Klebsiella michiganensis	202
BBW84991.1	Klebsiella pneumoniae	202
QOF55494.1	Klebsiella quasipneumoniae	202
QOE98512.1	Klebsiella pneumoniae	202
QOE72203.1	Klebsiella pneumoniae	202
QOC84749.1	Klebsiella pneumoniae	202
QOC33660.1	Klebsiella pneumoniae	202
QOC37485.1	Klebsiella pneumoniae	202
QOC51875.1	Klebsiella pneumoniae	202
QNU72049.1	Klebsiella pneumoniae	202
QNU73903.1	Klebsiella pneumoniae	202
QNU77456.1	Klebsiella pneumoniae	202
QNU82806.1	Klebsiella pneumoniae	202
QNU88574.1	Klebsiella pneumoniae	202
QNU94097.1	Klebsiella pneumoniae	202
QNU99391.1	Klebsiella pneumoniae	202
QNR14923.1	Klebsiella pneumoniae	202
QNP25611.1	Klebsiella variicola	202
QIS57168.1	Klebsiella pneumoniae	202
QNN11174.1	Klebsiella pneumoniae	202
QNK96012.1	Klebsiella pneumoniae	202
QHJ17951.1	Klebsiella pneumoniae subsp. pneumoniae	202
QHJ23020.1	Klebsiella pneumoniae subsp. pneumoniae	202
QNE52196.1	Klebsiella michiganensis	202
QNC77818.1	Klebsiella quasipneumoniae	202
QNC82773.1	Klebsiella quasipneumoniae	202
QND02751.1	Klebsiella pneumoniae	202
QNB28385.1	Klebsiella pneumoniae	202
QNB32295.1	Klebsiella pneumoniae	202
QMW59005.1	Klebsiella pneumoniae subsp. pneumoniae	202
WP_181486752.1	Klebsiella pneumoniae	202
QMV56141.1	Klebsiella pneumoniae	202
VEC02601.1	Klebsiella pneumoniae	202
VEC25433.1	Klebsiella pneumoniae	202
WP_181244170.1	Klebsiella pneumoniae	202
QMS72639.1	Klebsiella pneumoniae	202
QMR55458.1	Klebsiella michiganensis	201
QMR67957.1	Klebsiella grimontii	201
QLQ70645.1	Klebsiella pneumoniae	202
QLQ75923.1	Klebsiella pneumoniae	202
BBQ14861.1	Klebsiella pneumoniae	202
BBQ66049.1	Klebsiella quasipneumoniae	202
BBR13609.1	Klebsiella quasipneumoniae	202
BBR76243.1	Klebsiella pneumoniae	202
BBR81803.1	Klebsiella quasipneumoniae	202
BBS20310.1	Klebsiella quasipneumoniae	202
BBS40709.1	Klebsiella pneumoniae	202
BBS49243.1	Klebsiella quasipneumoniae	202
BBS51304.1	Klebsiella pneumoniae	202
BBS80862.1	Klebsiella quasipneumoniae	202
BBS84879.1	Klebsiella quasipneumoniae	202
QLG14402.1	Klebsiella pneumoniae	202
QLI07150.1	Klebsiella pneumoniae	202
QLI12644.1	Klebsiella pneumoniae	202
QLI18096.1	Klebsiella pneumoniae	202
QLI23581.1	Klebsiella pneumoniae	202
QLI28939.1	Klebsiella pneumoniae	202
WP_008806369.1	Klebsiella	202
QLF59946.1	Klebsiella pneumoniae	202
QLF62633.1	Klebsiella pneumoniae	202
WP_048986771.1	Klebsiella	202
WP_154914411.1	Klebsiella michiganensis	202
WP_155007314.1	Klebsiella variicola	202
QLB69108.1	Klebsiella pneumoniae	202
QLB74445.1	Klebsiella pneumoniae	202
QLB79774.1	Klebsiella pneumoniae	202
QLB85113.1	Klebsiella pneumoniae	202
QLB90450.1	Klebsiella pneumoniae	202
QLB97534.1	Klebsiella pneumoniae	202
QLC00945.1	Klebsiella pneumoniae	202
QLC06354.1	Klebsiella pneumoniae	202
QLC11694.1	Klebsiella pneumoniae	202
QLB29225.1	Klebsiella pneumoniae	202
QLA32182.1	Klebsiella pneumoniae	202
QLA37303.1	Klebsiella pneumoniae	202
QKY98044.1	Klebsiella pneumoniae	202
BBJ79105.1	Klebsiella pneumoniae	202
QKK53348.1	Klebsiella variicola	202
QKK62793.1	Klebsiella pneumoniae	202
QKJ43308.1	Klebsiella pneumoniae	202
QKJ56743.1	Klebsiella michiganensis	202
QKI43658.1	Klebsiella pneumoniae	202
WP_171482683.1	Klebsiella pneumoniae	202
WP_171877504.1	Klebsiella pneumoniae	197
WP_171890490.1	Klebsiella pneumoniae	202
QKE14460.1	Klebsiella pneumoniae	202
QJI93890.1	Klebsiella pneumoniae	202
QJI99434.1	Klebsiella pneumoniae	202
QJJ04727.1	Klebsiella pneumoniae	202
QJJ10038.1	Klebsiella pneumoniae	202
QJJ15301.1	Klebsiella pneumoniae	202
QJJ20903.1	Klebsiella pneumoniae	202
QJJ26030.1	Klebsiella pneumoniae	202
QJJ32674.1	Klebsiella pneumoniae	202
QJJ36469.1	Klebsiella pneumoniae	202
QJJ41987.1	Klebsiella pneumoniae	202
QJJ47715.1	Klebsiella pneumoniae	202
QJJ52555.1	Klebsiella pneumoniae	202
QJJ57776.1	Klebsiella pneumoniae	202
QJJ63006.1	Klebsiella pneumoniae	202
QJJ71764.1	Klebsiella pneumoniae	202
QJJ73848.1	Klebsiella pneumoniae	202
QJJ80425.1	Klebsiella pneumoniae	202
QJJ84407.1	Klebsiella pneumoniae	202
QJJ89501.1	Klebsiella pneumoniae	202
QJJ94785.1	Klebsiella pneumoniae	202
QJK00111.1	Klebsiella pneumoniae	202
QJK05804.1	Klebsiella pneumoniae	202
QJK10776.1	Klebsiella pneumoniae	202
QJK16107.1	Klebsiella pneumoniae	202
QJK21328.1	Klebsiella pneumoniae	202
QJK26974.1	Klebsiella pneumoniae	202
QJK32354.1	Klebsiella pneumoniae	202
QJK39181.1	Klebsiella pneumoniae	202
QJK42872.1	Klebsiella pneumoniae	202
QJK48453.1	Klebsiella pneumoniae	202
QJK58677.1	Klebsiella pneumoniae	202
QJK64048.1	Klebsiella pneumoniae	202
QJK69383.1	Klebsiella pneumoniae	202
QJK79635.1	Klebsiella pneumoniae	202
QJK90259.1	Klebsiella pneumoniae	202
QJK95515.1	Klebsiella pneumoniae	202
QJL00629.1	Klebsiella pneumoniae	202
QJL08698.1	Klebsiella pneumoniae	202
QJL11224.1	Klebsiella pneumoniae	202
QJL16872.1	Klebsiella pneumoniae	202
QJL22422.1	Klebsiella pneumoniae	202
QJL27811.1	Klebsiella pneumoniae	202
QJL33242.1	Klebsiella pneumoniae	202
QJL38495.1	Klebsiella pneumoniae	202
QJL43570.1	Klebsiella pneumoniae	202
QJL49318.1	Klebsiella pneumoniae	202
QJL54843.1	Klebsiella pneumoniae	202
QJL60112.1	Klebsiella pneumoniae	202
QJL65431.1	Klebsiella pneumoniae	202
QJL70810.1	Klebsiella pneumoniae	202
QJL76267.1	Klebsiella pneumoniae	202
QJL81597.1	Klebsiella pneumoniae	202
QJL87008.1	Klebsiella pneumoniae	202
QJL92292.1	Klebsiella pneumoniae	202
QJL97840.1	Klebsiella pneumoniae	202
QJM02414.1	Klebsiella pneumoniae	202
QJM03400.1	Klebsiella pneumoniae	202
QJM08770.1	Klebsiella pneumoniae	202
QJM14560.1	Klebsiella pneumoniae	202
QJM19870.1	Klebsiella pneumoniae	202
QJM25195.1	Klebsiella pneumoniae	202
QJM30587.1	Klebsiella pneumoniae	202
QJM35683.1	Klebsiella pneumoniae	202
QJM41041.1	Klebsiella pneumoniae	202
QJM46300.1	Klebsiella pneumoniae	202
QJM51565.1	Klebsiella pneumoniae	202
QJM56687.1	Klebsiella pneumoniae	202
QJM65964.1	Klebsiella pneumoniae	202
QJM74616.1	Klebsiella pneumoniae	202
QJM76700.1	Klebsiella pneumoniae	202
QJM82050.1	Klebsiella pneumoniae	202
QJM87679.1	Klebsiella pneumoniae	202
QJM93280.1	Klebsiella pneumoniae	202
QJM98895.1	Klebsiella pneumoniae	202
QJN06335.1	Klebsiella pneumoniae	202
QJN09804.1	Klebsiella pneumoniae	202
QJN15213.1	Klebsiella pneumoniae	202
QJN20719.1	Klebsiella pneumoniae	202
QJN26192.1	Klebsiella pneumoniae	202
QJN34762.1	Klebsiella pneumoniae	202
QJN39928.1	Klebsiella pneumoniae	202
QJN42399.1	Klebsiella pneumoniae	202
QJN48182.1	Klebsiella pneumoniae	202
QJN53400.1	Klebsiella pneumoniae	202
QJN58923.1	Klebsiella pneumoniae	202
QJN64240.1	Klebsiella pneumoniae	202
QJN69509.1	Klebsiella pneumoniae	202
QJN74722.1	Klebsiella pneumoniae	202
QJN81493.1	Klebsiella pneumoniae	202
QJN85425.1	Klebsiella pneumoniae	202
QJN90604.1	Klebsiella pneumoniae	202
QJN96119.1	Klebsiella pneumoniae	202
QJO01653.1	Klebsiella pneumoniae	202
QJO06934.1	Klebsiella pneumoniae	202
QJO12423.1	Klebsiella pneumoniae	202
QJO17724.1	Klebsiella pneumoniae	202
QJO22995.1	Klebsiella pneumoniae	202
QJO29068.1	Klebsiella pneumoniae	202
QJO33449.1	Klebsiella pneumoniae	202
QJO40342.1	Klebsiella pneumoniae	202
QJO44142.1	Klebsiella pneumoniae	202
QJO49678.1	Klebsiella pneumoniae	202
QJO54903.1	Klebsiella pneumoniae	202
QJO60409.1	Klebsiella pneumoniae	202
QJO65667.1	Klebsiella pneumoniae	202
QJO71070.1	Klebsiella pneumoniae	202
QJO76599.1	Klebsiella pneumoniae	202
QJO82015.1	Klebsiella pneumoniae	202
QJO87505.1	Klebsiella pneumoniae	202
QJO92393.1	Klebsiella pneumoniae	202
QJO98094.1	Klebsiella pneumoniae	202
QJI57756.1	Klebsiella pneumoniae	202
WP_167801636.1	Klebsiella pneumoniae	202
QIX69843.1	Klebsiella variicola	202
QIV48899.1	Klebsiella pneumoniae	202
QIV30447.1	Klebsiella pneumoniae	202
QIV32837.1	Klebsiella pneumoniae	202
QIV38023.1	Klebsiella pneumoniae	202
QIV43222.1	Klebsiella pneumoniae	202
QIV53981.1	Klebsiella pneumoniae	202
QIU98419.1	Klebsiella pneumoniae	202
QIV03498.1	Klebsiella pneumoniae	202
QIV08647.1	Klebsiella pneumoniae	202
WP_163624551.1	Klebsiella pneumoniae	202
QIS49978.1	Klebsiella variicola	202
QIQ79566.1	Klebsiella pneumoniae	202
QIQ84513.1	Klebsiella pneumoniae	202
QIQ90417.1	Klebsiella pneumoniae	202
QIJ10084.1	Klebsiella pneumoniae	202
QIJ13119.1	Klebsiella pneumoniae	202
QIJ18726.1	Klebsiella pneumoniae	202
QIJ33808.1	Klebsiella pneumoniae	202
QII56512.1	Klebsiella pneumoniae	202
QIH57017.1	Klebsiella pneumoniae	202
QIF51136.1	Klebsiella pneumoniae	202
QIF86389.1	Klebsiella pneumoniae	202
QID60479.1	Klebsiella pneumoniae	202
QID66202.1	Klebsiella pneumoniae	202
QID27629.1	Klebsiella pneumoniae	202
QIA81647.1	Klebsiella pneumoniae	202
QIA83601.1	Klebsiella pneumoniae	202
QIA13932.1	Klebsiella pneumoniae	202
QER80488.1	Klebsiella pneumoniae	202
QHW95674.1	Klebsiella variicola	202
QHS48938.1	Klebsiella michiganensis	201
QHQ45777.1	Klebsiella pneumoniae	202
WP_159144677.1	Klebsiella pneumoniae	193
WP_159174850.1	Klebsiella pneumoniae	202
WP_159192542.1	Klebsiella pneumoniae	202
WP_159192837.1	Klebsiella pneumoniae	202
QHI86182.1	Klebsiella sp. MPUS7	201
QHD73535.1	Klebsiella pneumoniae	202
WP_157261956.1	Klebsiella michiganensis	201
QHB94831.1	Klebsiella pneumoniae	202
QGZ76190.1	Klebsiella pneumoniae	202
QGZ81682.1	Klebsiella pneumoniae	202
QGW90351.1	Klebsiella pneumoniae	202
QGW00794.1	Klebsiella pneumoniae	202
QGT62994.1	Klebsiella pneumoniae	202
QGQ08428.1	Klebsiella pneumoniae	202
WP_154681875.1	Klebsiella oxytoca	202
QGN39572.1	Klebsiella oxytoca	202
AST72781.1	Klebsiella pneumoniae subsp. pneumoniae	202
WP_153650512.1	Klebsiella quasipneumoniae	202
WP_153679792.1	Klebsiella quasipneumoniae	202
QGG23502.1	Klebsiella variicola	202
QGG28869.1	Klebsiella pneumoniae	202
QGA60026.1	Klebsiella pneumoniae	202
QGA01610.1	Klebsiella pneumoniae	202
QFZ67859.1	Klebsiella quasipneumoniae	202
WP_004105354.1	Klebsiella	202
KAB7899116.1	Klebsiella pneumoniae	202
KAB7902357.1	Klebsiella pneumoniae	202
KAB7909702.1	Klebsiella pneumoniae	202
KAB7917470.1	Klebsiella pneumoniae	202
KAB7920883.1	Klebsiella pneumoniae	202
KAB7927980.1	Klebsiella pneumoniae	202
KAB7935747.1	Klebsiella pneumoniae	202
KAB7940462.1	Klebsiella pneumoniae	202
KAB7941952.1	Klebsiella pneumoniae	202
KAB7942037.1	Klebsiella pneumoniae	202
KAB7953849.1	Klebsiella pneumoniae	202
KAB7956918.1	Klebsiella pneumoniae	202
KAB7963823.1	Klebsiella pneumoniae	202
KAB7967767.1	Klebsiella pneumoniae	202
KAB7976368.1	Klebsiella pneumoniae	202
KAB7981653.1	Klebsiella pneumoniae	202
KAB7982614.1	Klebsiella pneumoniae	202
KAB7989666.1	Klebsiella pneumoniae	202
KAB7992698.1	Klebsiella pneumoniae	202
KAB7998502.1	Klebsiella pneumoniae	202
KAB8002241.1	Klebsiella pneumoniae	202
KAB8012026.1	Klebsiella pneumoniae	202
KAB8017318.1	Klebsiella pneumoniae	202
KAB8021820.1	Klebsiella pneumoniae	202
KAB8031627.1	Klebsiella pneumoniae	202
KAB8037233.1	Klebsiella pneumoniae	202
KAB8053637.1	Klebsiella pneumoniae	202
KAB7747612.1	Klebsiella pneumoniae	202
WP_014839453.1	Klebsiella	202
KAB7524961.1	Klebsiella pneumoniae	202
KAB7535855.1	Klebsiella pneumoniae	202
KAB7543230.1	Klebsiella pneumoniae	202
KAB7553559.1	Klebsiella pneumoniae	202
KAB7734560.1	Klebsiella pneumoniae	202
KAB7493224.1	Klebsiella michiganensis	202
WP_151437069.1	Klebsiella pneumoniae	202
KAB5489060.1	Klebsiella sp. RCJ4	202
QFH42730.1	Klebsiella pneumoniae	202
QFH94149.1	Klebsiella pneumoniae	202
QFI04340.1	Klebsiella michiganensis	202
KAB2317412.1	Klebsiella pneumoniae	202
KAB2320762.1	Klebsiella quasipneumoniae	202
KAB1683170.1	Klebsiella pneumoniae	202
KAB1687704.1	Klebsiella pneumoniae	202
KAB1688261.1	Klebsiella pneumoniae	202
KAB1699954.1	Klebsiella pneumoniae	202
KAB1702537.1	Klebsiella pneumoniae	202
KAB1705321.1	Klebsiella pneumoniae	202
KAB1715904.1	Klebsiella pneumoniae	202
KAB1716701.1	Klebsiella pneumoniae	202
KAB1723397.1	Klebsiella pneumoniae	202
KAB1730734.1	Klebsiella pneumoniae	202
KAB1733655.1	Klebsiella pneumoniae	202
KAB1737986.1	Klebsiella pneumoniae	202
KAB1742117.1	Klebsiella pneumoniae	202
KAB1751298.1	Klebsiella pneumoniae	202
KAB1757873.1	Klebsiella pneumoniae	202
KAB1759550.1	Klebsiella pneumoniae	202
KAB1765442.1	Klebsiella pneumoniae	202
KAB1772208.1	Klebsiella pneumoniae	202
KAB1783247.1	Klebsiella pneumoniae	202
KAB1783455.1	Klebsiella pneumoniae	202
KAB1788690.1	Klebsiella pneumoniae	202
KAB1793286.1	Klebsiella pneumoniae	202
KAB1795860.1	Klebsiella pneumoniae	202
KAB1797711.1	Klebsiella pneumoniae	202
KAB1811766.1	Klebsiella pneumoniae	202
KAB1817194.1	Klebsiella pneumoniae	202
KAB1818357.1	Klebsiella pneumoniae	202
KAB1829971.1	Klebsiella pneumoniae	202
KAB1830430.1	Klebsiella pneumoniae	202
KAB1839051.1	Klebsiella pneumoniae	202
KAB1839229.1	Klebsiella pneumoniae	202
KAB1844328.1	Klebsiella pneumoniae	202
KAB1859107.1	Klebsiella pneumoniae	202
KAB1865590.1	Klebsiella pneumoniae	202
KAB1868992.1	Klebsiella pneumoniae	202
KAB1875703.1	Klebsiella pneumoniae	202
KAB1884860.1	Klebsiella pneumoniae	202
KAB1514203.1	Klebsiella pneumoniae	202
KAB1516295.1	Klebsiella pneumoniae	202
KAB1522885.1	Klebsiella pneumoniae	202
KAB1531009.1	Klebsiella pneumoniae	202
KAB1534706.1	Klebsiella pneumoniae	202
KAB1537216.1	Klebsiella pneumoniae	202
KAB1544268.1	Klebsiella pneumoniae	202
KAB1550375.1	Klebsiella pneumoniae	202
KAB1561047.1	Klebsiella pneumoniae	202
KAB1569011.1	Klebsiella pneumoniae	202
KAB1573420.1	Klebsiella pneumoniae	202
KAB0283715.1	Klebsiella pneumoniae	202
KAB0296200.1	Klebsiella pneumoniae	202
KAB0296964.1	Klebsiella pneumoniae	202
KAB0308273.1	Klebsiella pneumoniae	202
KAB0313724.1	Klebsiella pneumoniae	202
KAB0327900.1	Klebsiella pneumoniae	202
KAB0332653.1	Klebsiella pneumoniae	202
QEW90244.1	Klebsiella pneumoniae	202
QEX40715.1	Klebsiella pneumoniae	202
KAA8841045.1	Klebsiella pneumoniae	202
KAA8842221.1	Klebsiella pneumoniae	202
KAA8843898.1	Klebsiella pneumoniae	202
KAA8853319.1	Klebsiella pneumoniae	202
KAA8857116.1	Klebsiella pneumoniae	202
KAA8865705.1	Klebsiella pneumoniae	202
KAA8868517.1	Klebsiella pneumoniae	202
KAA8872729.1	Klebsiella pneumoniae	202
KAA8881068.1	Klebsiella pneumoniae	202
QET11438.1	Klebsiella pneumoniae	202
QET14188.1	Klebsiella pneumoniae	202
QET21146.1	Klebsiella pneumoniae	202
QET25950.1	Klebsiella variicola	202
QET48384.1	Klebsiella michiganensis	202
QER49637.1	Klebsiella pneumoniae	202
QER52889.1	Klebsiella quasipneumoniae subsp. quasipneumoniae	202
KAA5856690.1	Klebsiella pneumoniae	202
KAA5860764.1	Klebsiella pneumoniae	202
KAA5863535.1	Klebsiella pneumoniae	202
KAA5866105.1	Klebsiella pneumoniae	202
KAA5873460.1	Klebsiella pneumoniae	202
KAA5882683.1	Klebsiella pneumoniae	202
KAA5887368.1	Klebsiella pneumoniae	202
KAA5890284.1	Klebsiella pneumoniae	202
KAA5900752.1	Klebsiella pneumoniae	202
KAA5903104.1	Klebsiella pneumoniae	202
KAA5915184.1	Klebsiella pneumoniae	202
KAA5917526.1	Klebsiella pneumoniae	202
KAA5917832.1	Klebsiella pneumoniae	202
KAA5934977.1	Klebsiella pneumoniae	202
KAA6131799.1	Klebsiella pneumoniae subsp. pneumoniae	202
KAA5650873.1	Klebsiella pneumoniae	202
KAA5684797.1	Klebsiella pneumoniae	202
KAA5693237.1	Klebsiella pneumoniae	202
KAA5701666.1	Klebsiella pneumoniae	202
KAA5708151.1	Klebsiella pneumoniae	202
KAA5715470.1	Klebsiella pneumoniae	202
KAA5716601.1	Klebsiella pneumoniae	202
KAA5723113.1	Klebsiella pneumoniae	202
KAA5735113.1	Klebsiella pneumoniae	202
KAA5741121.1	Klebsiella pneumoniae	202
KAA5741326.1	Klebsiella pneumoniae	202
KAA5759141.1	Klebsiella pneumoniae	202
KAA5767762.1	Klebsiella pneumoniae	202
KAA5771844.1	Klebsiella pneumoniae	202
KAA5790785.1	Klebsiella pneumoniae	202
KAA5792986.1	Klebsiella pneumoniae	202
KAA5818318.1	Klebsiella pneumoniae	202
KAA1485209.1	Klebsiella pneumoniae	202
KAA1488297.1	Klebsiella pneumoniae	202
KAA1494138.1	Klebsiella pneumoniae	202
KAA1504398.1	Klebsiella pneumoniae	202
KAA1509645.1	Klebsiella pneumoniae	202
KAA1512249.1	Klebsiella pneumoniae	202
KAA1516879.1	Klebsiella pneumoniae	202
KAA1526563.1	Klebsiella pneumoniae	202
KAA1529518.1	Klebsiella pneumoniae	202
KAA1530023.1	Klebsiella pneumoniae	202
KAA1537229.1	Klebsiella pneumoniae	202
KAA1537541.1	Klebsiella pneumoniae	202
KAA1546265.1	Klebsiella pneumoniae	202
KAA1554451.1	Klebsiella pneumoniae	202
KAA1555678.1	Klebsiella pneumoniae	202
KAA1562707.1	Klebsiella pneumoniae	202
KAA1573412.1	Klebsiella pneumoniae	202
KAA1576099.1	Klebsiella pneumoniae	202
KAA1583441.1	Klebsiella pneumoniae	202
KAA1584459.1	Klebsiella pneumoniae	202
KAA1589960.1	Klebsiella pneumoniae	202
KAA1600936.1	Klebsiella pneumoniae	202
KAA1604563.1	Klebsiella pneumoniae	202
KAA1605136.1	Klebsiella pneumoniae	202
KAA1613270.1	Klebsiella pneumoniae	202
KAA1614891.1	Klebsiella pneumoniae	202
KAA1621229.1	Klebsiella pneumoniae	202
KAA1626739.1	Klebsiella pneumoniae	202
KAA1630055.1	Klebsiella pneumoniae	202
KAA1637631.1	Klebsiella pneumoniae	202
KAA1644324.1	Klebsiella pneumoniae	202
KAA1646984.1	Klebsiella pneumoniae	202
KAA1653411.1	Klebsiella pneumoniae	202
KAA1660082.1	Klebsiella pneumoniae	202
KAA1664299.1	Klebsiella pneumoniae	202
KAA1671279.1	Klebsiella pneumoniae	202
KAA1674765.1	Klebsiella pneumoniae	202
KAA1680190.1	Klebsiella pneumoniae	202
KAA1686580.1	Klebsiella pneumoniae	202
KAA1691267.1	Klebsiella pneumoniae	202
KAA1692149.1	Klebsiella pneumoniae	202
KAA1701621.1	Klebsiella pneumoniae	202
KAA1707618.1	Klebsiella pneumoniae	202
KAA1713803.1	Klebsiella variicola	202
KAA1727861.1	Klebsiella pneumoniae	202
KAA1729520.1	Klebsiella pneumoniae	202
KAA1731578.1	Klebsiella pneumoniae	202
KAA1743297.1	Klebsiella pneumoniae	202
KAA1746536.1	Klebsiella pneumoniae	202
KAA1746910.1	Klebsiella pneumoniae	202
KAA1754520.1	Klebsiella pneumoniae	202
KAA1755717.1	Klebsiella pneumoniae	202
KAA1770224.1	Klebsiella pneumoniae	202
KAA1770578.1	Klebsiella pneumoniae	202
KAA1780320.1	Klebsiella pneumoniae	202
KAA1782386.1	Klebsiella pneumoniae	202
KAA1782795.1	Klebsiella pneumoniae	202
KAA1791651.1	Klebsiella pneumoniae	202
KAA1794506.1	Klebsiella pneumoniae	202
KAA1801733.1	Klebsiella pneumoniae	202
AVW75254.1	Klebsiella pneumoniae	202
AWA72890.1	Klebsiella pneumoniae	202
KAA1228520.1	Klebsiella pneumoniae	202
QEO69616.1	Klebsiella pneumoniae	202
KAA0474774.1	Klebsiella variicola	202
KAA0486171.1	Klebsiella pneumoniae	202
KAA0489494.1	Klebsiella grimontii	201
AWA10026.1	Klebsiella pneumoniae	202
AWA67090.1	Klebsiella pneumoniae	202
TZE88041.1	Klebsiella pneumoniae	202
TZF03830.1	Klebsiella pneumoniae	202
TZF25259.1	Klebsiella pneumoniae	202
TZF28539.1	Klebsiella pneumoniae	202
TYW65758.1	Klebsiella pneumoniae	202
TYW67325.1	Klebsiella pneumoniae	202
TYW68935.1	Klebsiella pneumoniae	202
TYW92124.1	Klebsiella pneumoniae	202
TYW99132.1	Klebsiella pneumoniae	202
TYX03040.1	Klebsiella pneumoniae	202
TYX07039.1	Klebsiella pneumoniae	202
TYX19698.1	Klebsiella pneumoniae	202
TYX28228.1	Klebsiella pneumoniae	202
TYX34807.1	Klebsiella pneumoniae	202
TYX39262.1	Klebsiella pneumoniae	202
TYX43431.1	Klebsiella pneumoniae	202
TYX50841.1	Klebsiella pneumoniae	202
TYX51381.1	Klebsiella pneumoniae	202
TYX56997.1	Klebsiella pneumoniae	202
TYX68249.1	Klebsiella pneumoniae	202
TYX81070.1	Klebsiella pneumoniae	202
TYX89441.1	Klebsiella pneumoniae	202
TYX97132.1	Klebsiella pneumoniae	202
TYY06712.1	Klebsiella pneumoniae	202
TYY09517.1	Klebsiella pneumoniae	202
TYY16651.1	Klebsiella pneumoniae	202
TYY21006.1	Klebsiella pneumoniae	202
TYY34250.1	Klebsiella pneumoniae	202
TYY45694.1	Klebsiella pneumoniae	202
TYY45951.1	Klebsiella pneumoniae	202
TYY51285.1	Klebsiella pneumoniae	202
TYY57869.1	Klebsiella pneumoniae	202
TYY62538.1	Klebsiella pneumoniae	202
TYY65383.1	Klebsiella pneumoniae	202
TYY75816.1	Klebsiella pneumoniae	202
TYY77571.1	Klebsiella pneumoniae	202
TYY80882.1	Klebsiella pneumoniae	202
TYY87135.1	Klebsiella pneumoniae	202
TYY91987.1	Klebsiella pneumoniae	202
TYZ12373.1	Klebsiella pneumoniae	202
TYZ18619.1	Klebsiella pneumoniae	202
TYZ21261.1	Klebsiella pneumoniae	202
WP_049090264.1	Klebsiella	202
TYR84474.1	Klebsiella pneumoniae	202
TYT03825.1	Klebsiella pneumoniae	202
TYT16135.1	Klebsiella pneumoniae	202
WP_146715824.1	Klebsiella pneumoniae	192
WP_147022405.1	Klebsiella pneumoniae	202
QEI34846.1	Klebsiella pneumoniae	202
QEI50417.1	Klebsiella pneumoniae	202
QEI55300.1	Klebsiella pneumoniae	202
TYL63311.1	Klebsiella variicola	202
TYL81547.1	Klebsiella pneumoniae	202
TYC80613.1	Klebsiella sp. Z2	202
TYD10170.1	Klebsiella pneumoniae	202
TYD12182.1	Klebsiella pneumoniae	202
TYD20618.1	Klebsiella pneumoniae	202
TYD20880.1	Klebsiella pneumoniae	202
TYD31422.1	Klebsiella pneumoniae	202
AVJ58425.1	Klebsiella variicola	202
AVJ63967.1	Klebsiella pneumoniae	202
AWA56108.1	Klebsiella pneumoniae	202
QEG80128.1	Klebsiella pneumoniae	202
AVZ88331.1	Klebsiella pneumoniae subsp. pneumoniae	202
AVZ96808.1	Klebsiella pneumoniae	202
AVZ98307.1	Klebsiella variicola	202
AVZ98634.1	Klebsiella variicola	202
AVZ99717.1	Klebsiella variicola	202
AWA50652.1	Klebsiella pneumoniae subsp. pneumoniae	202
AWL44486.1	Klebsiella pneumoniae subsp. pneumoniae	202
TXB73297.1	Klebsiella pneumoniae	202
TWY44143.1	Klebsiella pneumoniae	202
TWY53262.1	Klebsiella pneumoniae	202
TWY55408.1	Klebsiella pneumoniae	202
TWY64807.1	Klebsiella pneumoniae	202
TWY68583.1	Klebsiella pneumoniae	202
TWY73015.1	Klebsiella pneumoniae	202
TWY78532.1	Klebsiella pneumoniae	202
TWY83138.1	Klebsiella pneumoniae	202
TWY84588.1	Klebsiella pneumoniae	202
TWY94497.1	Klebsiella pneumoniae	202
TWZ01758.1	Klebsiella pneumoniae	202
TWZ10652.1	Klebsiella pneumoniae	202
TWZ12764.1	Klebsiella pneumoniae	202
TWZ21427.1	Klebsiella pneumoniae	202
TWZ22040.1	Klebsiella pneumoniae	202
TWZ25948.1	Klebsiella pneumoniae	202
TWZ34410.1	Klebsiella pneumoniae	202
TWZ51949.1	Klebsiella pneumoniae	202
TWZ59572.1	Klebsiella pneumoniae	202
TWZ66919.1	Klebsiella pneumoniae	202
TWZ69366.1	Klebsiella pneumoniae	202
TWZ76855.1	Klebsiella pneumoniae	202
TWZ86854.1	Klebsiella pneumoniae	202
TWZ93061.1	Klebsiella pneumoniae	202
TWZ97162.1	Klebsiella pneumoniae	202
TWX76485.1	Klebsiella pneumoniae	202
TWX76814.1	Klebsiella pneumoniae	202
TWY10523.1	Klebsiella pneumoniae	202
TWW04223.1	Klebsiella sp. ME-303	202
QDZ31513.1	Klebsiella pneumoniae	202
TWV28366.1	Klebsiella quasipneumoniae subsp. similipneumoniae	202
TWV29168.1	Klebsiella quasipneumoniae subsp. similipneumoniae	202
WP_143928310.1	Klebsiella pneumoniae	202
WP_143935413.1	Klebsiella pneumoniae	202
QDW11531.1	Klebsiella pneumoniae	202
QDP31119.1	Klebsiella pneumoniae	202
QDP33451.1	Klebsiella pneumoniae	202
WP_142471773.1	Klebsiella oxytoca	202
QDP05272.1	Klebsiella pneumoniae	202
TRY37335.1	Klebsiella pneumoniae	202
TRY43424.1	Klebsiella pneumoniae	202
WP_112217405.1	Klebsiella	202
TRV89602.1	Klebsiella pneumoniae	202
TRV94739.1	Klebsiella pneumoniae	202
TRV96987.1	Klebsiella pneumoniae	202
TRW03998.1	Klebsiella pneumoniae	202
TRW08835.1	Klebsiella pneumoniae	202
TRW13580.1	Klebsiella pneumoniae	202
TRW30502.1	Klebsiella michiganensis	202
TRW33783.1	Klebsiella michiganensis	202
QDL59460.1	Klebsiella pneumoniae	202
AWJ11628.1	Klebsiella pneumoniae	202
AWJ20539.1	Klebsiella pneumoniae	202
QDJ75763.1	Klebsiella pneumoniae subsp. pneumoniae	202
QDJ81172.1	Klebsiella pneumoniae subsp. pneumoniae	202
WP_000756958.1	Enterobacteriaceae	202
WP_002916128.1	Gammaproteobacteria	202
WP_004124717.1	Klebsiella	201
WP_004853937.1	Klebsiella	201
WP_015958934.1	Klebsiella pneumoniae	193
WP_020804844.1	Enterobacteriaceae	202
WP_023317263.1	Klebsiella pneumoniae	202
WP_023327825.1	Klebsiella pneumoniae	202
WP_023332857.1	Enterobacteriaceae	202
WP_023342156.1	Klebsiella pneumoniae	202
WP_025714801.1	Enterobacteriaceae	202
WP_032428402.1	Klebsiella pneumoniae	202
WP_032676100.1	Enterobacteriaceae	202
WP_047720706.1	Klebsiella oxytoca	202
WP_048295556.1	Klebsiella quasipneumoniae	202
WP_048969282.1	Klebsiella pneumoniae	202
WP_060590264.1	Klebsiella quasipneumoniae	202
WP_060655697.1	Klebsiella quasipneumoniae	198
WP_064160007.1	Klebsiella pneumoniae	202
WP_064782759.1	Klebsiella pneumoniae	202
WP_065804356.1	Klebsiella pneumoniae	202
WP_065810031.1	Klebsiella pneumoniae	202
WP_065890230.1	Klebsiella pneumoniae	202
WP_065953833.1	Klebsiella pneumoniae	202
WP_070181866.1	Klebsiella pneumoniae	202
WP_071031247.1	Klebsiella pneumoniae	202
WP_073547024.1	Klebsiella pneumoniae	202
WP_073559624.1	Klebsiella pneumoniae	200
WP_080031166.1	Klebsiella pneumoniae	202
WP_080848209.1	Enterobacteriaceae	193
WP_080884275.1	Klebsiella pneumoniae	202
WP_084456183.1	Klebsiella pneumoniae	202
WP_087731359.1	Klebsiella variicola	202
WP_087749485.1	Klebsiella pneumoniae	202
WP_087824508.1	Klebsiella quasipneumoniae	202
WP_087825119.1	Klebsiella pneumoniae	202
WP_088207287.1	Klebsiella pneumoniae	202
WP_094313531.1	Klebsiella pneumoniae	202
WP_095725653.1	Klebsiella pneumoniae	202
WP_096926890.1	Klebsiella pneumoniae	212
WP_100285638.1	Klebsiella pneumoniae	202
WP_100680732.1	Klebsiella sp. H-Nf2	202
WP_101985086.1	Klebsiella pneumoniae	202
WP_104467407.1	Klebsiella pneumoniae	202
WP_106731403.1	Klebsiella pneumoniae	202
WP_108587585.1	Klebsiella	202
WP_109244859.1	Klebsiella pneumoniae	202
WP_110193066.1	Klebsiella variicola	202
WP_110211575.1	Klebsiella quasipneumoniae	202
WP_114258115.1	Klebsiella pneumoniae	203
WP_114262894.1	Klebsiella pneumoniae	202
WP_114269502.1	Klebsiella pneumoniae	202
WP_116721049.1	Klebsiella pneumoniae	199
WP_117041014.1	Klebsiella pneumoniae	202
WP_117051191.1	Klebsiella pneumoniae	202
WP_117055253.1	Klebsiella pneumoniae	202
WP_117074466.1	Klebsiella pneumoniae	202
WP_117084742.1	Klebsiella pneumoniae	202
WP_117093227.1	Klebsiella pneumoniae	202
WP_117127119.1	Klebsiella variicola	202
WP_117339747.1	Klebsiella variicola	202
WP_122117689.1	Klebsiella michiganensis	202
WP_124989981.1	Klebsiella pneumoniae	202
WP_125346510.1	Klebsiella pneumoniae	202
WP_126066192.1	Klebsiella pneumoniae	202
WP_130967447.1	Klebsiella pneumoniae	202
WP_130974830.1	Klebsiella pneumoniae	202
WP_130979996.1	Klebsiella pneumoniae	202
WP_135778289.1	Klebsiella pneumoniae	202
WP_136697723.1	Klebsiella pneumoniae	202
WP_138975862.1	Klebsiella pneumoniae	202
TQO92987.1	Klebsiella pneumoniae	202
TQC61275.1	Klebsiella pneumoniae	202
TQC65454.1	Klebsiella pneumoniae	202
TQC78615.1	Klebsiella pneumoniae	202
TQC83134.1	Klebsiella pneumoniae	202
TQC87128.1	Klebsiella pneumoniae	202
TQD00846.1	Klebsiella pneumoniae	202
TQD10870.1	Klebsiella pneumoniae	202
TQD29761.1	Klebsiella quasipneumoniae	202
TPW87216.1	Klebsiella pneumoniae	202
TPV69122.1	Klebsiella pneumoniae	202
QDF31207.1	Klebsiella pneumoniae	202
TPQ58617.1	Klebsiella pneumoniae	202
TPQ64099.1	Klebsiella pneumoniae	202
TPQ72038.1	Klebsiella pneumoniae	202
TPQ80380.1	Klebsiella pneumoniae	202
TPQ83215.1	Klebsiella pneumoniae	202
TPQ86249.1	Klebsiella pneumoniae	202
TPQ89245.1	Klebsiella pneumoniae	202
TPE10521.1	Klebsiella variicola	202
TPE28348.1	Klebsiella variicola	202
QDC82539.1	Klebsiella pneumoniae	202
TNV03912.1	Klebsiella pneumoniae	202
TNJ71532.1	Klebsiella pneumoniae subsp. pneumoniae	202
TNJ77690.1	Klebsiella quasipneumoniae subsp. similipneumoniae	202
TNJ84886.1	Klebsiella pneumoniae subsp. pneumoniae	202
TNJ91374.1	Klebsiella quasipneumoniae subsp. similipneumoniae	202
TNK06957.1	Klebsiella quasipneumoniae subsp. similipneumoniae	202
TNK14765.1	Klebsiella pneumoniae subsp. pneumoniae	202
TNM78339.1	Klebsiella pneumoniae subsp. pneumoniae	202
TNC35162.1	Klebsiella pneumoniae	202
TNC44033.1	Klebsiella pneumoniae	202
TNC54465.1	Klebsiella quasipneumoniae	202
TNB86407.1	Klebsiella pneumoniae	202
QCX04222.1	Klebsiella pneumoniae	202
QCU22029.1	Klebsiella pneumoniae	202
QCU34204.1	Klebsiella pneumoniae	202
QCU41231.1	Klebsiella pneumoniae	202
TLX02216.1	Klebsiella pneumoniae	202
QCS88104.1	Klebsiella pneumoniae	202
QCS99734.1	Klebsiella pneumoniae subsp. pneumoniae	202
QCQ24397.1	Klebsiella pneumoniae	202
QCO49587.1	Klebsiella pneumoniae	193
QCO59014.1	Klebsiella pneumoniae	193
TKI31592.1	Klebsiella variicola	202
TKI40907.1	Klebsiella pneumoniae	202
TKD82814.1	Klebsiella pneumoniae	202
TKD96339.1	Klebsiella pneumoniae	202
TKE08697.1	Klebsiella pneumoniae	202
TKE26392.1	Klebsiella pneumoniae	202
TKE33210.1	Klebsiella pneumoniae	202
TKE54543.1	Klebsiella pneumoniae	202
VED52886.1	Klebsiella aerogenes	211
AVR36218.1	Klebsiella quasipneumoniae	202
SPE96934.1	Klebsiella pneumoniae	202
SNU37061.1	Klebsiella grimontii	201
BAH65061.1	Klebsiella pneumoniae subsp. pneumoniae NTUH-K2044	202
ADB25079.1	Klebsiella oxytoca	204
AHE42811.1	Klebsiella pneumoniae subsp. pneumoniae Kp13	204
SAL91567.1	Klebsiella pneumoniae	202
SBN09723.1	Klebsiella pneumoniae	202
SBN30208.1	Klebsiella variicola	202
SAY69495.1	Klebsiella quasipneumoniae subsp. similipneumoniae	202
CTQ29731.1	Klebsiella pneumoniae	202
KNG98080.1	Klebsiella quasipneumoniae subsp. quasipneumoniae	202
CTQ01268.1	Klebsiella variicola	202
CTQ02253.1	Klebsiella variicola	202
CTQ07718.1	Klebsiella variicola	202
CTQ11387.1	Klebsiella variicola	202
CTQ21780.1	Klebsiella variicola	202
CDQ16092.1	Klebsiella quasipneumoniae subsp. quasipneumoniae	202
CDN02089.1	Klebsiella quasipneumoniae subsp. quasipneumoniae	202
CDN08245.1	Klebsiella quasipneumoniae subsp. similipneumoniae	202
CCI75979.1	Klebsiella pneumoniae subsp. rhinoscleromatis SB3432	204
CDO12586.1	Klebsiella pneumoniae	202
CEP28158.1	Klebsiella variicola	202
CEL88437.1	Klebsiella variicola	202
CED77713.1	Klebsiella pneumoniae	202
CDI17269.1	Klebsiella pneumoniae subsp. pneumoniae SA1	202
CDI15846.1	Klebsiella pneumoniae subsp. pneumoniae T69	202
CDI27497.1	Klebsiella pneumoniae subsp. pneumoniae BJ1-GA	202
EEW43793.1	Klebsiella pneumoniae subsp. rhinoscleromatis ATCC 13884	204
AEO27492.1	Klebsiella pneumoniae	202
ACH42749.1	Klebsiella pneumoniae	204
AAA25093.1	Klebsiella pneumoniae	202
