Description,Scientific Name,Max Score,Total Score,Query Cover,E value,Per. ident,Acc. Len,Accession  
efflux transporter outer membrane subunit [Escherichia coli],Escherichia coli,894,894,92%,0.0,95.66,461,"=HYPERLINK(""https://www.ncbi.nlm.nih.gov/protein/MBX8951426.1?report=genbank&log$=prottop&blast_rank=1&RID=AAA48ZGP016"",""MBX8951426.1"")"
efflux transporter outer membrane subunit [Escherichia coli],Escherichia coli,893,893,92%,0.0,95.44,461,"=HYPERLINK(""https://www.ncbi.nlm.nih.gov/protein/UNB76396.1?report=genbank&log$=prottop&blast_rank=2&RID=AAA48ZGP016"",""UNB76396.1"")"
efflux transporter outer membrane subunit [Escherichia coli],Escherichia coli,888,888,92%,0.0,95.01,461,"=HYPERLINK(""https://www.ncbi.nlm.nih.gov/protein/UYM68699.1?report=genbank&log$=prottop&blast_rank=3&RID=AAA48ZGP016"",""UYM68699.1"")"
TPA: efflux transporter outer membrane subunit [Escherichia coli],Escherichia coli,860,860,92%,0.0,95.01,461,"=HYPERLINK(""https://www.ncbi.nlm.nih.gov/protein/HAJ5792646.1?report=genbank&log$=prottop&blast_rank=4&RID=AAA48ZGP016"",""HAJ5792646.1"")"
efflux transporter outer membrane subunit [Enterobacteriaceae],Enterobacteriaceae,716,716,92%,0.0,78.74,460,"=HYPERLINK(""https://www.ncbi.nlm.nih.gov/protein/WP_115259163.1?report=genbank&log$=prottop&blast_rank=5&RID=AAA48ZGP016"",""WP_115259163.1"")"
Cu(+)/Ag(+) efflux RND transporter outer membrane channel CusC [Escherichia coli],Escherichia coli,721,721,92%,0.0,75.70,460,"=HYPERLINK(""https://www.ncbi.nlm.nih.gov/protein/EEZ4381993.1?report=genbank&log$=prottop&blast_rank=6&RID=AAA48ZGP016"",""EEZ4381993.1"")"
Cu(+)/Ag(+) efflux RND transporter outer membrane channel CusC [Escherichia coli],Escherichia coli,714,714,92%,0.0,75.60,459,"=HYPERLINK(""https://www.ncbi.nlm.nih.gov/protein/WP_270809457.1?report=genbank&log$=prottop&blast_rank=7&RID=AAA48ZGP016"",""WP_270809457.1"")"
TPA: Cu(+)/Ag(+) efflux RND transporter outer membrane channel CusC [Escherichia coli],Escherichia coli,713,713,92%,0.0,75.60,459,"=HYPERLINK(""https://www.ncbi.nlm.nih.gov/protein/HAW3411960.1?report=genbank&log$=prottop&blast_rank=8&RID=AAA48ZGP016"",""HAW3411960.1"")"
Cu(+)/Ag(+) efflux RND transporter outer membrane channel CusC [Escherichia coli],Escherichia coli,721,721,92%,0.0,75.49,460,"=HYPERLINK(""https://www.ncbi.nlm.nih.gov/protein/EHE9876566.1?report=genbank&log$=prottop&blast_rank=9&RID=AAA48ZGP016"",""EHE9876566.1"")"
Cu(+)/Ag(+) efflux RND transporter outer membrane channel CusC [Escherichia coli],Escherichia coli,721,721,92%,0.0,75.49,460,"=HYPERLINK(""https://www.ncbi.nlm.nih.gov/protein/EFB2826746.1?report=genbank&log$=prottop&blast_rank=10&RID=AAA48ZGP016"",""EFB2826746.1"")"
Cu(+)/Ag(+) efflux RND transporter outer membrane channel CusC [Escherichia coli],Escherichia coli,719,719,92%,0.0,75.49,460,"=HYPERLINK(""https://www.ncbi.nlm.nih.gov/protein/WP_167584790.1?report=genbank&log$=prottop&blast_rank=11&RID=AAA48ZGP016"",""WP_167584790.1"")"
Cu(+)/Ag(+) efflux RND transporter outer membrane channel CusC [Escherichia coli],Escherichia coli,719,719,92%,0.0,75.49,460,"=HYPERLINK(""https://www.ncbi.nlm.nih.gov/protein/QLX43702.1?report=genbank&log$=prottop&blast_rank=12&RID=AAA48ZGP016"",""QLX43702.1"")"
Cu(+)/Ag(+) efflux RND transporter outer membrane channel CusC [Escherichia coli],Escherichia coli,717,717,92%,0.0,75.49,460,"=HYPERLINK(""https://www.ncbi.nlm.nih.gov/protein/MCC4041576.1?report=genbank&log$=prottop&blast_rank=13&RID=AAA48ZGP016"",""MCC4041576.1"")"
Cu(+)/Ag(+) efflux RND transporter outer membrane channel CusC [Escherichia coli],Escherichia coli,717,717,92%,0.0,75.49,460,"=HYPERLINK(""https://www.ncbi.nlm.nih.gov/protein/EFC0651057.1?report=genbank&log$=prottop&blast_rank=14&RID=AAA48ZGP016"",""EFC0651057.1"")"
Cu(+)/Ag(+) efflux RND transporter outer membrane channel CusC [Escherichia coli],Escherichia coli,715,715,92%,0.0,75.49,460,"=HYPERLINK(""https://www.ncbi.nlm.nih.gov/protein/UHR06089.1?report=genbank&log$=prottop&blast_rank=15&RID=AAA48ZGP016"",""UHR06089.1"")"
Cu(+)/Ag(+) efflux RND transporter outer membrane channel CusC [Escherichia coli],Escherichia coli,716,716,92%,0.0,75.38,458,"=HYPERLINK(""https://www.ncbi.nlm.nih.gov/protein/NZB77138.1?report=genbank&log$=prottop&blast_rank=16&RID=AAA48ZGP016"",""NZB77138.1"")"
Cu(+)/Ag(+) efflux RND transporter outer membrane channel CusC [Escherichia coli],Escherichia coli,714,714,92%,0.0,75.38,458,"=HYPERLINK(""https://www.ncbi.nlm.nih.gov/protein/WP_085460492.1?report=genbank&log$=prottop&blast_rank=17&RID=AAA48ZGP016"",""WP_085460492.1"")"
cation efflux system protein CusC [Escherichia coli H605],Escherichia coli H605,714,714,92%,0.0,75.38,460,"=HYPERLINK(""https://www.ncbi.nlm.nih.gov/protein/OSL49488.1?report=genbank&log$=prottop&blast_rank=18&RID=AAA48ZGP016"",""OSL49488.1"")"
Cu(+)/Ag(+) efflux RND transporter outer membrane channel CusC [Escherichia coli],Escherichia coli,714,714,92%,0.0,75.38,459,"=HYPERLINK(""https://www.ncbi.nlm.nih.gov/protein/WP_113846934.1?report=genbank&log$=prottop&blast_rank=19&RID=AAA48ZGP016"",""WP_113846934.1"")"
Cu(+)/Ag(+) efflux RND transporter outer membrane channel CusC [Escherichia coli],Escherichia coli,713,713,92%,0.0,75.38,459,"=HYPERLINK(""https://www.ncbi.nlm.nih.gov/protein/EGN4667572.1?report=genbank&log$=prottop&blast_rank=20&RID=AAA48ZGP016"",""EGN4667572.1"")"
Cu(+)/Ag(+) efflux RND transporter outer membrane channel CusC [Escherichia coli],Escherichia coli,717,717,92%,0.0,75.27,460,"=HYPERLINK(""https://www.ncbi.nlm.nih.gov/protein/EFH7123540.1?report=genbank&log$=prottop&blast_rank=21&RID=AAA48ZGP016"",""EFH7123540.1"")"
Cu(+)/Ag(+) efflux RND transporter outer membrane channel CusC [Escherichia coli],Escherichia coli,717,717,92%,0.0,75.27,460,"=HYPERLINK(""https://www.ncbi.nlm.nih.gov/protein/EFC1525274.1?report=genbank&log$=prottop&blast_rank=22&RID=AAA48ZGP016"",""EFC1525274.1"")"
Cu(+)/Ag(+) efflux RND transporter outer membrane channel CusC [Escherichia coli],Escherichia coli,716,716,92%,0.0,75.27,460,"=HYPERLINK(""https://www.ncbi.nlm.nih.gov/protein/WP_263935154.1?report=genbank&log$=prottop&blast_rank=23&RID=AAA48ZGP016"",""WP_263935154.1"")"
Cu(+)/Ag(+) efflux RND transporter outer membrane channel CusC [Escherichia coli],Escherichia coli,716,716,92%,0.0,75.27,460,"=HYPERLINK(""https://www.ncbi.nlm.nih.gov/protein/EHB7665547.1?report=genbank&log$=prottop&blast_rank=24&RID=AAA48ZGP016"",""EHB7665547.1"")"
Cu(+)/Ag(+) efflux RND transporter outer membrane channel CusC [Escherichia coli],Escherichia coli,716,716,92%,0.0,75.27,460,"=HYPERLINK(""https://www.ncbi.nlm.nih.gov/protein/WP_192959556.1?report=genbank&log$=prottop&blast_rank=25&RID=AAA48ZGP016"",""WP_192959556.1"")"
Cu(+)/Ag(+) efflux RND transporter outer membrane channel CusC [Escherichia coli],Escherichia coli,716,716,92%,0.0,75.27,460,"=HYPERLINK(""https://www.ncbi.nlm.nih.gov/protein/EFH7438298.1?report=genbank&log$=prottop&blast_rank=26&RID=AAA48ZGP016"",""EFH7438298.1"")"
Cu(+)/Ag(+) efflux RND transporter outer membrane channel CusC [Escherichia coli],Escherichia coli,715,715,92%,0.0,75.27,460,"=HYPERLINK(""https://www.ncbi.nlm.nih.gov/protein/EFL5769749.1?report=genbank&log$=prottop&blast_rank=27&RID=AAA48ZGP016"",""EFL5769749.1"")"
Cu(+)/Ag(+) efflux RND transporter outer membrane channel CusC [Escherichia coli],Escherichia coli,715,715,92%,0.0,75.27,460,"=HYPERLINK(""https://www.ncbi.nlm.nih.gov/protein/EFL9576772.1?report=genbank&log$=prottop&blast_rank=28&RID=AAA48ZGP016"",""EFL9576772.1"")"
Cu(+)/Ag(+) efflux RND transporter outer membrane channel CusC [Escherichia coli],Escherichia coli,715,715,92%,0.0,75.27,460,"=HYPERLINK(""https://www.ncbi.nlm.nih.gov/protein/EFA4924150.1?report=genbank&log$=prottop&blast_rank=29&RID=AAA48ZGP016"",""EFA4924150.1"")"
Cu(+)/Ag(+) efflux RND transporter outer membrane channel CusC [Escherichia coli],Escherichia coli,715,715,92%,0.0,75.27,460,"=HYPERLINK(""https://www.ncbi.nlm.nih.gov/protein/EES5482741.1?report=genbank&log$=prottop&blast_rank=30&RID=AAA48ZGP016"",""EES5482741.1"")"
Cu(+)/Ag(+) efflux RND transporter outer membrane channel CusC [Escherichia coli],Escherichia coli,715,715,92%,0.0,75.27,460,"=HYPERLINK(""https://www.ncbi.nlm.nih.gov/protein/EFD5003051.1?report=genbank&log$=prottop&blast_rank=31&RID=AAA48ZGP016"",""EFD5003051.1"")"
Cu(+)/Ag(+) efflux RND transporter outer membrane channel CusC [Escherichia coli],Escherichia coli,715,715,92%,0.0,75.27,460,"=HYPERLINK(""https://www.ncbi.nlm.nih.gov/protein/WP_089563578.1?report=genbank&log$=prottop&blast_rank=32&RID=AAA48ZGP016"",""WP_089563578.1"")"
Cu(+)/Ag(+) efflux RND transporter outer membrane channel CusC [Escherichia coli],Escherichia coli,714,714,92%,0.0,75.27,460,"=HYPERLINK(""https://www.ncbi.nlm.nih.gov/protein/EFK3658874.1?report=genbank&log$=prottop&blast_rank=33&RID=AAA48ZGP016"",""EFK3658874.1"")"
Cu(+)/Ag(+) efflux RND transporter outer membrane channel CusC [Escherichia coli],Escherichia coli,714,714,92%,0.0,75.27,460,"=HYPERLINK(""https://www.ncbi.nlm.nih.gov/protein/EED1092595.1?report=genbank&log$=prottop&blast_rank=34&RID=AAA48ZGP016"",""EED1092595.1"")"
Cu(+)/Ag(+) efflux RND transporter outer membrane channel CusC [Escherichia coli],Escherichia coli,714,714,92%,0.0,75.27,460,"=HYPERLINK(""https://www.ncbi.nlm.nih.gov/protein/WP_136763352.1?report=genbank&log$=prottop&blast_rank=35&RID=AAA48ZGP016"",""WP_136763352.1"")"
Cu(+)/Ag(+) efflux RND transporter outer membrane channel CusC [Escherichia coli],Escherichia coli,714,714,92%,0.0,75.27,460,"=HYPERLINK(""https://www.ncbi.nlm.nih.gov/protein/WP_039022603.1?report=genbank&log$=prottop&blast_rank=36&RID=AAA48ZGP016"",""WP_039022603.1"")"
Cu(+)/Ag(+) efflux RND transporter outer membrane channel CusC [Escherichia coli],Escherichia coli,714,714,92%,0.0,75.27,460,"=HYPERLINK(""https://www.ncbi.nlm.nih.gov/protein/MDD8945226.1?report=genbank&log$=prottop&blast_rank=37&RID=AAA48ZGP016"",""MDD8945226.1"")"
TPA: Cu(+)/Ag(+) efflux RND transporter outer membrane channel CusC [Escherichia coli],Escherichia coli,714,714,92%,0.0,75.27,460,"=HYPERLINK(""https://www.ncbi.nlm.nih.gov/protein/HBC9291203.1?report=genbank&log$=prottop&blast_rank=38&RID=AAA48ZGP016"",""HBC9291203.1"")"
Cu(+)/Ag(+) efflux RND transporter outer membrane channel CusC [Enterobacteriaceae],Enterobacteriaceae,714,714,92%,0.0,75.27,460,"=HYPERLINK(""https://www.ncbi.nlm.nih.gov/protein/WP_089570279.1?report=genbank&log$=prottop&blast_rank=39&RID=AAA48ZGP016"",""WP_089570279.1"")"
Cu(+)/Ag(+) efflux RND transporter outer membrane channel CusC [Escherichia coli],Escherichia coli,714,714,92%,0.0,75.27,460,"=HYPERLINK(""https://www.ncbi.nlm.nih.gov/protein/EFB6638089.1?report=genbank&log$=prottop&blast_rank=40&RID=AAA48ZGP016"",""EFB6638089.1"")"
Cu(+)/Ag(+) efflux RND transporter outer membrane channel CusC [Escherichia coli],Escherichia coli,714,714,92%,0.0,75.27,460,"=HYPERLINK(""https://www.ncbi.nlm.nih.gov/protein/WP_137464424.1?report=genbank&log$=prottop&blast_rank=41&RID=AAA48ZGP016"",""WP_137464424.1"")"
Cu(+)/Ag(+) efflux RND transporter outer membrane channel CusC [Escherichia coli],Escherichia coli,714,714,92%,0.0,75.27,460,"=HYPERLINK(""https://www.ncbi.nlm.nih.gov/protein/EIX4559780.1?report=genbank&log$=prottop&blast_rank=42&RID=AAA48ZGP016"",""EIX4559780.1"")"
Cu(+)/Ag(+) efflux RND transporter outer membrane channel CusC [Escherichia coli],Escherichia coli,714,714,92%,0.0,75.27,460,"=HYPERLINK(""https://www.ncbi.nlm.nih.gov/protein/EGJ4505898.1?report=genbank&log$=prottop&blast_rank=43&RID=AAA48ZGP016"",""EGJ4505898.1"")"
Cu(+)/Ag(+) efflux RND transporter outer membrane channel CusC [Escherichia coli],Escherichia coli,714,714,92%,0.0,75.27,460,"=HYPERLINK(""https://www.ncbi.nlm.nih.gov/protein/WP_225382253.1?report=genbank&log$=prottop&blast_rank=44&RID=AAA48ZGP016"",""WP_225382253.1"")"
Cu(+)/Ag(+) efflux RND transporter outer membrane channel CusC [Escherichia coli],Escherichia coli,714,714,92%,0.0,75.27,460,"=HYPERLINK(""https://www.ncbi.nlm.nih.gov/protein/WP_047400693.1?report=genbank&log$=prottop&blast_rank=45&RID=AAA48ZGP016"",""WP_047400693.1"")"
TPA: Cu(+)/Ag(+) efflux RND transporter outer membrane channel CusC [Escherichia coli],Escherichia coli,714,714,92%,0.0,75.27,460,"=HYPERLINK(""https://www.ncbi.nlm.nih.gov/protein/HCT9230852.1?report=genbank&log$=prottop&blast_rank=46&RID=AAA48ZGP016"",""HCT9230852.1"")"
Cu(+)/Ag(+) efflux RND transporter outer membrane channel CusC [Escherichia coli],Escherichia coli,714,714,92%,0.0,75.27,460,"=HYPERLINK(""https://www.ncbi.nlm.nih.gov/protein/EHH6916782.1?report=genbank&log$=prottop&blast_rank=47&RID=AAA48ZGP016"",""EHH6916782.1"")"
Cu(+)/Ag(+) efflux RND transporter outer membrane channel CusC [Escherichia coli],Escherichia coli,714,714,92%,0.0,75.27,460,"=HYPERLINK(""https://www.ncbi.nlm.nih.gov/protein/EFN3170387.1?report=genbank&log$=prottop&blast_rank=48&RID=AAA48ZGP016"",""EFN3170387.1"")"
Cu(+)/Ag(+) efflux RND transporter outer membrane channel CusC [Escherichia coli],Escherichia coli,713,713,92%,0.0,75.27,460,"=HYPERLINK(""https://www.ncbi.nlm.nih.gov/protein/EFC6286178.1?report=genbank&log$=prottop&blast_rank=49&RID=AAA48ZGP016"",""EFC6286178.1"")"
efflux transporter outer membrane subunit [Escherichia coli],Escherichia coli,715,715,92%,0.0,75.05,460,"=HYPERLINK(""https://www.ncbi.nlm.nih.gov/protein/EFN7881398.1?report=genbank&log$=prottop&blast_rank=50&RID=AAA48ZGP016"",""EFN7881398.1"")"
Cu(+)/Ag(+) efflux RND transporter outer membrane channel CusC [Escherichia coli],Escherichia coli,715,715,92%,0.0,75.05,460,"=HYPERLINK(""https://www.ncbi.nlm.nih.gov/protein/EET9282949.1?report=genbank&log$=prottop&blast_rank=51&RID=AAA48ZGP016"",""EET9282949.1"")"
Cu(+)/Ag(+) efflux RND transporter outer membrane channel CusC [Escherichia coli],Escherichia coli,715,715,92%,0.0,75.05,460,"=HYPERLINK(""https://www.ncbi.nlm.nih.gov/protein/WP_000074235.1?report=genbank&log$=prottop&blast_rank=52&RID=AAA48ZGP016"",""WP_000074235.1"")"
Cu(+)/Ag(+) efflux RND transporter outer membrane channel CusC [Escherichia coli],Escherichia coli,715,715,92%,0.0,75.05,460,"=HYPERLINK(""https://www.ncbi.nlm.nih.gov/protein/EFE0632782.1?report=genbank&log$=prottop&blast_rank=53&RID=AAA48ZGP016"",""EFE0632782.1"")"
Cu(+)/Ag(+) efflux RND transporter outer membrane channel CusC [Escherichia coli],Escherichia coli,714,714,92%,0.0,75.05,460,"=HYPERLINK(""https://www.ncbi.nlm.nih.gov/protein/WP_064562459.1?report=genbank&log$=prottop&blast_rank=54&RID=AAA48ZGP016"",""WP_064562459.1"")"
Cu(+)/Ag(+) efflux RND transporter outer membrane channel CusC [Escherichia coli],Escherichia coli,714,714,92%,0.0,75.05,460,"=HYPERLINK(""https://www.ncbi.nlm.nih.gov/protein/MBF5634743.1?report=genbank&log$=prottop&blast_rank=55&RID=AAA48ZGP016"",""MBF5634743.1"")"
Cu(+)/Ag(+) efflux RND transporter outer membrane channel CusC [Escherichia coli],Escherichia coli,714,714,92%,0.0,75.05,460,"=HYPERLINK(""https://www.ncbi.nlm.nih.gov/protein/WP_134250927.1?report=genbank&log$=prottop&blast_rank=56&RID=AAA48ZGP016"",""WP_134250927.1"")"
Cu(+)/Ag(+) efflux RND transporter outer membrane channel CusC [Escherichia coli],Escherichia coli,714,714,92%,0.0,75.05,460,"=HYPERLINK(""https://www.ncbi.nlm.nih.gov/protein/EJV7461679.1?report=genbank&log$=prottop&blast_rank=57&RID=AAA48ZGP016"",""EJV7461679.1"")"
Cu(+)/Ag(+) efflux RND transporter outer membrane channel CusC [Escherichia coli],Escherichia coli,714,714,92%,0.0,75.05,460,"=HYPERLINK(""https://www.ncbi.nlm.nih.gov/protein/EKD9948316.1?report=genbank&log$=prottop&blast_rank=58&RID=AAA48ZGP016"",""EKD9948316.1"")"
Cu(+)/Ag(+) efflux RND transporter outer membrane channel CusC [Escherichia coli],Escherichia coli,714,714,92%,0.0,75.05,460,"=HYPERLINK(""https://www.ncbi.nlm.nih.gov/protein/WP_158121351.1?report=genbank&log$=prottop&blast_rank=59&RID=AAA48ZGP016"",""WP_158121351.1"")"
Cu(I)/Ag(I) efflux RND transporter outer membrane protein [Escherichia coli],Escherichia coli,714,714,92%,0.0,75.05,460,"=HYPERLINK(""https://www.ncbi.nlm.nih.gov/protein/EFO0738078.1?report=genbank&log$=prottop&blast_rank=60&RID=AAA48ZGP016"",""EFO0738078.1"")"
Cu(+)/Ag(+) efflux RND transporter outer membrane channel CusC [Escherichia coli],Escherichia coli,714,714,92%,0.0,75.05,460,"=HYPERLINK(""https://www.ncbi.nlm.nih.gov/protein/EFH7840383.1?report=genbank&log$=prottop&blast_rank=61&RID=AAA48ZGP016"",""EFH7840383.1"")"
Cu(+)/Ag(+) efflux RND transporter outer membrane channel CusC [Escherichia coli],Escherichia coli,714,714,92%,0.0,75.05,460,"=HYPERLINK(""https://www.ncbi.nlm.nih.gov/protein/WP_135401928.1?report=genbank&log$=prottop&blast_rank=62&RID=AAA48ZGP016"",""WP_135401928.1"")"
Cu(+)/Ag(+) efflux RND transporter outer membrane channel CusC [Escherichia coli],Escherichia coli,714,714,92%,0.0,75.05,460,"=HYPERLINK(""https://www.ncbi.nlm.nih.gov/protein/WP_218066381.1?report=genbank&log$=prottop&blast_rank=63&RID=AAA48ZGP016"",""WP_218066381.1"")"
Cu(+)/Ag(+) efflux RND transporter outer membrane channel CusC [Escherichia coli],Escherichia coli,714,714,92%,0.0,75.05,460,"=HYPERLINK(""https://www.ncbi.nlm.nih.gov/protein/WP_099145365.1?report=genbank&log$=prottop&blast_rank=64&RID=AAA48ZGP016"",""WP_099145365.1"")"
Cu(+)/Ag(+) efflux RND transporter outer membrane channel CusC [Escherichia coli],Escherichia coli,714,714,92%,0.0,75.05,460,"=HYPERLINK(""https://www.ncbi.nlm.nih.gov/protein/WP_095784676.1?report=genbank&log$=prottop&blast_rank=65&RID=AAA48ZGP016"",""WP_095784676.1"")"
TPA: Cu(+)/Ag(+) efflux RND transporter outer membrane channel CusC [Escherichia coli],Escherichia coli,714,714,92%,0.0,75.05,460,"=HYPERLINK(""https://www.ncbi.nlm.nih.gov/protein/HCN5788321.1?report=genbank&log$=prottop&blast_rank=66&RID=AAA48ZGP016"",""HCN5788321.1"")"
Cu(+)/Ag(+) efflux RND transporter outer membrane channel CusC [Escherichia coli],Escherichia coli,714,714,92%,0.0,75.05,460,"=HYPERLINK(""https://www.ncbi.nlm.nih.gov/protein/EEC9477742.1?report=genbank&log$=prottop&blast_rank=67&RID=AAA48ZGP016"",""EEC9477742.1"")"
copper transporter [Escherichia coli],Escherichia coli,714,714,92%,0.0,75.05,460,"=HYPERLINK(""https://www.ncbi.nlm.nih.gov/protein/OKB83146.1?report=genbank&log$=prottop&blast_rank=68&RID=AAA48ZGP016"",""OKB83146.1"")"
Cu(+)/Ag(+) efflux RND transporter outer membrane channel CusC [Escherichia coli],Escherichia coli,714,714,92%,0.0,75.05,460,"=HYPERLINK(""https://www.ncbi.nlm.nih.gov/protein/WP_201513253.1?report=genbank&log$=prottop&blast_rank=69&RID=AAA48ZGP016"",""WP_201513253.1"")"
Cu(+)/Ag(+) efflux RND transporter outer membrane channel CusC [Escherichia coli],Escherichia coli,714,714,92%,0.0,75.05,460,"=HYPERLINK(""https://www.ncbi.nlm.nih.gov/protein/EFF0270599.1?report=genbank&log$=prottop&blast_rank=70&RID=AAA48ZGP016"",""EFF0270599.1"")"
Cu(+)/Ag(+) efflux RND transporter outer membrane channel CusC [Escherichia coli],Escherichia coli,714,714,92%,0.0,75.05,460,"=HYPERLINK(""https://www.ncbi.nlm.nih.gov/protein/EFH6039431.1?report=genbank&log$=prottop&blast_rank=71&RID=AAA48ZGP016"",""EFH6039431.1"")"
Cu(+)/Ag(+) efflux RND transporter outer membrane channel CusC [Escherichia coli],Escherichia coli,714,714,92%,0.0,75.05,460,"=HYPERLINK(""https://www.ncbi.nlm.nih.gov/protein/WP_137489104.1?report=genbank&log$=prottop&blast_rank=72&RID=AAA48ZGP016"",""WP_137489104.1"")"
Cu(+)/Ag(+) efflux RND transporter outer membrane channel CusC [Escherichia coli],Escherichia coli,714,714,92%,0.0,75.05,460,"=HYPERLINK(""https://www.ncbi.nlm.nih.gov/protein/EFD0941645.1?report=genbank&log$=prottop&blast_rank=73&RID=AAA48ZGP016"",""EFD0941645.1"")"
Cu(+)/Ag(+) efflux RND transporter outer membrane channel CusC [Escherichia coli],Escherichia coli,714,714,92%,0.0,75.05,460,"=HYPERLINK(""https://www.ncbi.nlm.nih.gov/protein/EER4369294.1?report=genbank&log$=prottop&blast_rank=74&RID=AAA48ZGP016"",""EER4369294.1"")"
Cu(+)/Ag(+) efflux RND transporter outer membrane channel CusC [Escherichia coli],Escherichia coli,714,714,92%,0.0,75.05,460,"=HYPERLINK(""https://www.ncbi.nlm.nih.gov/protein/EHX7961258.1?report=genbank&log$=prottop&blast_rank=75&RID=AAA48ZGP016"",""EHX7961258.1"")"
Cu(+)/Ag(+) efflux RND transporter outer membrane channel CusC [Escherichia coli],Escherichia coli,714,714,92%,0.0,75.05,460,"=HYPERLINK(""https://www.ncbi.nlm.nih.gov/protein/WP_069913255.1?report=genbank&log$=prottop&blast_rank=76&RID=AAA48ZGP016"",""WP_069913255.1"")"
Cu(+)/Ag(+) efflux RND transporter outer membrane channel CusC [Escherichia coli],Escherichia coli,714,714,92%,0.0,75.05,460,"=HYPERLINK(""https://www.ncbi.nlm.nih.gov/protein/WP_273885922.1?report=genbank&log$=prottop&blast_rank=77&RID=AAA48ZGP016"",""WP_273885922.1"")"
Cu(+)/Ag(+) efflux RND transporter outer membrane channel CusC [Escherichia coli],Escherichia coli,714,714,92%,0.0,75.05,460,"=HYPERLINK(""https://www.ncbi.nlm.nih.gov/protein/WP_059321665.1?report=genbank&log$=prottop&blast_rank=78&RID=AAA48ZGP016"",""WP_059321665.1"")"
efflux transporter outer membrane subunit [Escherichia coli],Escherichia coli,714,714,92%,0.0,75.05,460,"=HYPERLINK(""https://www.ncbi.nlm.nih.gov/protein/WP_206354303.1?report=genbank&log$=prottop&blast_rank=79&RID=AAA48ZGP016"",""WP_206354303.1"")"
TPA: Cu(+)/Ag(+) efflux RND transporter outer membrane channel CusC [Escherichia coli],Escherichia coli,714,714,92%,0.0,75.05,460,"=HYPERLINK(""https://www.ncbi.nlm.nih.gov/protein/HAI6096247.1?report=genbank&log$=prottop&blast_rank=80&RID=AAA48ZGP016"",""HAI6096247.1"")"
Cu(+)/Ag(+) efflux RND transporter outer membrane channel CusC [Escherichia coli],Escherichia coli,714,714,92%,0.0,75.05,460,"=HYPERLINK(""https://www.ncbi.nlm.nih.gov/protein/WP_223438465.1?report=genbank&log$=prottop&blast_rank=81&RID=AAA48ZGP016"",""WP_223438465.1"")"
Cu(+)/Ag(+) efflux RND transporter outer membrane channel CusC [Escherichia coli],Escherichia coli,714,714,92%,0.0,75.05,460,"=HYPERLINK(""https://www.ncbi.nlm.nih.gov/protein/WP_097724937.1?report=genbank&log$=prottop&blast_rank=82&RID=AAA48ZGP016"",""WP_097724937.1"")"
Cu(+)/Ag(+) efflux RND transporter outer membrane channel CusC [Escherichia coli],Escherichia coli,714,714,92%,0.0,75.05,460,"=HYPERLINK(""https://www.ncbi.nlm.nih.gov/protein/WP_124835376.1?report=genbank&log$=prottop&blast_rank=83&RID=AAA48ZGP016"",""WP_124835376.1"")"
TPA: Cu(+)/Ag(+) efflux RND transporter outer membrane channel CusC [Escherichia coli],Escherichia coli,714,714,92%,0.0,75.05,460,"=HYPERLINK(""https://www.ncbi.nlm.nih.gov/protein/HAG9062836.1?report=genbank&log$=prottop&blast_rank=84&RID=AAA48ZGP016"",""HAG9062836.1"")"
efflux transporter outer membrane subunit [Escherichia coli O10],Escherichia coli O10,713,713,92%,0.0,75.05,460,"=HYPERLINK(""https://www.ncbi.nlm.nih.gov/protein/EFN6912145.1?report=genbank&log$=prottop&blast_rank=85&RID=AAA48ZGP016"",""EFN6912145.1"")"
TPA: Cu(+)/Ag(+) efflux RND transporter outer membrane channel CusC [Escherichia coli],Escherichia coli,713,713,92%,0.0,75.05,460,"=HYPERLINK(""https://www.ncbi.nlm.nih.gov/protein/HAO9127355.1?report=genbank&log$=prottop&blast_rank=86&RID=AAA48ZGP016"",""HAO9127355.1"")"
Cu(+)/Ag(+) efflux RND transporter outer membrane channel CusC [Escherichia coli],Escherichia coli,713,713,92%,0.0,75.05,460,"=HYPERLINK(""https://www.ncbi.nlm.nih.gov/protein/WP_104717496.1?report=genbank&log$=prottop&blast_rank=87&RID=AAA48ZGP016"",""WP_104717496.1"")"
Cu(+)/Ag(+) efflux RND transporter outer membrane channel CusC [Escherichia coli],Escherichia coli,713,713,92%,0.0,75.05,460,"=HYPERLINK(""https://www.ncbi.nlm.nih.gov/protein/WP_223719259.1?report=genbank&log$=prottop&blast_rank=88&RID=AAA48ZGP016"",""WP_223719259.1"")"
Cu(+)/Ag(+) efflux RND transporter outer membrane channel CusC [Escherichia coli],Escherichia coli,713,713,92%,0.0,75.05,460,"=HYPERLINK(""https://www.ncbi.nlm.nih.gov/protein/EKO2232760.1?report=genbank&log$=prottop&blast_rank=89&RID=AAA48ZGP016"",""EKO2232760.1"")"
Cu(+)/Ag(+) efflux RND transporter outer membrane channel CusC [Escherichia coli],Escherichia coli,713,713,92%,0.0,75.05,460,"=HYPERLINK(""https://www.ncbi.nlm.nih.gov/protein/WP_000074255.1?report=genbank&log$=prottop&blast_rank=90&RID=AAA48ZGP016"",""WP_000074255.1"")"
Cu(+)/Ag(+) efflux RND transporter outer membrane channel CusC [Escherichia coli],Escherichia coli,713,713,92%,0.0,75.05,460,"=HYPERLINK(""https://www.ncbi.nlm.nih.gov/protein/WP_163450195.1?report=genbank&log$=prottop&blast_rank=91&RID=AAA48ZGP016"",""WP_163450195.1"")"
Cu(+)/Ag(+) efflux RND transporter outer membrane channel CusC [Escherichia coli],Escherichia coli,713,713,92%,0.0,75.05,460,"=HYPERLINK(""https://www.ncbi.nlm.nih.gov/protein/WP_179150245.1?report=genbank&log$=prottop&blast_rank=92&RID=AAA48ZGP016"",""WP_179150245.1"")"
Cu(+)/Ag(+) efflux RND transporter outer membrane channel CusC [Escherichia coli],Escherichia coli,713,713,92%,0.0,75.05,460,"=HYPERLINK(""https://www.ncbi.nlm.nih.gov/protein/WP_240760623.1?report=genbank&log$=prottop&blast_rank=93&RID=AAA48ZGP016"",""WP_240760623.1"")"
Cu(+)/Ag(+) efflux RND transporter outer membrane channel CusC [Escherichia coli],Escherichia coli,713,713,92%,0.0,75.05,460,"=HYPERLINK(""https://www.ncbi.nlm.nih.gov/protein/TZE16658.1?report=genbank&log$=prottop&blast_rank=94&RID=AAA48ZGP016"",""TZE16658.1"")"
Cu(+)/Ag(+) efflux RND transporter outer membrane channel CusC [Escherichia coli],Escherichia coli,714,714,92%,0.0,74.84,460,"=HYPERLINK(""https://www.ncbi.nlm.nih.gov/protein/EKM8910620.1?report=genbank&log$=prottop&blast_rank=95&RID=AAA48ZGP016"",""EKM8910620.1"")"
TPA: Cu(+)/Ag(+) efflux RND transporter outer membrane channel CusC [Escherichia coli],Escherichia coli,714,714,92%,0.0,74.84,460,"=HYPERLINK(""https://www.ncbi.nlm.nih.gov/protein/HBA7081505.1?report=genbank&log$=prottop&blast_rank=96&RID=AAA48ZGP016"",""HBA7081505.1"")"
Cu(+)/Ag(+) efflux RND transporter outer membrane channel CusC [Escherichia coli],Escherichia coli,714,714,92%,0.0,74.84,460,"=HYPERLINK(""https://www.ncbi.nlm.nih.gov/protein/EHP5065707.1?report=genbank&log$=prottop&blast_rank=97&RID=AAA48ZGP016"",""EHP5065707.1"")"
Cu(+)/Ag(+) efflux RND transporter outer membrane channel CusC [Escherichia coli],Escherichia coli,714,714,92%,0.0,74.84,460,"=HYPERLINK(""https://www.ncbi.nlm.nih.gov/protein/EIU0510212.1?report=genbank&log$=prottop&blast_rank=98&RID=AAA48ZGP016"",""EIU0510212.1"")"
Cu(+)/Ag(+) efflux RND transporter outer membrane channel CusC [Escherichia],Escherichia,714,714,92%,0.0,74.84,460,"=HYPERLINK(""https://www.ncbi.nlm.nih.gov/protein/WP_047089056.1?report=genbank&log$=prottop&blast_rank=99&RID=AAA48ZGP016"",""WP_047089056.1"")"
Cu(+)/Ag(+) efflux RND transporter outer membrane channel CusC [Escherichia coli],Escherichia coli,714,714,92%,0.0,74.84,460,"=HYPERLINK(""https://www.ncbi.nlm.nih.gov/protein/EFM2063590.1?report=genbank&log$=prottop&blast_rank=100&RID=AAA48ZGP016"",""EFM2063590.1"")"



		


