Description,Scientific Name,Max Score,Total Score,Query Cover,E value,Per. ident,Acc. Len,Accession  
hypothetical protein BET08_00190 [Escherichia coli],Escherichia coli,837,837,100%,0.0,99.75,408,"=HYPERLINK(""https://www.ncbi.nlm.nih.gov/protein/ONK52799.1?report=genbank&log$=prottop&blast_rank=1&RID=BFHJBDCE016"",""ONK52799.1"")"
DUF3748 domain-containing protein [Escherichia coli],Escherichia coli,837,837,100%,0.0,99.51,408,"=HYPERLINK(""https://www.ncbi.nlm.nih.gov/protein/MBX8950557.1?report=genbank&log$=prottop&blast_rank=2&RID=BFHJBDCE016"",""MBX8950557.1"")"
DUF3748 domain-containing protein [Escherichia coli],Escherichia coli,824,824,100%,0.0,98.77,406,"=HYPERLINK(""https://www.ncbi.nlm.nih.gov/protein/UMX55844.1?report=genbank&log$=prottop&blast_rank=3&RID=BFHJBDCE016"",""UMX55844.1"")"
TPA: DUF3748 domain-containing protein [Escherichia coli],Escherichia coli,793,793,94%,0.0,99.74,387,"=HYPERLINK(""https://www.ncbi.nlm.nih.gov/protein/HAJ5766265.1?report=genbank&log$=prottop&blast_rank=4&RID=BFHJBDCE016"",""HAJ5766265.1"")"
TPA: DUF3748 domain-containing protein [Escherichia coli],Escherichia coli,780,780,93%,0.0,99.74,381,"=HYPERLINK(""https://www.ncbi.nlm.nih.gov/protein/HAJ3151047.1?report=genbank&log$=prottop&blast_rank=5&RID=BFHJBDCE016"",""HAJ3151047.1"")"
DUF3748 domain-containing protein [Enterobacteriaceae],Enterobacteriaceae,698,698,100%,0.0,81.37,408,"=HYPERLINK(""https://www.ncbi.nlm.nih.gov/protein/WP_115257115.1?report=genbank&log$=prottop&blast_rank=6&RID=BFHJBDCE016"",""WP_115257115.1"")"
DUF3748 domain-containing protein [Escherichia coli],Escherichia coli,686,686,100%,0.0,78.68,408,"=HYPERLINK(""https://www.ncbi.nlm.nih.gov/protein/MCQ7059462.1?report=genbank&log$=prottop&blast_rank=7&RID=BFHJBDCE016"",""MCQ7059462.1"")"
DUF3748 domain-containing protein [Escherichia coli],Escherichia coli,685,685,100%,0.0,78.68,408,"=HYPERLINK(""https://www.ncbi.nlm.nih.gov/protein/PSF20424.1?report=genbank&log$=prottop&blast_rank=8&RID=BFHJBDCE016"",""PSF20424.1"")"
DUF3748 domain-containing protein [Escherichia coli],Escherichia coli,683,683,100%,0.0,79.90,408,"=HYPERLINK(""https://www.ncbi.nlm.nih.gov/protein/EIM4385322.1?report=genbank&log$=prottop&blast_rank=9&RID=BFHJBDCE016"",""EIM4385322.1"")"
DUF3748 domain-containing protein [Escherichia coli],Escherichia coli,680,680,100%,0.0,79.41,408,"=HYPERLINK(""https://www.ncbi.nlm.nih.gov/protein/EGL6061615.1?report=genbank&log$=prottop&blast_rank=10&RID=BFHJBDCE016"",""EGL6061615.1"")"
DUF3748 domain-containing protein [Escherichia coli],Escherichia coli,679,679,100%,0.0,78.43,416,"=HYPERLINK(""https://www.ncbi.nlm.nih.gov/protein/EGO7857069.1?report=genbank&log$=prottop&blast_rank=11&RID=BFHJBDCE016"",""EGO7857069.1"")"
DUF3748 domain-containing protein [Escherichia coli],Escherichia coli,679,679,100%,0.0,78.43,415,"=HYPERLINK(""https://www.ncbi.nlm.nih.gov/protein/EFI4022931.1?report=genbank&log$=prottop&blast_rank=12&RID=BFHJBDCE016"",""EFI4022931.1"")"
DUF3748 domain-containing protein [Escherichia coli],Escherichia coli,679,679,100%,0.0,78.43,404,"=HYPERLINK(""https://www.ncbi.nlm.nih.gov/protein/WP_200818502.1?report=genbank&log$=prottop&blast_rank=13&RID=BFHJBDCE016"",""WP_200818502.1"")"
DUF3748 domain-containing protein [Escherichia coli],Escherichia coli,679,679,100%,0.0,78.43,415,"=HYPERLINK(""https://www.ncbi.nlm.nih.gov/protein/QLN21258.1?report=genbank&log$=prottop&blast_rank=14&RID=BFHJBDCE016"",""QLN21258.1"")"
TPA: DUF3748 domain-containing protein [Escherichia coli],Escherichia coli,679,679,100%,0.0,78.43,416,"=HYPERLINK(""https://www.ncbi.nlm.nih.gov/protein/HAW1062562.1?report=genbank&log$=prottop&blast_rank=15&RID=BFHJBDCE016"",""HAW1062562.1"")"
DUF3748 domain-containing protein [Escherichia coli],Escherichia coli,679,679,100%,0.0,78.43,404,"=HYPERLINK(""https://www.ncbi.nlm.nih.gov/protein/WP_039020316.1?report=genbank&log$=prottop&blast_rank=16&RID=BFHJBDCE016"",""WP_039020316.1"")"
TPA: DUF3748 domain-containing protein [Escherichia coli],Escherichia coli,678,678,100%,0.0,78.43,404,"=HYPERLINK(""https://www.ncbi.nlm.nih.gov/protein/HBK2953524.1?report=genbank&log$=prottop&blast_rank=17&RID=BFHJBDCE016"",""HBK2953524.1"")"
DUF3748 domain-containing protein [Escherichia coli],Escherichia coli,677,677,100%,0.0,78.68,416,"=HYPERLINK(""https://www.ncbi.nlm.nih.gov/protein/EFJ1427632.1?report=genbank&log$=prottop&blast_rank=18&RID=BFHJBDCE016"",""EFJ1427632.1"")"
DUF3748 domain-containing protein [Escherichia coli],Escherichia coli,677,677,100%,0.0,78.68,415,"=HYPERLINK(""https://www.ncbi.nlm.nih.gov/protein/EFF9815883.1?report=genbank&log$=prottop&blast_rank=19&RID=BFHJBDCE016"",""EFF9815883.1"")"
DUF3748 domain-containing protein [Escherichia coli],Escherichia coli,677,677,100%,0.0,78.68,416,"=HYPERLINK(""https://www.ncbi.nlm.nih.gov/protein/EFG6856987.1?report=genbank&log$=prottop&blast_rank=20&RID=BFHJBDCE016"",""EFG6856987.1"")"
DUF3748 domain-containing protein [Escherichia coli],Escherichia coli,677,677,100%,0.0,78.43,416,"=HYPERLINK(""https://www.ncbi.nlm.nih.gov/protein/MBE9993339.1?report=genbank&log$=prottop&blast_rank=21&RID=BFHJBDCE016"",""MBE9993339.1"")"
DUF3748 domain-containing protein [Escherichia coli],Escherichia coli,677,677,100%,0.0,78.68,404,"=HYPERLINK(""https://www.ncbi.nlm.nih.gov/protein/WP_187182363.1?report=genbank&log$=prottop&blast_rank=22&RID=BFHJBDCE016"",""WP_187182363.1"")"
DUF3748 domain-containing protein [Escherichia coli],Escherichia coli,677,677,100%,0.0,78.68,415,"=HYPERLINK(""https://www.ncbi.nlm.nih.gov/protein/RVS69607.1?report=genbank&log$=prottop&blast_rank=23&RID=BFHJBDCE016"",""RVS69607.1"")"
DUF3748 domain-containing protein [Escherichia coli],Escherichia coli,677,677,100%,0.0,78.19,423,"=HYPERLINK(""https://www.ncbi.nlm.nih.gov/protein/MXG72664.1?report=genbank&log$=prottop&blast_rank=24&RID=BFHJBDCE016"",""MXG72664.1"")"
TPA: DUF3748 domain-containing protein [Escherichia coli],Escherichia coli,677,677,100%,0.0,78.68,416,"=HYPERLINK(""https://www.ncbi.nlm.nih.gov/protein/HAX9749409.1?report=genbank&log$=prottop&blast_rank=25&RID=BFHJBDCE016"",""HAX9749409.1"")"
DUF3748 domain-containing protein [Escherichia coli],Escherichia coli,677,677,100%,0.0,78.68,404,"=HYPERLINK(""https://www.ncbi.nlm.nih.gov/protein/EHW2757646.1?report=genbank&log$=prottop&blast_rank=26&RID=BFHJBDCE016"",""EHW2757646.1"")"
DUF3748 domain-containing protein [Escherichia coli],Escherichia coli,677,677,100%,0.0,78.43,404,"=HYPERLINK(""https://www.ncbi.nlm.nih.gov/protein/EIY7829040.1?report=genbank&log$=prottop&blast_rank=27&RID=BFHJBDCE016"",""EIY7829040.1"")"
DUF3748 domain-containing protein [Escherichia coli],Escherichia coli,677,677,100%,0.0,78.43,404,"=HYPERLINK(""https://www.ncbi.nlm.nih.gov/protein/WP_215253002.1?report=genbank&log$=prottop&blast_rank=28&RID=BFHJBDCE016"",""WP_215253002.1"")"
DUF3748 domain-containing protein [Escherichia coli],Escherichia coli,677,677,100%,0.0,78.68,415,"=HYPERLINK(""https://www.ncbi.nlm.nih.gov/protein/EAC1358166.1?report=genbank&log$=prottop&blast_rank=29&RID=BFHJBDCE016"",""EAC1358166.1"")"
TPA: DUF3748 domain-containing protein [Escherichia coli],Escherichia coli,677,677,100%,0.0,78.68,415,"=HYPERLINK(""https://www.ncbi.nlm.nih.gov/protein/HAH3437207.1?report=genbank&log$=prottop&blast_rank=30&RID=BFHJBDCE016"",""HAH3437207.1"")"
DUF3748 domain-containing protein [Escherichia coli],Escherichia coli,677,677,100%,0.0,78.68,415,"=HYPERLINK(""https://www.ncbi.nlm.nih.gov/protein/EFB4764983.1?report=genbank&log$=prottop&blast_rank=31&RID=BFHJBDCE016"",""EFB4764983.1"")"
DUF3748 domain-containing protein [Escherichia coli],Escherichia coli,677,677,100%,0.0,78.19,409,"=HYPERLINK(""https://www.ncbi.nlm.nih.gov/protein/MWO99532.1?report=genbank&log$=prottop&blast_rank=32&RID=BFHJBDCE016"",""MWO99532.1"")"
DUF3748 domain-containing protein [Escherichia coli],Escherichia coli,676,676,100%,0.0,78.19,415,"=HYPERLINK(""https://www.ncbi.nlm.nih.gov/protein/EFC9512004.1?report=genbank&log$=prottop&blast_rank=33&RID=BFHJBDCE016"",""EFC9512004.1"")"
TPA: DUF3748 domain-containing protein [Escherichia coli],Escherichia coli,676,676,100%,0.0,78.68,416,"=HYPERLINK(""https://www.ncbi.nlm.nih.gov/protein/HAW7374979.1?report=genbank&log$=prottop&blast_rank=34&RID=BFHJBDCE016"",""HAW7374979.1"")"
TPA: DUF3748 domain-containing protein [Escherichia coli],Escherichia coli,676,676,100%,0.0,78.43,416,"=HYPERLINK(""https://www.ncbi.nlm.nih.gov/protein/HAZ7370131.1?report=genbank&log$=prottop&blast_rank=35&RID=BFHJBDCE016"",""HAZ7370131.1"")"
DUF3748 domain-containing protein [Escherichia coli],Escherichia coli,676,676,100%,0.0,78.19,415,"=HYPERLINK(""https://www.ncbi.nlm.nih.gov/protein/QML58428.1?report=genbank&log$=prottop&blast_rank=36&RID=BFHJBDCE016"",""QML58428.1"")"
DUF3748 domain-containing protein [Escherichia coli],Escherichia coli,676,676,100%,0.0,78.68,415,"=HYPERLINK(""https://www.ncbi.nlm.nih.gov/protein/KAE9789986.1?report=genbank&log$=prottop&blast_rank=37&RID=BFHJBDCE016"",""KAE9789986.1"")"
DUF3748 domain-containing protein [Escherichia coli],Escherichia coli,676,676,100%,0.0,78.68,404,"=HYPERLINK(""https://www.ncbi.nlm.nih.gov/protein/WP_032216463.1?report=genbank&log$=prottop&blast_rank=38&RID=BFHJBDCE016"",""WP_032216463.1"")"
DUF3748 domain-containing protein [Enterobacteriaceae],Enterobacteriaceae,676,676,100%,0.0,78.68,404,"=HYPERLINK(""https://www.ncbi.nlm.nih.gov/protein/WP_176686821.1?report=genbank&log$=prottop&blast_rank=39&RID=BFHJBDCE016"",""WP_176686821.1"")"
DUF3748 domain-containing protein [Escherichia coli],Escherichia coli,676,676,100%,0.0,78.68,415,"=HYPERLINK(""https://www.ncbi.nlm.nih.gov/protein/EFB1773226.1?report=genbank&log$=prottop&blast_rank=40&RID=BFHJBDCE016"",""EFB1773226.1"")"
DUF3748 domain-containing protein [Escherichia coli],Escherichia coli,676,676,100%,0.0,78.43,415,"=HYPERLINK(""https://www.ncbi.nlm.nih.gov/protein/EEU9143377.1?report=genbank&log$=prottop&blast_rank=41&RID=BFHJBDCE016"",""EEU9143377.1"")"
TPA: DUF3748 domain-containing protein [Escherichia coli],Escherichia coli,676,676,100%,0.0,78.68,404,"=HYPERLINK(""https://www.ncbi.nlm.nih.gov/protein/HCN6485187.1?report=genbank&log$=prottop&blast_rank=42&RID=BFHJBDCE016"",""HCN6485187.1"")"
DUF3748 domain-containing protein [Escherichia coli],Escherichia coli,676,676,100%,0.0,78.92,404,"=HYPERLINK(""https://www.ncbi.nlm.nih.gov/protein/MBV4869646.1?report=genbank&log$=prottop&blast_rank=43&RID=BFHJBDCE016"",""MBV4869646.1"")"
DUF3748 domain-containing protein [Escherichia coli],Escherichia coli,676,676,100%,0.0,78.68,404,"=HYPERLINK(""https://www.ncbi.nlm.nih.gov/protein/WP_199266938.1?report=genbank&log$=prottop&blast_rank=44&RID=BFHJBDCE016"",""WP_199266938.1"")"
DUF3748 domain-containing protein [Escherichia coli],Escherichia coli,676,676,100%,0.0,78.68,404,"=HYPERLINK(""https://www.ncbi.nlm.nih.gov/protein/EIQ6809466.1?report=genbank&log$=prottop&blast_rank=45&RID=BFHJBDCE016"",""EIQ6809466.1"")"
DUF3748 domain-containing protein [Escherichia coli],Escherichia coli,676,676,100%,0.0,78.68,416,"=HYPERLINK(""https://www.ncbi.nlm.nih.gov/protein/EFG2675219.1?report=genbank&log$=prottop&blast_rank=46&RID=BFHJBDCE016"",""EFG2675219.1"")"
DUF3748 domain-containing protein [Escherichia coli],Escherichia coli,676,676,100%,0.0,78.68,415,"=HYPERLINK(""https://www.ncbi.nlm.nih.gov/protein/EEU9146724.1?report=genbank&log$=prottop&blast_rank=47&RID=BFHJBDCE016"",""EEU9146724.1"")"
DUF3748 domain-containing protein [Escherichia coli],Escherichia coli,676,676,100%,0.0,78.43,416,"=HYPERLINK(""https://www.ncbi.nlm.nih.gov/protein/EFK2394824.1?report=genbank&log$=prottop&blast_rank=48&RID=BFHJBDCE016"",""EFK2394824.1"")"
DUF3748 domain-containing protein [Escherichia coli O8],Escherichia coli O8,676,676,100%,0.0,78.19,416,"=HYPERLINK(""https://www.ncbi.nlm.nih.gov/protein/EFA4271668.1?report=genbank&log$=prottop&blast_rank=49&RID=BFHJBDCE016"",""EFA4271668.1"")"
DUF3748 domain-containing protein [Escherichia coli],Escherichia coli,676,676,100%,0.0,78.92,415,"=HYPERLINK(""https://www.ncbi.nlm.nih.gov/protein/EFE7139998.1?report=genbank&log$=prottop&blast_rank=50&RID=BFHJBDCE016"",""EFE7139998.1"")"
DUF3748 domain-containing protein [Escherichia coli],Escherichia coli,676,676,100%,0.0,78.68,415,"=HYPERLINK(""https://www.ncbi.nlm.nih.gov/protein/EER1952879.1?report=genbank&log$=prottop&blast_rank=51&RID=BFHJBDCE016"",""EER1952879.1"")"
DUF3748 domain-containing protein [Escherichia coli],Escherichia coli,676,676,100%,0.0,78.43,415,"=HYPERLINK(""https://www.ncbi.nlm.nih.gov/protein/EFH6435707.1?report=genbank&log$=prottop&blast_rank=52&RID=BFHJBDCE016"",""EFH6435707.1"")"
DUF3748 domain-containing protein [Escherichia coli],Escherichia coli,676,676,100%,0.0,78.19,416,"=HYPERLINK(""https://www.ncbi.nlm.nih.gov/protein/EEZ4615225.1?report=genbank&log$=prottop&blast_rank=53&RID=BFHJBDCE016"",""EEZ4615225.1"")"
DUF3748 domain-containing protein [Escherichia coli],Escherichia coli,676,676,100%,0.0,78.68,415,"=HYPERLINK(""https://www.ncbi.nlm.nih.gov/protein/EFC1640985.1?report=genbank&log$=prottop&blast_rank=54&RID=BFHJBDCE016"",""EFC1640985.1"")"
DUF3748 domain-containing protein [Escherichia coli],Escherichia coli,676,676,100%,0.0,78.43,404,"=HYPERLINK(""https://www.ncbi.nlm.nih.gov/protein/EJA4837299.1?report=genbank&log$=prottop&blast_rank=55&RID=BFHJBDCE016"",""EJA4837299.1"")"
DUF3748 domain-containing protein [Escherichia coli],Escherichia coli,676,676,100%,0.0,78.68,416,"=HYPERLINK(""https://www.ncbi.nlm.nih.gov/protein/EGF7346555.1?report=genbank&log$=prottop&blast_rank=56&RID=BFHJBDCE016"",""EGF7346555.1"")"
DUF3748 domain-containing protein [Escherichia coli],Escherichia coli,676,676,100%,0.0,78.43,404,"=HYPERLINK(""https://www.ncbi.nlm.nih.gov/protein/WP_201793714.1?report=genbank&log$=prottop&blast_rank=57&RID=BFHJBDCE016"",""WP_201793714.1"")"
DUF3748 domain-containing protein [Escherichia coli],Escherichia coli,676,676,100%,0.0,78.19,404,"=HYPERLINK(""https://www.ncbi.nlm.nih.gov/protein/WFW64774.1?report=genbank&log$=prottop&blast_rank=58&RID=BFHJBDCE016"",""WFW64774.1"")"
DUF3748 domain-containing protein [Escherichia coli],Escherichia coli,676,676,100%,0.0,78.68,404,"=HYPERLINK(""https://www.ncbi.nlm.nih.gov/protein/WP_001525918.1?report=genbank&log$=prottop&blast_rank=59&RID=BFHJBDCE016"",""WP_001525918.1"")"
DUF3748 domain-containing protein [Escherichia coli],Escherichia coli,676,676,100%,0.0,78.92,404,"=HYPERLINK(""https://www.ncbi.nlm.nih.gov/protein/WP_063100063.1?report=genbank&log$=prottop&blast_rank=60&RID=BFHJBDCE016"",""WP_063100063.1"")"
DUF3748 domain-containing protein [Escherichia coli],Escherichia coli,676,676,100%,0.0,78.19,415,"=HYPERLINK(""https://www.ncbi.nlm.nih.gov/protein/EGO6543285.1?report=genbank&log$=prottop&blast_rank=61&RID=BFHJBDCE016"",""EGO6543285.1"")"
DUF3748 domain-containing protein [Escherichia coli],Escherichia coli,676,676,100%,0.0,78.19,415,"=HYPERLINK(""https://www.ncbi.nlm.nih.gov/protein/EEU9152906.1?report=genbank&log$=prottop&blast_rank=62&RID=BFHJBDCE016"",""EEU9152906.1"")"
DUF3748 domain-containing protein [Escherichia coli],Escherichia coli,676,676,100%,0.0,78.19,416,"=HYPERLINK(""https://www.ncbi.nlm.nih.gov/protein/EEQ2263663.1?report=genbank&log$=prottop&blast_rank=63&RID=BFHJBDCE016"",""EEQ2263663.1"")"
DUF3748 domain-containing protein [Escherichia coli],Escherichia coli,676,676,100%,0.0,78.43,415,"=HYPERLINK(""https://www.ncbi.nlm.nih.gov/protein/TZD95036.1?report=genbank&log$=prottop&blast_rank=64&RID=BFHJBDCE016"",""TZD95036.1"")"
DUF3748 domain-containing protein [Escherichia coli],Escherichia coli,676,676,100%,0.0,78.19,404,"=HYPERLINK(""https://www.ncbi.nlm.nih.gov/protein/WP_001364535.1?report=genbank&log$=prottop&blast_rank=65&RID=BFHJBDCE016"",""WP_001364535.1"")"
DUF3748 domain-containing protein [Escherichia coli],Escherichia coli,676,676,100%,0.0,78.19,415,"=HYPERLINK(""https://www.ncbi.nlm.nih.gov/protein/AXF70178.1?report=genbank&log$=prottop&blast_rank=66&RID=BFHJBDCE016"",""AXF70178.1"")"
DUF3748 domain-containing protein [Escherichia coli],Escherichia coli,676,676,100%,0.0,78.68,415,"=HYPERLINK(""https://www.ncbi.nlm.nih.gov/protein/EFO2788373.1?report=genbank&log$=prottop&blast_rank=67&RID=BFHJBDCE016"",""EFO2788373.1"")"
DUF3748 domain-containing protein [Escherichia coli],Escherichia coli,676,676,100%,0.0,78.92,404,"=HYPERLINK(""https://www.ncbi.nlm.nih.gov/protein/MCN4574316.1?report=genbank&log$=prottop&blast_rank=68&RID=BFHJBDCE016"",""MCN4574316.1"")"
TPA: DUF3748 domain-containing protein [Escherichia coli],Escherichia coli,676,676,100%,0.0,78.43,416,"=HYPERLINK(""https://www.ncbi.nlm.nih.gov/protein/HAV9736276.1?report=genbank&log$=prottop&blast_rank=69&RID=BFHJBDCE016"",""HAV9736276.1"")"
DUF3748 domain-containing protein [Escherichia coli],Escherichia coli,676,676,100%,0.0,78.43,415,"=HYPERLINK(""https://www.ncbi.nlm.nih.gov/protein/PPV99263.1?report=genbank&log$=prottop&blast_rank=70&RID=BFHJBDCE016"",""PPV99263.1"")"
DUF3748 domain-containing protein [Escherichia coli],Escherichia coli,676,676,100%,0.0,78.43,416,"=HYPERLINK(""https://www.ncbi.nlm.nih.gov/protein/EGK4187025.1?report=genbank&log$=prottop&blast_rank=71&RID=BFHJBDCE016"",""EGK4187025.1"")"
DUF3748 domain-containing protein [Escherichia coli],Escherichia coli,676,676,100%,0.0,78.19,415,"=HYPERLINK(""https://www.ncbi.nlm.nih.gov/protein/EEV5909571.1?report=genbank&log$=prottop&blast_rank=72&RID=BFHJBDCE016"",""EEV5909571.1"")"
hypothetical protein BWI85_08930 [Escherichia coli],Escherichia coli,676,676,100%,0.0,78.19,416,"=HYPERLINK(""https://www.ncbi.nlm.nih.gov/protein/AUY85718.1?report=genbank&log$=prottop&blast_rank=73&RID=BFHJBDCE016"",""AUY85718.1"")"
DUF3748 domain-containing protein [Escherichia coli],Escherichia coli,676,676,100%,0.0,78.43,415,"=HYPERLINK(""https://www.ncbi.nlm.nih.gov/protein/EFO0737552.1?report=genbank&log$=prottop&blast_rank=74&RID=BFHJBDCE016"",""EFO0737552.1"")"
DUF3748 domain-containing protein [Escherichia coli],Escherichia coli,675,675,100%,0.0,78.43,404,"=HYPERLINK(""https://www.ncbi.nlm.nih.gov/protein/WP_181048913.1?report=genbank&log$=prottop&blast_rank=75&RID=BFHJBDCE016"",""WP_181048913.1"")"
DUF3748 domain-containing protein [Escherichia coli],Escherichia coli,675,675,100%,0.0,78.43,404,"=HYPERLINK(""https://www.ncbi.nlm.nih.gov/protein/MBB9898885.1?report=genbank&log$=prottop&blast_rank=76&RID=BFHJBDCE016"",""MBB9898885.1"")"
DUF3748 domain-containing protein [Escherichia coli],Escherichia coli,675,675,100%,0.0,78.43,416,"=HYPERLINK(""https://www.ncbi.nlm.nih.gov/protein/EFA6041869.1?report=genbank&log$=prottop&blast_rank=77&RID=BFHJBDCE016"",""EFA6041869.1"")"
DUF3748 domain-containing protein [Escherichia coli],Escherichia coli,675,675,100%,0.0,78.68,415,"=HYPERLINK(""https://www.ncbi.nlm.nih.gov/protein/EEW5970574.1?report=genbank&log$=prottop&blast_rank=78&RID=BFHJBDCE016"",""EEW5970574.1"")"
DUF3748 domain-containing protein [Escherichia coli],Escherichia coli,675,675,100%,0.0,77.94,415,"=HYPERLINK(""https://www.ncbi.nlm.nih.gov/protein/EFB2466882.1?report=genbank&log$=prottop&blast_rank=79&RID=BFHJBDCE016"",""EFB2466882.1"")"
DUF3748 domain-containing protein [Escherichia coli],Escherichia coli,675,675,100%,0.0,78.43,416,"=HYPERLINK(""https://www.ncbi.nlm.nih.gov/protein/EEZ4660998.1?report=genbank&log$=prottop&blast_rank=80&RID=BFHJBDCE016"",""EEZ4660998.1"")"
TPA: DUF3748 domain-containing protein [Escherichia coli],Escherichia coli,675,675,100%,0.0,78.43,416,"=HYPERLINK(""https://www.ncbi.nlm.nih.gov/protein/HAW1780291.1?report=genbank&log$=prottop&blast_rank=81&RID=BFHJBDCE016"",""HAW1780291.1"")"
hypothetical protein BE962_24390 [Escherichia coli],Escherichia coli,675,675,100%,0.0,78.43,416,"=HYPERLINK(""https://www.ncbi.nlm.nih.gov/protein/AQV81146.1?report=genbank&log$=prottop&blast_rank=82&RID=BFHJBDCE016"",""AQV81146.1"")"
DUF3748 domain-containing protein [Escherichia coli],Escherichia coli,675,675,100%,0.0,78.68,404,"=HYPERLINK(""https://www.ncbi.nlm.nih.gov/protein/EIQ9721796.1?report=genbank&log$=prottop&blast_rank=83&RID=BFHJBDCE016"",""EIQ9721796.1"")"
DUF3748 domain-containing protein [Escherichia],Escherichia,675,675,100%,0.0,78.19,404,"=HYPERLINK(""https://www.ncbi.nlm.nih.gov/protein/WP_199763657.1?report=genbank&log$=prottop&blast_rank=84&RID=BFHJBDCE016"",""WP_199763657.1"")"
DUF3748 domain-containing protein [Escherichia coli],Escherichia coli,675,675,100%,0.0,78.43,404,"=HYPERLINK(""https://www.ncbi.nlm.nih.gov/protein/EHR7951747.1?report=genbank&log$=prottop&blast_rank=85&RID=BFHJBDCE016"",""EHR7951747.1"")"
TPA: DUF3748 domain-containing protein [Escherichia coli],Escherichia coli,675,675,100%,0.0,78.43,416,"=HYPERLINK(""https://www.ncbi.nlm.nih.gov/protein/HAV9161097.1?report=genbank&log$=prottop&blast_rank=86&RID=BFHJBDCE016"",""HAV9161097.1"")"
DUF3748 domain-containing protein [Escherichia coli],Escherichia coli,675,675,100%,0.0,78.43,415,"=HYPERLINK(""https://www.ncbi.nlm.nih.gov/protein/EAA1047568.1?report=genbank&log$=prottop&blast_rank=87&RID=BFHJBDCE016"",""EAA1047568.1"")"
TPA: DUF3748 domain-containing protein [Escherichia coli],Escherichia coli,675,675,100%,0.0,78.19,416,"=HYPERLINK(""https://www.ncbi.nlm.nih.gov/protein/HBB0924971.1?report=genbank&log$=prottop&blast_rank=88&RID=BFHJBDCE016"",""HBB0924971.1"")"
DUF3748 domain-containing protein [Escherichia coli],Escherichia coli,675,675,100%,0.0,78.43,415,"=HYPERLINK(""https://www.ncbi.nlm.nih.gov/protein/EFB2603665.1?report=genbank&log$=prottop&blast_rank=89&RID=BFHJBDCE016"",""EFB2603665.1"")"
DUF3748 domain-containing protein [Escherichia coli],Escherichia coli,675,675,100%,0.0,78.68,404,"=HYPERLINK(""https://www.ncbi.nlm.nih.gov/protein/WP_214280419.1?report=genbank&log$=prottop&blast_rank=90&RID=BFHJBDCE016"",""WP_214280419.1"")"
DUF3748 domain-containing protein [Escherichia coli],Escherichia coli,675,675,100%,0.0,78.43,415,"=HYPERLINK(""https://www.ncbi.nlm.nih.gov/protein/EAA4630208.1?report=genbank&log$=prottop&blast_rank=91&RID=BFHJBDCE016"",""EAA4630208.1"")"
DUF3748 domain-containing protein [Escherichia coli],Escherichia coli,675,675,100%,0.0,78.68,404,"=HYPERLINK(""https://www.ncbi.nlm.nih.gov/protein/WP_170987166.1?report=genbank&log$=prottop&blast_rank=92&RID=BFHJBDCE016"",""WP_170987166.1"")"
TPA: DUF3748 domain-containing protein [Escherichia coli],Escherichia coli,675,675,100%,0.0,78.43,416,"=HYPERLINK(""https://www.ncbi.nlm.nih.gov/protein/HAN6152486.1?report=genbank&log$=prottop&blast_rank=93&RID=BFHJBDCE016"",""HAN6152486.1"")"
DUF3748 domain-containing protein [Escherichia coli],Escherichia coli,675,675,100%,0.0,78.19,404,"=HYPERLINK(""https://www.ncbi.nlm.nih.gov/protein/WP_044187023.1?report=genbank&log$=prottop&blast_rank=94&RID=BFHJBDCE016"",""WP_044187023.1"")"
DUF3748 domain-containing protein [Escherichia coli],Escherichia coli,675,675,100%,0.0,78.43,404,"=HYPERLINK(""https://www.ncbi.nlm.nih.gov/protein/WP_250780756.1?report=genbank&log$=prottop&blast_rank=95&RID=BFHJBDCE016"",""WP_250780756.1"")"
DUF3748 domain-containing protein [Escherichia coli],Escherichia coli,675,675,100%,0.0,78.43,415,"=HYPERLINK(""https://www.ncbi.nlm.nih.gov/protein/EFB6592506.1?report=genbank&log$=prottop&blast_rank=96&RID=BFHJBDCE016"",""EFB6592506.1"")"
DUF3748 domain-containing protein [Escherichia coli],Escherichia coli,675,675,100%,0.0,78.43,416,"=HYPERLINK(""https://www.ncbi.nlm.nih.gov/protein/EFJ2696677.1?report=genbank&log$=prottop&blast_rank=97&RID=BFHJBDCE016"",""EFJ2696677.1"")"
DUF3748 domain-containing protein [Escherichia coli],Escherichia coli,675,675,100%,0.0,78.43,415,"=HYPERLINK(""https://www.ncbi.nlm.nih.gov/protein/EFH3280490.1?report=genbank&log$=prottop&blast_rank=98&RID=BFHJBDCE016"",""EFH3280490.1"")"
DUF3748 domain-containing protein [Escherichia coli],Escherichia coli,675,675,100%,0.0,78.43,416,"=HYPERLINK(""https://www.ncbi.nlm.nih.gov/protein/EGK6001870.1?report=genbank&log$=prottop&blast_rank=99&RID=BFHJBDCE016"",""EGK6001870.1"")"
hypothetical protein BE957_03700 [Escherichia coli],Escherichia coli,675,675,100%,0.0,78.43,416,"=HYPERLINK(""https://www.ncbi.nlm.nih.gov/protein/AQV18325.1?report=genbank&log$=prottop&blast_rank=100&RID=BFHJBDCE016"",""AQV18325.1"")"



		


