accession_number	species	length
VTQ39278.1	Klebsiella pneumoniae	408
SBZ03903.1	Klebsiella pneumoniae	408
VTT43839.1	Klebsiella pneumoniae	408
SNU32589.1	Klebsiella grimontii	408
ABR79476.1	Klebsiella pneumoniae subsp. pneumoniae MGH 78578	408
SAL92447.1	Klebsiella pneumoniae	408
SBM86533.1	Klebsiella variicola	421
SBN24083.1	Klebsiella pneumoniae	408
SAZ09645.1	Klebsiella quasipneumoniae subsp. similipneumoniae	421
CTQ26131.1	Klebsiella pneumoniae	408
CTP98822.1	Klebsiella variicola	408
CTP98823.1	Klebsiella variicola	421
CTP99464.1	Klebsiella variicola	408
CTQ00511.1	Klebsiella variicola	421
CTQ23494.1	Klebsiella variicola	421
CDQ17072.1	Klebsiella quasipneumoniae subsp. quasipneumoniae	408
CDN03011.1	Klebsiella quasipneumoniae subsp. quasipneumoniae	408
CDN09056.1	Klebsiella quasipneumoniae subsp. similipneumoniae	421
CEP33295.1	Klebsiella variicola	421
CEL83809.1	Klebsiella variicola	421
CED73047.1	Klebsiella pneumoniae	406
CDI15520.1	Klebsiella pneumoniae subsp. pneumoniae T69	408
